G04 (created by PCBNEW (22-Jun-2014 BZR 4027)-stable) date Mon May 10 13:00:32 2021*
%MOIN*%
G04 Gerber Fmt 3.4, Leading zero omitted, Abs format*
%FSLAX34Y34*%
G01*
G70*
G90*
G04 APERTURE LIST*
%ADD10C,0.00590551*%
%ADD11R,0.098474X0.0197*%
%ADD12R,0.0984X0.0787*%
%ADD13R,0.025X0.045*%
%ADD14R,0.0787X0.0098*%
%ADD15R,0.0098X0.0787*%
%ADD16C,0.23622*%
%ADD17C,0.06*%
%ADD18C,0.0314961*%
%ADD19C,0.019685*%
%ADD20C,0.00787402*%
%ADD21C,0.0314961*%
%ADD22C,0.0629921*%
G04 APERTURE END LIST*
G54D10*
G54D11*
X30531Y-22598D03*
X30531Y-22913D03*
X30531Y-23228D03*
X30531Y-23543D03*
X30531Y-23858D03*
G54D12*
X30452Y-21476D03*
X28287Y-21476D03*
X30452Y-24980D03*
X28287Y-24980D03*
G54D13*
X32485Y-21456D03*
X31885Y-21456D03*
G54D14*
X35629Y-18602D03*
X35629Y-18799D03*
X35629Y-18996D03*
X35629Y-19193D03*
X35629Y-19390D03*
X35629Y-19587D03*
X35629Y-19783D03*
X35629Y-19980D03*
X35629Y-20177D03*
X35629Y-20374D03*
X35629Y-20571D03*
X35629Y-20768D03*
X39173Y-20768D03*
X39173Y-20571D03*
X39173Y-20374D03*
X39173Y-20177D03*
X39173Y-19980D03*
X39173Y-19783D03*
X39173Y-19587D03*
X39173Y-19390D03*
X39173Y-19193D03*
X39173Y-18996D03*
X39173Y-18799D03*
X39173Y-18602D03*
G54D15*
X36318Y-21457D03*
X36515Y-21457D03*
X36712Y-21457D03*
X36909Y-21457D03*
X37106Y-21457D03*
X37303Y-21457D03*
X37499Y-21457D03*
X37696Y-21457D03*
X37893Y-21457D03*
X38090Y-21457D03*
X38287Y-21457D03*
X38484Y-21457D03*
X38484Y-17913D03*
X38287Y-17913D03*
X38090Y-17913D03*
X37893Y-17913D03*
X37696Y-17913D03*
X37499Y-17913D03*
X37303Y-17913D03*
X37106Y-17913D03*
X36909Y-17913D03*
X36712Y-17913D03*
X36515Y-17913D03*
X36318Y-17913D03*
G54D14*
X39173Y-27460D03*
X39173Y-27263D03*
X39173Y-27066D03*
X39173Y-26869D03*
X39173Y-26672D03*
X39173Y-26475D03*
X39173Y-26279D03*
X39173Y-26082D03*
X39173Y-25885D03*
X39173Y-25688D03*
X39173Y-25491D03*
X39173Y-25294D03*
X35629Y-25294D03*
X35629Y-25491D03*
X35629Y-25688D03*
X35629Y-25885D03*
X35629Y-26082D03*
X35629Y-26279D03*
X35629Y-26475D03*
X35629Y-26672D03*
X35629Y-26869D03*
X35629Y-27066D03*
X35629Y-27263D03*
X35629Y-27460D03*
G54D15*
X38484Y-24605D03*
X38287Y-24605D03*
X38090Y-24605D03*
X37893Y-24605D03*
X37696Y-24605D03*
X37499Y-24605D03*
X37303Y-24605D03*
X37106Y-24605D03*
X36909Y-24605D03*
X36712Y-24605D03*
X36515Y-24605D03*
X36318Y-24605D03*
X36318Y-28149D03*
X36515Y-28149D03*
X36712Y-28149D03*
X36909Y-28149D03*
X37106Y-28149D03*
X37303Y-28149D03*
X37499Y-28149D03*
X37696Y-28149D03*
X37893Y-28149D03*
X38090Y-28149D03*
X38287Y-28149D03*
X38484Y-28149D03*
G54D16*
X45275Y-15748D03*
G54D13*
X33361Y-18110D03*
X33961Y-18110D03*
G54D17*
X34826Y-15748D03*
X35826Y-15748D03*
X36826Y-15748D03*
G54D18*
X29527Y-25196D03*
X29527Y-20866D03*
G54D19*
X37401Y-23129D03*
X36614Y-23129D03*
G54D20*
X35629Y-19980D02*
X34744Y-19980D01*
X34251Y-20472D02*
X33370Y-20472D01*
X34744Y-19980D02*
X34251Y-20472D01*
G54D21*
X30452Y-21476D02*
X30137Y-21476D01*
X29744Y-24980D02*
X30452Y-24980D01*
X29527Y-25196D02*
X29744Y-24980D01*
X30137Y-21476D02*
X29527Y-20866D01*
G54D20*
X36515Y-24605D02*
X36515Y-23622D01*
X37499Y-22638D02*
X37499Y-21457D01*
X36515Y-23622D02*
X37499Y-22638D01*
G54D22*
X35826Y-15748D02*
X35826Y-15354D01*
X36614Y-14566D02*
X38582Y-14566D01*
X35826Y-15354D02*
X36614Y-14566D01*
G54D20*
X36318Y-24605D02*
X36318Y-23425D01*
X37696Y-22834D02*
X37696Y-21457D01*
X37401Y-23129D02*
X37696Y-22834D01*
X36318Y-23425D02*
X36614Y-23129D01*
M02*
