PCBNEW-LibModule-V1  Tue Nov 20 16:13:08 2018
# encoding utf-8
Units mm
$INDEX
CFPS-72
DIP-16-rubi
DIP-16-smd-rubi
DIP-4-smd-rubi
DIP-8-smd-rubi
LDO-SOT223
LGA-12
MSOP10-rubi
SO14N
SO16L
SO16N-rubi
SOIC8-8W
SOT123-rubi
Si501
TFDN-10-EP
TQFP32-rubi
TSSOP24-rubi
WS2812B
WS2812B-small-pads
WSON8
dfn-10
lqfp-48-rubi
lqfp-80-rubi
osc-25x32
qfn36-rubi
sot-563
sot23-6
sot89-5
ssop-20-rubi
ssop-28-rubi
tqfp44-rubi
tsop-5
tssop38
vcxo-6pin
wson-6
$EndINDEX
$MODULE CFPS-72
Po 0 0 0 15 56F56998 00000000 ~~
Li CFPS-72
Sc 0
AR /56E2BFAB
Op 0 0 0
T0 -3.81 0.762 0.7 0.7 900 0.14 N V 21 N "U?"
T1 0 -5.08 0.7 0.7 0 0.14 N I 21 N "CFPS-48MHz"
DS -1.524 -4.572 -3.81 -4.572 0.2 21
DS -3.81 -4.572 -3.81 -1.778 0.2 21
DS -2.6 -3.6 2.6 -3.6 0.3048 21
DS 2.6 -3.6 2.6 3.6 0.3048 21
DS 2.6 3.6 -2.6 3.6 0.3048 21
DS -2.6 3.6 -2.6 -3.6 0.3048 21
$PAD
Sh "1" R 2 2.4 0 0 0
Dr 0 0 0
At SMD N 00888000
Ne 0 ""
Po -2.3 -2.8
$EndPAD
$PAD
Sh "2" R 2 2.4 0 0 0
Dr 0 0 0
At SMD N 00888000
Ne 2 "GND"
Po -2.3 2.8
$EndPAD
$PAD
Sh "3" R 2 2.4 0 0 0
Dr 0 0 0
At SMD N 00888000
Ne 0 ""
Po 2.2 2.8
$EndPAD
$PAD
Sh "4" R 2 2.4 0 0 0
Dr 0 0 0
At SMD N 00888000
Ne 1 "+5V"
Po 2.3 -2.8
$EndPAD
$EndMODULE CFPS-72
$MODULE DIP-16-rubi
Po 0 0 0 15 5AB2CF17 00000000 ~~
Li DIP-16-rubi
Cd 16 pins DIL package, round pads
Kw DIL
Sc 0
AR /5AB0D66B
Op 0 0 0
T0 -12.7 0 0.7 0.7 900 0.14 N V 21 N "P1"
T1 0.635 0 0.7 0.7 0 0.14 N V 21 N "DIP-SWITCH-8"
DS -11.43 -1.27 -10.795 -1.27 0.15 21
DS -10.795 -1.27 -10.795 1.27 0.15 21
DS -10.795 1.27 -11.43 1.27 0.15 21
DS -11.43 -2.54 11.43 -2.54 0.2 21
DS 11.43 -2.54 11.43 2.54 0.2 21
DS 11.43 2.54 -11.43 2.54 0.2 21
DS -11.43 2.54 -11.43 -2.54 0.2 21
$PAD
Sh "1" R 1.397 1.397 0 0 0
Dr 0.8128 0 0
At STD N 00E0FFFF
Ne 8 "GND"
Po -8.89 3.81
$EndPAD
$PAD
Sh "2" C 1.397 1.397 0 0 0
Dr 0.8128 0 0
At STD N 00E0FFFF
Ne 5 "/ch1-4/E1"
Po -6.35 3.81
$EndPAD
$PAD
Sh "3" C 1.397 1.397 0 0 0
Dr 0.8128 0 0
At STD N 00E0FFFF
Ne 6 "/ch1-4/E2"
Po -3.81 3.81
$EndPAD
$PAD
Sh "4" C 1.397 1.397 0 0 0
Dr 0.8128 0 0
At STD N 00E0FFFF
Ne 7 "/ch1-4/E3"
Po -1.27 3.81
$EndPAD
$PAD
Sh "5" C 1.397 1.397 0 0 0
Dr 0.8128 0 0
At STD N 00E0FFFF
Ne 0 ""
Po 1.27 3.81
$EndPAD
$PAD
Sh "6" C 1.397 1.397 0 0 0
Dr 0.8128 0 0
At STD N 00E0FFFF
Ne 0 ""
Po 3.81 3.81
$EndPAD
$PAD
Sh "7" C 1.397 1.397 0 0 0
Dr 0.8128 0 0
At STD N 00E0FFFF
Ne 0 ""
Po 6.35 3.81
$EndPAD
$PAD
Sh "8" C 1.397 1.397 0 0 0
Dr 0.8128 0 0
At STD N 00E0FFFF
Ne 0 ""
Po 8.89 3.81
$EndPAD
$PAD
Sh "9" C 1.397 1.397 0 0 0
Dr 0.8128 0 0
At STD N 00E0FFFF
Ne 0 ""
Po 8.89 -3.81
$EndPAD
$PAD
Sh "10" C 1.397 1.397 0 0 0
Dr 0.8128 0 0
At STD N 00E0FFFF
Ne 0 ""
Po 6.35 -3.81
$EndPAD
$PAD
Sh "11" C 1.397 1.397 0 0 0
Dr 0.8128 0 0
At STD N 00E0FFFF
Ne 0 ""
Po 3.81 -3.81
$EndPAD
$PAD
Sh "12" C 1.397 1.397 0 0 0
Dr 0.8128 0 0
At STD N 00E0FFFF
Ne 0 ""
Po 1.27 -3.81
$EndPAD
$PAD
Sh "13" C 1.397 1.397 0 0 0
Dr 0.8128 0 0
At STD N 00E0FFFF
Ne 4 "/ch1-4/C3"
Po -1.27 -3.81
$EndPAD
$PAD
Sh "14" C 1.397 1.397 0 0 0
Dr 0.8128 0 0
At STD N 00E0FFFF
Ne 3 "/ch1-4/C2"
Po -3.81 -3.81
$EndPAD
$PAD
Sh "15" C 1.397 1.397 0 0 0
Dr 0.8128 0 0
At STD N 00E0FFFF
Ne 2 "/ch1-4/C1"
Po -6.35 -3.81
$EndPAD
$PAD
Sh "16" C 1.397 1.397 0 0 0
Dr 0.8128 0 0
At STD N 00E0FFFF
Ne 1 "/ch1-4/C0"
Po -8.89 -3.81
$EndPAD
$SHAPE3D
Na "dil/dil_16.wrl"
Sc 1 1 1
Of 0 0 0
Ro 0 0 0
$EndSHAPE3D
$EndMODULE DIP-16-rubi
$MODULE DIP-16-smd-rubi
Po 0 0 0 15 5AB2D04A 00000000 ~~
Li DIP-16-smd-rubi
Cd 16 pins DIL package, round pads
Kw DIL
Sc 0
AR /5AB0D66B
Op 0 0 0
T0 -12.7 0 0.7 0.7 900 0.14 N V 21 N "P1"
T1 0.635 0 0.7 0.7 0 0.14 N V 21 N "DIP-SWITCH-8"
DS -11.43 -1.27 -10.795 -1.27 0.15 21
DS -10.795 -1.27 -10.795 1.27 0.15 21
DS -10.795 1.27 -11.43 1.27 0.15 21
DS -11.43 -2.54 11.43 -2.54 0.2 21
DS 11.43 -2.54 11.43 2.54 0.2 21
DS 11.43 2.54 -11.43 2.54 0.2 21
DS -11.43 2.54 -11.43 -2.54 0.2 21
$PAD
Sh "1" R 1.524 3.048 0 0 0
Dr 0 0 0
At SMD N 00888000
Ne 0 ""
Po -8.89 3.81
$EndPAD
$PAD
Sh "2" R 1.524 3.048 0 0 0
Dr 0 0 0
At SMD N 00888000
Ne 0 ""
Po -6.35 3.81
$EndPAD
$PAD
Sh "3" R 1.524 3.048 0 0 0
Dr 0 0 0
At SMD N 00888000
Ne 0 ""
Po -3.81 3.81
$EndPAD
$PAD
Sh "4" R 1.524 3.048 0 0 0
Dr 0 0 0
At SMD N 00888000
Ne 0 ""
Po -1.27 3.81
$EndPAD
$PAD
Sh "5" R 1.524 3.048 0 0 0
Dr 0 0 0
At SMD N 00888000
Ne 0 ""
Po 1.27 3.81
$EndPAD
$PAD
Sh "6" R 1.524 3.048 0 0 0
Dr 0 0 0
At SMD N 00888000
Ne 0 ""
Po 3.81 3.81
$EndPAD
$PAD
Sh "7" R 1.524 3.048 0 0 0
Dr 0 0 0
At SMD N 00888000
Ne 0 ""
Po 6.35 3.81
$EndPAD
$PAD
Sh "8" R 1.524 3.048 0 0 0
Dr 0 0 0
At SMD N 00888000
Ne 0 ""
Po 8.89 3.81
$EndPAD
$PAD
Sh "9" R 1.524 3.048 0 0 0
Dr 0 0 0
At SMD N 00888000
Ne 0 ""
Po 8.89 -3.81
$EndPAD
$PAD
Sh "10" R 1.524 3.048 0 0 0
Dr 0 0 0
At SMD N 00888000
Ne 0 ""
Po 6.35 -3.81
$EndPAD
$PAD
Sh "11" R 1.524 3.048 0 0 0
Dr 0 0 0
At SMD N 00888000
Ne 0 ""
Po 3.81 -3.81
$EndPAD
$PAD
Sh "12" R 1.524 3.048 0 0 0
Dr 0 0 0
At SMD N 00888000
Ne 0 ""
Po 1.27 -3.81
$EndPAD
$PAD
Sh "13" R 1.524 3.048 0 0 0
Dr 0 0 0
At SMD N 00888000
Ne 0 ""
Po -1.27 -3.81
$EndPAD
$PAD
Sh "14" R 1.524 3.048 0 0 0
Dr 0 0 0
At SMD N 00888000
Ne 0 ""
Po -3.81 -3.81
$EndPAD
$PAD
Sh "15" R 1.524 3.048 0 0 0
Dr 0 0 0
At SMD N 00888000
Ne 0 ""
Po -6.35 -3.81
$EndPAD
$PAD
Sh "16" R 1.524 3.048 0 0 0
Dr 0 0 0
At SMD N 00888000
Ne 0 ""
Po -8.89 -3.81
$EndPAD
$SHAPE3D
Na "dil/dil_16.wrl"
Sc 1 1 1
Of 0 0 0
Ro 0 0 0
$EndSHAPE3D
$EndMODULE DIP-16-smd-rubi
$MODULE DIP-4-smd-rubi
Po 0 0 0 15 5B236299 00000000 ~~
Li DIP-4-smd-rubi
Cd 16 pins DIL package, round pads
Kw DIL
Sc 0
AR /5AB0D66B
Op 0 0 0
T0 -5.08 0 0.7 0.7 900 0.14 N V 21 N "P1"
T1 0 0 0.7 0.7 0 0.14 N V 21 N "DIP-SW-2"
DS -3.81 2.54 3.81 2.54 0.15 21
DS -3.81 -2.54 3.81 -2.54 0.15 21
DS 3.81 -2.54 3.81 2.54 0.15 21
DS -3.81 -1.27 -3.175 -1.27 0.15 21
DS -3.175 -1.27 -3.175 1.27 0.15 21
DS -3.175 1.27 -3.81 1.27 0.15 21
DS -3.81 2.54 -3.81 -2.54 0.2 21
$PAD
Sh "1" R 1.524 3.048 0 0 0
Dr 0 0 0
At SMD N 00888000
Ne 0 ""
Po -1.27 3.81
$EndPAD
$PAD
Sh "2" R 1.524 3.048 0 0 0
Dr 0 0 0
At SMD N 00888000
Ne 0 ""
Po 1.27 3.81
$EndPAD
$PAD
Sh "3" R 1.524 3.048 0 0 0
Dr 0 0 0
At SMD N 00888000
Ne 0 ""
Po 1.27 -3.81
$EndPAD
$PAD
Sh "4" R 1.524 3.048 0 0 0
Dr 0 0 0
At SMD N 00888000
Ne 0 ""
Po -1.27 -3.81
$EndPAD
$SHAPE3D
Na "dil/dil_16.wrl"
Sc 1 1 1
Of 0 0 0
Ro 0 0 0
$EndSHAPE3D
$EndMODULE DIP-4-smd-rubi
$MODULE DIP-8-smd-rubi
Po 0 0 0 15 5B2361F5 00000000 ~~
Li DIP-8-smd-rubi
Cd 16 pins DIL package, round pads
Kw DIL
Sc 0
AR /5AB0D66B
Op 0 0 0
T0 -7.62 0 0.7 0.7 900 0.14 N V 21 N "P1"
T1 0 0 0.7 0.7 0 0.14 N V 21 N "DIP-SWITCH-4"
DS -6.35 2.54 6.35 2.54 0.15 21
DS -6.35 -2.54 6.35 -2.54 0.15 21
DS 6.35 -2.54 6.35 2.54 0.15 21
DS -6.35 -1.27 -5.715 -1.27 0.15 21
DS -5.715 -1.27 -5.715 1.27 0.15 21
DS -5.715 1.27 -6.35 1.27 0.15 21
DS -6.35 2.54 -6.35 -2.54 0.2 21
$PAD
Sh "1" R 1.524 3.048 0 0 0
Dr 0 0 0
At SMD N 00888000
Ne 0 ""
Po -3.81 3.81
$EndPAD
$PAD
Sh "2" R 1.524 3.048 0 0 0
Dr 0 0 0
At SMD N 00888000
Ne 0 ""
Po -1.27 3.81
$EndPAD
$PAD
Sh "3" R 1.524 3.048 0 0 0
Dr 0 0 0
At SMD N 00888000
Ne 0 ""
Po 1.27 3.81
$EndPAD
$PAD
Sh "4" R 1.524 3.048 0 0 0
Dr 0 0 0
At SMD N 00888000
Ne 0 ""
Po 3.81 3.81
$EndPAD
$PAD
Sh "5" R 1.524 3.048 0 0 0
Dr 0 0 0
At SMD N 00888000
Ne 0 ""
Po 7.62 -7.62
$EndPAD
$PAD
Sh "6" R 1.524 3.048 0 0 0
Dr 0 0 0
At SMD N 00888000
Ne 0 ""
Po 2.54 -7.62
$EndPAD
$PAD
Sh "7" R 1.524 3.048 0 0 0
Dr 0 0 0
At SMD N 00888000
Ne 0 ""
Po -2.54 -7.62
$EndPAD
$PAD
Sh "8" R 1.524 3.048 0 0 0
Dr 0 0 0
At SMD N 00888000
Ne 0 ""
Po -3.81 -3.81
$EndPAD
$SHAPE3D
Na "dil/dil_16.wrl"
Sc 1 1 1
Of 0 0 0
Ro 0 0 0
$EndSHAPE3D
$EndMODULE DIP-8-smd-rubi
$MODULE LDO-SOT223
Po 0 0 0 15 56F6D109 00000000 ~~
Li LDO-SOT223
Cd module CMS SOT223 4 pins
Kw CMS SOT
Sc 0
AR /56E0B849
Op 0 0 0
At SMD
T0 -0.41 -5.71 0.7 0.7 0 0.14 N V 21 N "U32"
T1 0 0.762 0.7 0.7 0 0.14 N V 21 N "AP2111H"
DS -3.556 1.524 -3.556 4.572 0.2032 21
DS -3.556 4.572 3.556 4.572 0.2032 21
DS 3.556 4.572 3.556 1.524 0.2032 21
DS -3.556 -1.524 -3.556 -2.286 0.2032 21
DS -3.556 -2.286 -2.032 -4.572 0.2032 21
DS -2.032 -4.572 2.032 -4.572 0.2032 21
DS 2.032 -4.572 3.556 -2.286 0.2032 21
DS 3.556 -2.286 3.556 -1.524 0.2032 21
$PAD
Sh "4" R 3.6576 2.032 0 0 0
Dr 0 0 0
At SMD N 00888000
Ne 0 ""
Po 0 -3.302
$EndPAD
$PAD
Sh "2" R 1.016 2.032 0 0 0
Dr 0 0 0
At SMD N 00888000
Ne 0 ""
Po 0 3.302
$EndPAD
$PAD
Sh "3" R 1.016 2.032 0 0 0
Dr 0 0 0
At SMD N 00888000
Ne 0 ""
Po 2.286 3.302
$EndPAD
$PAD
Sh "1" R 1.016 2.032 0 0 0
Dr 0 0 0
At SMD N 00888000
Ne 0 ""
Po -2.286 3.302
$EndPAD
$SHAPE3D
Na "smd/SOT223.wrl"
Sc 0.4 0.4 0.4
Of 0 0 0
Ro 0 0 0
$EndSHAPE3D
$EndMODULE LDO-SOT223
$MODULE LGA-12
Po 0 0 0 15 5B9BA6EB 00000000 ~~
Li LGA-12
Sc 0
AR 
Op 0 0 0
T0 0 -3.25 0.5 0.5 0 0.1 N V 21 N "LGA-12"
T1 0 3.5 0.5 0.5 0 0.1 N V 21 N "VAL**"
DS -1.5 -1.5 -1.5 -0.5 0.15 21
DS -1.5 -1.5 -0.5 -1.5 0.15 21
DS 1.3 1.3 -1.3 1.3 0.12 21
DS -1.3 1.3 -1.3 -1.3 0.12 21
DS -1.3 -1.3 1.3 -1.3 0.12 21
DS 1.3 -1.3 1.3 1.3 0.12 21
$PAD
Sh "1" R 0.45 0.25 0 0 0
Dr 0 0 0
At SMD N 00888000
Ne 0 ""
Po -0.85 -0.75
.LocalClearance 0.2
$EndPAD
$PAD
Sh "2" R 0.45 0.25 0 0 0
Dr 0 0 0
At SMD N 00888000
Ne 0 ""
Po -0.85 -0.25
.LocalClearance 0.2
$EndPAD
$PAD
Sh "3" R 0.45 0.25 0 0 0
Dr 0 0 0
At SMD N 00888000
Ne 0 ""
Po -0.85 0.25
.LocalClearance 0.2
$EndPAD
$PAD
Sh "4" R 0.45 0.25 0 0 0
Dr 0 0 0
At SMD N 00888000
Ne 0 ""
Po -0.85 0.75
.LocalClearance 0.2
$EndPAD
$PAD
Sh "5" R 0.25 0.45 0 0 0
Dr 0 0 0
At SMD N 00888000
Ne 0 ""
Po -0.25 0.85
.LocalClearance 0.2
$EndPAD
$PAD
Sh "6" R 0.25 0.45 0 0 0
Dr 0 0 0
At SMD N 00888000
Ne 0 ""
Po 0.25 0.85
.LocalClearance 0.2
$EndPAD
$PAD
Sh "7" R 0.45 0.25 0 0 0
Dr 0 0 0
At SMD N 00888000
Ne 0 ""
Po 0.85 0.75
.LocalClearance 0.2
$EndPAD
$PAD
Sh "8" R 0.45 0.25 0 0 0
Dr 0 0 0
At SMD N 00888000
Ne 0 ""
Po 0.85 0.25
.LocalClearance 0.2
$EndPAD
$PAD
Sh "9" R 0.45 0.25 0 0 0
Dr 0 0 0
At SMD N 00888000
Ne 0 ""
Po 0.85 -0.25
.LocalClearance 0.2
$EndPAD
$PAD
Sh "10" R 0.45 0.25 0 0 0
Dr 0 0 0
At SMD N 00888000
Ne 0 ""
Po 0.85 -0.75
.LocalClearance 0.2
$EndPAD
$PAD
Sh "11" R 0.25 0.45 0 0 0
Dr 0 0 0
At SMD N 00888000
Ne 0 ""
Po 0.25 -0.85
.LocalClearance 0.2
$EndPAD
$PAD
Sh "12" R 0.25 0.45 0 0 0
Dr 0 0 0
At SMD N 00888000
Ne 0 ""
Po -0.25 -0.85
.LocalClearance 0.2
$EndPAD
$EndMODULE LGA-12
$MODULE MSOP10-rubi
Po 0 0 0 15 5AC8FDE5 00000000 ~~
Li MSOP10-rubi
Sc 0
AR 
Op 0 0 0
T0 2.5 0 0.7 0.7 900 0.14 N V 21 N "MSOP10-rubi"
T1 -2.5 0 0.7 0.7 900 0.14 N V 21 N "VAL**"
DS -1.75 0.5 -1.75 1.75 0.15 21
DS -1.75 1.75 -0.5 1.75 0.15 21
DS -1.5 -1.5 1.5 -1.5 0.15 21
DS 1.5 -1.5 1.5 1.5 0.15 21
DS 1.5 1.5 -1.5 1.5 0.15 21
DS -1.5 1.5 -1.5 -1.5 0.15 21
$PAD
Sh "1" R 0.25 1.5 0 0 0
Dr 0 0 0
At SMD N 00888000
Ne 0 ""
Po -1 2.25
$EndPAD
$PAD
Sh "2" R 0.25 1.5 0 0 0
Dr 0 0 0
At SMD N 00888000
Ne 0 ""
Po -0.5 2.25
$EndPAD
$PAD
Sh "3" R 0.25 1.5 0 0 0
Dr 0 0 0
At SMD N 00888000
Ne 0 ""
Po 0 2.25
$EndPAD
$PAD
Sh "4" R 0.25 1.5 0 0 0
Dr 0 0 0
At SMD N 00888000
Ne 0 ""
Po 0.5 2.25
$EndPAD
$PAD
Sh "5" R 0.25 1.5 0 0 0
Dr 0 0 0
At SMD N 00888000
Ne 0 ""
Po 1 2.25
$EndPAD
$PAD
Sh "6" R 0.25 1.5 0 0 0
Dr 0 0 0
At SMD N 00888000
Ne 0 ""
Po 1 -2.25
$EndPAD
$PAD
Sh "7" R 0.25 1.5 0 0 0
Dr 0 0 0
At SMD N 00888000
Ne 0 ""
Po 0.5 -2.25
$EndPAD
$PAD
Sh "8" R 0.25 1.5 0 0 0
Dr 0 0 0
At SMD N 00888000
Ne 0 ""
Po 0 -2.25
$EndPAD
$PAD
Sh "9" R 0.25 1.5 0 0 0
Dr 0 0 0
At SMD N 00888000
Ne 0 ""
Po -0.5 -2.25
$EndPAD
$PAD
Sh "10" R 0.25 1.5 0 0 0
Dr 0 0 0
At SMD N 00888000
Ne 0 ""
Po -1 -2.25
$EndPAD
$EndMODULE MSOP10-rubi
$MODULE SO14N
Po 0 0 0 15 42806FE5 00000000 ~~
Li SO14N
Cd Module CMS SOJ 14 pins Large
Kw CMS SOJ
Sc 0
AR /56F4F18C/57EA2B6A
Op 0 0 0
At SMD
T0 0 -1.27 1.016 1.143 0 0.127 N V 21 N "U19"
T1 0 1.27 1.016 1.016 0 0.127 N V 21 N "4066-RUBI"
DS 5.08 -2.286 5.08 2.54 0.2032 21
DS 5.08 2.54 -5.08 2.54 0.2032 21
DS -5.08 2.54 -5.08 -2.286 0.2032 21
DS -5.08 -2.286 5.08 -2.286 0.2032 21
DS -5.08 -0.508 -4.445 -0.508 0.2032 21
DS -4.445 -0.508 -4.445 0.762 0.2032 21
DS -4.445 0.762 -5.08 0.762 0.2032 21
$PAD
Sh "1" R 0.508 1.143 0 0 0
Dr 0 0 0
At SMD N 00888000
Ne 0 ""
Po -3.81 3.302
$EndPAD
$PAD
Sh "2" R 0.508 1.143 0 0 0
Dr 0 0 0
At SMD N 00888000
Ne 0 ""
Po -2.54 3.302
$EndPAD
$PAD
Sh "3" R 0.508 1.143 0 0 0
Dr 0 0 0
At SMD N 00888000
Ne 0 ""
Po -1.27 3.302
$EndPAD
$PAD
Sh "4" R 0.508 1.143 0 0 0
Dr 0 0 0
At SMD N 00888000
Ne 0 ""
Po 0 3.302
$EndPAD
$PAD
Sh "5" R 0.508 1.143 0 0 0
Dr 0 0 0
At SMD N 00888000
Ne 0 ""
Po 1.27 3.302
$EndPAD
$PAD
Sh "6" R 0.508 1.143 0 0 0
Dr 0 0 0
At SMD N 00888000
Ne 0 ""
Po 2.54 3.302
$EndPAD
$PAD
Sh "7" R 0.508 1.143 0 0 0
Dr 0 0 0
At SMD N 00888000
Ne 0 ""
Po 3.81 3.302
$EndPAD
$PAD
Sh "8" R 0.508 1.143 0 0 0
Dr 0 0 0
At SMD N 00888000
Ne 0 ""
Po 3.81 -3.048
$EndPAD
$PAD
Sh "9" R 0.508 1.143 0 0 0
Dr 0 0 0
At SMD N 00888000
Ne 0 ""
Po 2.54 -3.048
$EndPAD
$PAD
Sh "11" R 0.508 1.143 0 0 0
Dr 0 0 0
At SMD N 00888000
Ne 0 ""
Po 0 -3.048
$EndPAD
$PAD
Sh "12" R 0.508 1.143 0 0 0
Dr 0 0 0
At SMD N 00888000
Ne 0 ""
Po -1.27 -3.048
$EndPAD
$PAD
Sh "13" R 0.508 1.143 0 0 0
Dr 0 0 0
At SMD N 00888000
Ne 0 ""
Po -2.54 -3.048
$EndPAD
$PAD
Sh "14" R 0.508 1.143 0 0 0
Dr 0 0 0
At SMD N 00888000
Ne 0 ""
Po -3.81 -3.048
$EndPAD
$PAD
Sh "10" R 0.508 1.143 0 0 0
Dr 0 0 0
At SMD N 00888000
Ne 0 ""
Po 1.27 -3.048
$EndPAD
$SHAPE3D
Na "smd/cms_so14.wrl"
Sc 0.5 0.4 0.5
Of 0 0 0
Ro 0 0 0
$EndSHAPE3D
$EndMODULE SO14N
$MODULE SO16L
Po 0 0 0 15 59941247 00000000 ~~
Li SO16L
Sc 0
AR /599370EA
Op 0 0 0
At SMD
T0 0 0.25 1.143 1.143 0 0.2032 N V 21 N "U2"
T1 0.381 -1.905 1.143 1.143 0 0.2032 N I 21 N "SPI-FLASH-16PIN"
DS 5.08 4.191 -5.08 4.191 0.127 21
DS -5.08 4.191 -5.08 -4.191 0.127 21
DS -5.08 -4.191 5.08 -4.191 0.127 21
DS 5.08 -4.191 5.08 4.191 0.127 21
DS -5.08 -0.635 -4.318 -0.635 0.127 21
DS -4.318 -0.635 -4.318 0.635 0.127 21
DS -4.318 0.635 -5.08 0.635 0.127 21
$PAD
Sh "1" R 0.635 1.905 0 0 0
Dr 0 0 0
At SMD N 00888000
Ne 0 ""
Po -4.445 5.08
$EndPAD
$PAD
Sh "2" R 0.635 1.905 0 0 0
Dr 0 0 0
At SMD N 00888000
Ne 1 "+3.3V"
Po -3.175 5.08
$EndPAD
$PAD
Sh "3" R 0.635 1.905 0 0 0
Dr 0 0 0
At SMD N 00888000
Ne 0 ""
Po -1.905 5.08
$EndPAD
$PAD
Sh "4" R 0.635 1.905 0 0 0
Dr 0 0 0
At SMD N 00888000
Ne 0 ""
Po -0.635 5.08
$EndPAD
$PAD
Sh "5" R 0.635 1.905 0 0 0
Dr 0 0 0
At SMD N 00888000
Ne 0 ""
Po 0.635 5.08
$EndPAD
$PAD
Sh "6" R 0.635 1.905 0 0 0
Dr 0 0 0
At SMD N 00888000
Ne 0 ""
Po 1.905 5.08
$EndPAD
$PAD
Sh "7" R 0.635 1.905 0 0 0
Dr 0 0 0
At SMD N 00888000
Ne 5 "/SSEL-F"
Po 3.175 5.08
$EndPAD
$PAD
Sh "8" R 0.635 1.905 0 0 0
Dr 0 0 0
At SMD N 00888000
Ne 2 "/MISO-F"
Po 4.445 5.08
$EndPAD
$PAD
Sh "9" R 0.635 1.905 0 0 0
Dr 0 0 0
At SMD N 00888000
Ne 0 ""
Po 4.445 -5.08
$EndPAD
$PAD
Sh "10" R 0.635 1.905 0 0 0
Dr 0 0 0
At SMD N 00888000
Ne 6 "GND"
Po 3.175 -5.08
$EndPAD
$PAD
Sh "11" R 0.635 1.905 0 0 0
Dr 0 0 0
At SMD N 00888000
Ne 0 ""
Po 1.905 -5.08
$EndPAD
$PAD
Sh "12" R 0.635 1.905 0 0 0
Dr 0 0 0
At SMD N 00888000
Ne 0 ""
Po 0.635 -5.08
$EndPAD
$PAD
Sh "13" R 0.635 1.905 0 0 0
Dr 0 0 0
At SMD N 00888000
Ne 0 ""
Po -0.635 -5.08
$EndPAD
$PAD
Sh "14" R 0.635 1.905 0 0 0
Dr 0 0 0
At SMD N 00888000
Ne 1 "+3.3V"
Po -1.905 -5.08
$EndPAD
$PAD
Sh "15" R 0.635 1.905 0 0 0
Dr 0 0 0
At SMD N 00888000
Ne 3 "/MOSI-F"
Po -3.175 -5.08
$EndPAD
$PAD
Sh "16" R 0.635 1.905 0 0 0
Dr 0 0 0
At SMD N 00888000
Ne 4 "/SCK-F"
Po -4.445 -5.08
$EndPAD
$SHAPE3D
Na "smd/cms_so16.wrl"
Sc 0.5 0.6 0.5
Of 0 0 0
Ro 0 0 0
$EndSHAPE3D
$EndMODULE SO16L
$MODULE SO16N-rubi
Po 0 0 0 15 561D6F2E 00000000 ~~
Li SO16N-rubi
Cd Module CMS SOJ 16 pins large
Kw CMS SOJ
Sc 0
AR /5616CD36
Op 0 0 0
At SMD
T0 -7 -1 0.7 0.7 0 0.14 N V 21 N "U?"
T1 0 1.27 0.7 0.7 0 0.14 N V 21 N "SOIC16"
DS -5.588 -0.762 -4.826 -0.762 0.2032 21
DS -4.826 -0.762 -4.826 0.762 0.2032 21
DS -4.826 0.762 -5.588 0.762 0.2032 21
DS 5.588 -2.286 5.588 2.286 0.2032 21
DS 5.588 2.286 -5.588 2.286 0.2032 21
DS -5.588 2.286 -5.588 -2.286 0.2032 21
DS -5.588 -2.286 5.588 -2.286 0.2032 21
$PAD
Sh "16" R 0.508 1.143 0 0 0
Dr 0 0 0
At SMD N 00888000
Ne 0 ""
Po -4.445 -3.175
$EndPAD
$PAD
Sh "14" R 0.508 1.143 0 0 0
Dr 0 0 0
At SMD N 00888000
Ne 0 ""
Po -1.905 -3.175
$EndPAD
$PAD
Sh "13" R 0.508 1.143 0 0 0
Dr 0 0 0
At SMD N 00888000
Ne 0 ""
Po -0.635 -3.175
$EndPAD
$PAD
Sh "12" R 0.508 1.143 0 0 0
Dr 0 0 0
At SMD N 00888000
Ne 0 ""
Po 0.635 -3.175
$EndPAD
$PAD
Sh "11" R 0.508 1.143 0 0 0
Dr 0 0 0
At SMD N 00888000
Ne 0 ""
Po 1.905 -3.175
$EndPAD
$PAD
Sh "10" R 0.508 1.143 0 0 0
Dr 0 0 0
At SMD N 00888000
Ne 0 ""
Po 3.175 -3.175
$EndPAD
$PAD
Sh "9" R 0.508 1.143 0 0 0
Dr 0 0 0
At SMD N 00888000
Ne 0 ""
Po 4.445 -3.175
$EndPAD
$PAD
Sh "8" R 0.508 1.143 0 0 0
Dr 0 0 0
At SMD N 00888000
Ne 0 ""
Po 4.445 3.175
$EndPAD
$PAD
Sh "7" R 0.508 1.143 0 0 0
Dr 0 0 0
At SMD N 00888000
Ne 0 ""
Po 3.175 3.175
$EndPAD
$PAD
Sh "6" R 0.508 1.143 0 0 0
Dr 0 0 0
At SMD N 00888000
Ne 0 ""
Po 1.905 3.175
$EndPAD
$PAD
Sh "5" R 0.508 1.143 0 0 0
Dr 0 0 0
At SMD N 00888000
Ne 0 ""
Po 0.635 3.175
$EndPAD
$PAD
Sh "4" R 0.508 1.143 0 0 0
Dr 0 0 0
At SMD N 00888000
Ne 0 ""
Po -0.635 3.175
$EndPAD
$PAD
Sh "3" R 0.508 1.143 0 0 0
Dr 0 0 0
At SMD N 00888000
Ne 0 ""
Po -1.905 3.175
$EndPAD
$PAD
Sh "2" R 0.508 1.143 0 0 0
Dr 0 0 0
At SMD N 00888000
Ne 0 ""
Po -3.175 3.175
$EndPAD
$PAD
Sh "1" R 0.508 1.143 0 0 0
Dr 0 0 0
At SMD N 00888000
Ne 0 ""
Po -4.445 3.175
$EndPAD
$PAD
Sh "15" R 0.508 1.143 0 0 0
Dr 0 0 0
At SMD N 00888000
Ne 0 ""
Po -3.175 -3.175
$EndPAD
$SHAPE3D
Na "smd/cms_so16.wrl"
Sc 0.5 0.4 0.5
Of 0 0 0
Ro 0 0 0
$EndSHAPE3D
$EndMODULE SO16N-rubi
$MODULE SOIC8-8W
Po 0 0 0 15 59C54090 00000000 ~~
Li SOIC8-8W
Cd module CMS SOJ 8 pins etroit
Kw CMS SOJ
Sc 0
AR /570816AA/58AB5C6B
Op 0 0 0
At SMD
T0 3.556 0 0.7 0.7 900 0.14 N V 21 N "U804"
T1 0 5.715 0.889 0.889 0 0.1524 N I 21 N "SOIC8-8W"
DS -2.667 1.778 -2.667 1.905 0.127 21
DS -2.667 1.905 2.667 1.905 0.127 21
DS 2.667 -1.905 -2.667 -1.905 0.127 21
DS -2.667 -1.905 -2.667 1.778 0.127 21
DS -2.667 -0.508 -2.159 -0.508 0.127 21
DS -2.159 -0.508 -2.159 0.508 0.127 21
DS -2.159 0.508 -2.667 0.508 0.127 21
DS 2.667 -1.905 2.667 1.905 0.127 21
$PAD
Sh "8" R 0.59944 2.54 0 0 0
Dr 0 0 0
At SMD N 00888000
Ne 5 "3V3cpu"
Po -1.905 -3.175
$EndPAD
$PAD
Sh "1" R 0.59944 2.54 0 0 0
Dr 0 0 0
At SMD N 00888000
Ne 4 "/control/SSEL"
Po -1.905 3.175
$EndPAD
$PAD
Sh "7" R 0.59944 2.54 0 0 0
Dr 0 0 0
At SMD N 00888000
Ne 5 "3V3cpu"
Po -0.635 -3.175
$EndPAD
$PAD
Sh "6" R 0.59944 2.54 0 0 0
Dr 0 0 0
At SMD N 00888000
Ne 3 "/control/SCK"
Po 0.635 -3.175
$EndPAD
$PAD
Sh "5" R 0.59944 2.54 0 0 0
Dr 0 0 0
At SMD N 00888000
Ne 2 "/control/MOSI"
Po 1.905 -3.175
$EndPAD
$PAD
Sh "2" R 0.59944 2.54 0 0 0
Dr 0 0 0
At SMD N 00888000
Ne 1 "/control/MISO"
Po -0.635 3.175
$EndPAD
$PAD
Sh "3" R 0.59944 2.54 0 0 0
Dr 0 0 0
At SMD N 00888000
Ne 5 "3V3cpu"
Po 0.635 3.175
$EndPAD
$PAD
Sh "4" R 0.59944 2.54 0 0 0
Dr 0 0 0
At SMD N 00888000
Ne 6 "GND"
Po 1.905 3.175
$EndPAD
$SHAPE3D
Na "smd/cms_so8.wrl"
Sc 0.5 0.32 0.5
Of 0 0 0
Ro 0 0 0
$EndSHAPE3D
$EndMODULE SOIC8-8W
$MODULE SOT123-rubi
Po 0 0 0 15 5A8F3FE3 00000000 ~~
Li SOT123-rubi
Sc 0
AR /56161A3A
Op 0 0 0
T0 -1.524 1.524 0.7 0.7 0 0.14 N V 21 N "D?"
T1 2 0 0.7 0.7 900 0.14 N V 21 N "1N4148"
DS 1 1.7 1 2.6 0.15 21
DS 1 2.6 -1 2.6 0.15 21
DS -1 2.6 -1 1.7 0.15 21
DS -0.59944 -0.8509 0.59944 -0.8509 0.24892 21
DS 0.59944 -0.8509 0.59944 0.8509 0.24892 21
DS 0.59944 0.8509 -0.59944 0.8509 0.24892 21
DS -0.59944 0.8509 -0.59944 -0.8509 0.24892 21
$PAD
Sh "1" R 1.19888 1.19888 0 0 0
Dr 0 0 0
At SMD N 00888000
Ne 0 ""
Po 0 -1.6002
$EndPAD
$PAD
Sh "2" R 1.19888 1.19888 0 0 0
Dr 0 0 0
At SMD N 00888000
Ne 0 ""
Po 0 1.6002
$EndPAD
$EndMODULE SOT123-rubi
$MODULE Si501
Po 0 0 0 15 56F56A53 00000000 ~~
Li Si501
Sc 0
AR /56E2BFBA
Op 0 0 0
T0 0.436 2.426 0.6 0.6 0 0.1 N V 21 N "U34"
T1 0 -2.794 0.7 0.7 0 0.14 N I 21 N "Si501-48MHz"
DS -0.254 -2.032 -2.286 -2.032 0.2 21
DS -2.286 -2.032 -2.286 -0.508 0.2 21
DS 1.1 -1.3 1.1 1.3 0.2 21
DS 1.1 1.3 -1.1 1.3 0.2 21
DS -1.1 1.3 -1.1 -1.3 0.2 21
DS -1.1 -1.3 1.1 -1.3 0.2 21
$PAD
Sh "1" R 1.3 1.4 0 0 0
Dr 0 0 0
At SMD N 00888000
Ne 0 ""
Po -1.1 -0.9
$EndPAD
$PAD
Sh "2" R 1.3 1.4 0 0 0
Dr 0 0 0
At SMD N 00888000
Ne 2 "GND"
Po -1.1 0.9
$EndPAD
$PAD
Sh "3" R 1.3 1.4 0 0 0
Dr 0 0 0
At SMD N 00888000
Ne 0 ""
Po 1.1 0.9
$EndPAD
$PAD
Sh "4" R 1.3 1.4 0 0 0
Dr 0 0 0
At SMD N 00888000
Ne 1 "+3.3V"
Po 1.1 -0.9
$EndPAD
$EndMODULE Si501
$MODULE TFDN-10-EP
Po 0 0 0 15 59A90C30 00000000 ~~
Li TFDN-10-EP
Sc 0
AR 
Op 0 0 0
T0 3.5 0 0.7 0.7 900 0.14 N V 21 N "TFDN-10-EP"
T1 -3.35 -0.05 0.7 0.7 900 0.14 N I 21 N "VAL**"
DS -2.9 -1.5 -2.9 -0.6 0.15 21
DS -2.05 -1.5 -2.9 -1.5 0.15 21
$PAD
Sh "1" R 1 0.25 0 0 0
Dr 0 0 0
At SMD N 00888000
Ne 0 ""
Po -2.02 -1
$EndPAD
$PAD
Sh "2" R 1 0.25 0 0 0
Dr 0 0 0
At SMD N 00888000
Ne 0 ""
Po -2.02 -0.5
$EndPAD
$PAD
Sh "3" R 1 0.25 0 0 0
Dr 0 0 0
At SMD N 00888000
Ne 0 ""
Po -2.02 0
$EndPAD
$PAD
Sh "4" R 1 0.25 0 0 0
Dr 0 0 0
At SMD N 00888000
Ne 0 ""
Po -2.02 0.5
$EndPAD
$PAD
Sh "5" R 1 0.25 0 0 0
Dr 0 0 0
At SMD N 00888000
Ne 0 ""
Po -2.02 0.95
$EndPAD
$PAD
Sh "6" R 1 0.25 0 0 0
Dr 0 0 0
At SMD N 00888000
Ne 0 ""
Po 2.02 1
$EndPAD
$PAD
Sh "7" R 1 0.25 0 0 0
Dr 0 0 0
At SMD N 00888000
Ne 0 ""
Po 2.02 0.5
$EndPAD
$PAD
Sh "8" R 1 0.25 0 0 0
Dr 0 0 0
At SMD N 00888000
Ne 0 ""
Po 2.02 0
$EndPAD
$PAD
Sh "9" R 1 0.25 0 0 0
Dr 0 0 0
At SMD N 00888000
Ne 0 ""
Po 2.02 -0.5
$EndPAD
$PAD
Sh "10" R 1 0.25 0 0 0
Dr 0 0 0
At SMD N 00888000
Ne 0 ""
Po 2.02 -1
$EndPAD
$PAD
Sh "11" R 2 2.3 0 0 0
Dr 0 0 0
At SMD N 00808000
Ne 0 ""
Po 0 0
$EndPAD
$PAD
Sh "12" R 0.5 0.7 0 0 0
Dr 0 0 0
At SMD N 00088000
Ne 0 ""
Po 0 0.8
$EndPAD
$PAD
Sh "13" R 0.5 0.7 0 0 0
Dr 0 0 0
At SMD N 00088000
Ne 0 ""
Po 0 -0.8
$EndPAD
$PAD
Sh "14" R 0.6 0.5 0 0 0
Dr 0 0 0
At SMD N 00088000
Ne 0 ""
Po -0.7 0
$EndPAD
$PAD
Sh "15" R 0.6 0.5 0 0 0
Dr 0 0 0
At SMD N 00088000
Ne 0 ""
Po 0.7 0
$EndPAD
$EndMODULE TFDN-10-EP
$MODULE TQFP32-rubi
Po 0 0 0 15 56F55D7B 00000000 ~P
Li TQFP32-rubi
Sc 0
AR /5614E17E
Op 0 0 0
T0 4.826 -4.826 0.7 0.7 0 0.14 N V 21 N "U?"
T1 -0.5 1.5 1.27 1.016 0 0.2032 N I 21 N "ATMEGA168PB-AU"
DS -3.8862 -3.2766 -3.8862 3.9116 0.1524 21
DS -3.2512 -3.8862 3.81 -3.8862 0.1524 21
DS 3.8608 3.937 3.8608 -3.7846 0.1524 21
DS -3.8862 3.937 3.7338 3.937 0.1524 21
DS -3.87604 -3.302 -3.29184 -3.8862 0.1524 21
DC -4.10972 -4.13004 -3.70332 -3.87604 0.1524 21
$PAD
Sh "8" R 1.99898 0.44958 0 0 0
Dr 0 0 0
At SMD N 00888000
Ne 0 ""
Po -4.81584 2.77622
$EndPAD
$PAD
Sh "7" R 1.99898 0.44958 0 0 0
Dr 0 0 0
At SMD N 00888000
Ne 0 ""
Po -4.81584 1.97612
$EndPAD
$PAD
Sh "6" R 1.99898 0.44958 0 0 0
Dr 0 0 0
At SMD N 00888000
Ne 0 ""
Po -4.81584 1.17602
$EndPAD
$PAD
Sh "5" R 1.99898 0.44958 0 0 0
Dr 0 0 0
At SMD N 00888000
Ne 0 ""
Po -4.81584 0.37592
$EndPAD
$PAD
Sh "4" R 1.99898 0.44958 0 0 0
Dr 0 0 0
At SMD N 00888000
Ne 0 ""
Po -4.81584 -0.42418
$EndPAD
$PAD
Sh "3" R 1.99898 0.44958 0 0 0
Dr 0 0 0
At SMD N 00888000
Ne 0 ""
Po -4.81584 -1.22428
$EndPAD
$PAD
Sh "2" R 1.99898 0.44958 0 0 0
Dr 0 0 0
At SMD N 00888000
Ne 0 ""
Po -4.81584 -2.02438
$EndPAD
$PAD
Sh "1" R 1.99898 0.44958 0 0 0
Dr 0 0 0
At SMD N 00888000
Ne 0 ""
Po -4.81584 -2.82448
$EndPAD
$PAD
Sh "24" R 1.99898 0.44958 0 0 0
Dr 0 0 0
At SMD N 00888000
Ne 0 ""
Po 4.7498 -2.8194
$EndPAD
$PAD
Sh "17" R 1.99898 0.44958 0 0 0
Dr 0 0 0
At SMD N 00888000
Ne 0 ""
Po 4.7498 2.794
$EndPAD
$PAD
Sh "18" R 1.99898 0.44958 0 0 0
Dr 0 0 0
At SMD N 00888000
Ne 0 ""
Po 4.7498 1.9812
$EndPAD
$PAD
Sh "19" R 1.99898 0.44958 0 0 0
Dr 0 0 0
At SMD N 00888000
Ne 0 ""
Po 4.7498 1.1684
$EndPAD
$PAD
Sh "20" R 1.99898 0.44958 0 0 0
Dr 0 0 0
At SMD N 00888000
Ne 0 ""
Po 4.7498 0.381
$EndPAD
$PAD
Sh "21" R 1.99898 0.44958 0 0 0
Dr 0 0 0
At SMD N 00888000
Ne 0 ""
Po 4.7498 -0.4318
$EndPAD
$PAD
Sh "22" R 1.99898 0.44958 0 0 0
Dr 0 0 0
At SMD N 00888000
Ne 0 ""
Po 4.7498 -1.2192
$EndPAD
$PAD
Sh "23" R 1.99898 0.44958 0 0 0
Dr 0 0 0
At SMD N 00888000
Ne 0 ""
Po 4.7498 -2.032
$EndPAD
$PAD
Sh "32" R 0.44958 1.99898 0 0 0
Dr 0 0 0
At SMD N 00888000
Ne 0 ""
Po -2.82448 -4.826
$EndPAD
$PAD
Sh "31" R 0.44958 1.99898 0 0 0
Dr 0 0 0
At SMD N 00888000
Ne 0 ""
Po -2.02692 -4.826
$EndPAD
$PAD
Sh "30" R 0.44958 1.99898 0 0 0
Dr 0 0 0
At SMD N 00888000
Ne 0 ""
Po -1.22428 -4.826
$EndPAD
$PAD
Sh "29" R 0.44958 1.99898 0 0 0
Dr 0 0 0
At SMD N 00888000
Ne 0 ""
Po -0.42672 -4.826
$EndPAD
$PAD
Sh "28" R 0.44958 1.99898 0 0 0
Dr 0 0 0
At SMD N 00888000
Ne 0 ""
Po 0.37592 -4.826
$EndPAD
$PAD
Sh "27" R 0.44958 1.99898 0 0 0
Dr 0 0 0
At SMD N 00888000
Ne 0 ""
Po 1.17348 -4.826
$EndPAD
$PAD
Sh "26" R 0.44958 1.99898 0 0 0
Dr 0 0 0
At SMD N 00888000
Ne 0 ""
Po 1.97612 -4.826
$EndPAD
$PAD
Sh "25" R 0.44958 1.99898 0 0 0
Dr 0 0 0
At SMD N 00888000
Ne 0 ""
Po 2.77368 -4.826
$EndPAD
$PAD
Sh "9" R 0.44958 1.99898 0 0 0
Dr 0 0 0
At SMD N 00888000
Ne 0 ""
Po -2.8194 4.7752
$EndPAD
$PAD
Sh "10" R 0.44958 1.99898 0 0 0
Dr 0 0 0
At SMD N 00888000
Ne 0 ""
Po -2.032 4.7752
$EndPAD
$PAD
Sh "11" R 0.44958 1.99898 0 0 0
Dr 0 0 0
At SMD N 00888000
Ne 0 ""
Po -1.2192 4.7752
$EndPAD
$PAD
Sh "12" R 0.44958 1.99898 0 0 0
Dr 0 0 0
At SMD N 00888000
Ne 0 ""
Po -0.4318 4.7752
$EndPAD
$PAD
Sh "13" R 0.44958 1.99898 0 0 0
Dr 0 0 0
At SMD N 00888000
Ne 0 ""
Po 0.3556 4.7752
$EndPAD
$PAD
Sh "14" R 0.44958 1.99898 0 0 0
Dr 0 0 0
At SMD N 00888000
Ne 0 ""
Po 1.1684 4.7752
$EndPAD
$PAD
Sh "15" R 0.44958 1.99898 0 0 0
Dr 0 0 0
At SMD N 00888000
Ne 0 ""
Po 1.9812 4.7752
$EndPAD
$PAD
Sh "16" R 0.44958 1.99898 0 0 0
Dr 0 0 0
At SMD N 00888000
Ne 0 ""
Po 2.794 4.7752
$EndPAD
$SHAPE3D
Na "smd/tqfp32.wrl"
Sc 1 1 1
Of 0 0 0
Ro 0 0 0
$EndSHAPE3D
$EndMODULE TQFP32-rubi
$MODULE TSSOP24-rubi
Po 0 0 0 15 5AF1361A 00000000 ~~
Li TSSOP24-rubi
Sc 0
AR 
Op 0 0 0
T0 0 -5.25 0.7 0.7 0 0.1 N V 21 N "TSSOP24-rubi"
T1 0 5.25 0.7 0.7 0 0.1 N V 21 N "VAL**"
DS 0.4 -4.4 -0.4 -4.4 0.2 21
DS -0.4 -4.4 -0.4 -3.6 0.2 21
DS -0.4 -3.6 0.4 -3.6 0.2 21
DS 0.4 -3.6 0.4 -4.4 0.2 21
DS 2 -4 -2 -4 0.2 21
DS -2 -4 -2 4 0.2 21
DS -2 4 2 4 0.2 21
DS 2 -4 2 4 0.2 21
$PAD
Sh "1" R 1.8 0.35 0 0 0
Dr 0 0 0
At SMD N 00888000
Ne 0 ""
Po -3.1 -3.575
$EndPAD
$PAD
Sh "2" R 1.8 0.35 0 0 0
Dr 0 0 0
At SMD N 00888000
Ne 0 ""
Po -3.1 -2.925
$EndPAD
$PAD
Sh "3" R 1.8 0.35 0 0 0
Dr 0 0 0
At SMD N 00888000
Ne 0 ""
Po -3.1 -2.275
$EndPAD
$PAD
Sh "4" R 1.8 0.35 0 0 0
Dr 0 0 0
At SMD N 00888000
Ne 0 ""
Po -3.1 -1.625
$EndPAD
$PAD
Sh "5" R 1.8 0.35 0 0 0
Dr 0 0 0
At SMD N 00888000
Ne 0 ""
Po -3.1 -0.975
$EndPAD
$PAD
Sh "6" R 1.8 0.35 0 0 0
Dr 0 0 0
At SMD N 00888000
Ne 0 ""
Po -3.1 -0.325
$EndPAD
$PAD
Sh "7" R 1.8 0.35 0 0 0
Dr 0 0 0
At SMD N 00888000
Ne 0 ""
Po -3.1 0.325
$EndPAD
$PAD
Sh "8" R 1.8 0.35 0 0 0
Dr 0 0 0
At SMD N 00888000
Ne 0 ""
Po -3.1 0.975
$EndPAD
$PAD
Sh "9" R 1.8 0.35 0 0 0
Dr 0 0 0
At SMD N 00888000
Ne 0 ""
Po -3.1 1.625
$EndPAD
$PAD
Sh "10" R 1.8 0.35 0 0 0
Dr 0 0 0
At SMD N 00888000
Ne 0 ""
Po -3.1 2.275
$EndPAD
$PAD
Sh "11" R 1.8 0.35 0 0 0
Dr 0 0 0
At SMD N 00888000
Ne 0 ""
Po -3.1 2.95
$EndPAD
$PAD
Sh "12" R 1.8 0.35 0 0 0
Dr 0 0 0
At SMD N 00888000
Ne 0 ""
Po -3.1 3.575
$EndPAD
$PAD
Sh "13" R 1.8 0.35 0 0 0
Dr 0 0 0
At SMD N 00888000
Ne 0 ""
Po 3.1 3.575
$EndPAD
$PAD
Sh "14" R 1.8 0.35 0 0 0
Dr 0 0 0
At SMD N 00888000
Ne 0 ""
Po 3.1 2.925
$EndPAD
$PAD
Sh "15" R 1.8 0.35 0 0 0
Dr 0 0 0
At SMD N 00888000
Ne 0 ""
Po 3.1 2.275
$EndPAD
$PAD
Sh "16" R 1.8 0.35 0 0 0
Dr 0 0 0
At SMD N 00888000
Ne 0 ""
Po 3.1 1.625
$EndPAD
$PAD
Sh "17" R 1.8 0.35 0 0 0
Dr 0 0 0
At SMD N 00888000
Ne 0 ""
Po 3.1 0.975
$EndPAD
$PAD
Sh "18" R 1.8 0.35 0 0 0
Dr 0 0 0
At SMD N 00888000
Ne 0 ""
Po 3.1 0.325
$EndPAD
$PAD
Sh "19" R 1.8 0.35 0 0 0
Dr 0 0 0
At SMD N 00888000
Ne 0 ""
Po 3.1 -0.325
$EndPAD
$PAD
Sh "20" R 1.8 0.35 0 0 0
Dr 0 0 0
At SMD N 00888000
Ne 0 ""
Po 3.1 -0.975
$EndPAD
$PAD
Sh "21" R 1.8 0.35 0 0 0
Dr 0 0 0
At SMD N 00888000
Ne 0 ""
Po 3.1 -1.625
$EndPAD
$PAD
Sh "22" R 1.8 0.35 0 0 0
Dr 0 0 0
At SMD N 00888000
Ne 0 ""
Po 3.1 -2.275
$EndPAD
$PAD
Sh "23" R 1.8 0.35 0 0 0
Dr 0 0 0
At SMD N 00888000
Ne 0 ""
Po 3.1 -2.925
$EndPAD
$PAD
Sh "24" R 1.8 0.35 0 0 0
Dr 0 0 0
At SMD N 00888000
Ne 0 ""
Po 3.1 -3.575
$EndPAD
$EndMODULE TSSOP24-rubi
$MODULE WS2812B
Po 0 0 0 15 56F6B6E0 00000000 ~~
Li WS2812B
Sc 0
AR /56D4CAC1
Op 0 0 0
T0 0 3.302 0.7 0.7 0 0.14 N V 21 N "U?"
T1 0.254 -3.302 0.7 0.7 0 0.14 N V 21 N "WS2812B"
DS 0.5842 2.49936 1.48336 1.6002 0.24892 21
DS -2.49936 -2.49936 2.49936 -2.49936 0.24892 21
DS 2.49936 -2.49936 2.49936 2.49936 0.24892 21
DS 2.49936 2.49936 -2.49936 2.49936 0.24892 21
DS -2.49936 2.49936 -2.49936 -2.4003 0.24892 21
$PAD
Sh "1" R 1.99898 1.19888 0 0 0
Dr 0 0 0
At SMD N 00888000
Ne 0 ""
Po -2.70002 -1.6002
$EndPAD
$PAD
Sh "2" R 1.99898 1.19888 0 0 0
Dr 0 0 0
At SMD N 00888000
Ne 0 ""
Po -2.70002 1.6002
$EndPAD
$PAD
Sh "3" R 1.99898 1.19888 0 0 0
Dr 0 0 0
At SMD N 00888000
Ne 0 ""
Po 2.70002 1.6002
$EndPAD
$PAD
Sh "4" R 1.99898 1.19888 0 0 0
Dr 0 0 0
At SMD N 00888000
Ne 0 ""
Po 2.70002 -1.6002
$EndPAD
$EndMODULE WS2812B
$MODULE WS2812B-small-pads
Po 0 0 0 15 56F6B7D7 00000000 ~~
Li WS2812B-small-pads
Sc 0
AR /56D4CAC1
Op 0 0 0
T0 0 3.302 0.7 0.7 0 0.14 N V 21 N "U?"
T1 0.254 -3.302 0.7 0.7 0 0.14 N V 21 N "WS2812B"
DS 0.5 2.5 2.5 0.5 0.24892 21
DS -2.49936 -2.49936 2.49936 -2.49936 0.24892 21
DS 2.49936 -2.49936 2.49936 2.49936 0.24892 21
DS 2.49936 2.49936 -2.49936 2.49936 0.24892 21
DS -2.49936 2.49936 -2.49936 -2.4003 0.24892 21
$PAD
Sh "1" R 1.5 0.9 0 0 0
Dr 0 0 0
At SMD N 00888000
Ne 0 ""
Po -2.45 -1.65
$EndPAD
$PAD
Sh "2" R 1.5 0.9 0 0 0
Dr 0 0 0
At SMD N 00888000
Ne 0 ""
Po -2.45 1.65
$EndPAD
$PAD
Sh "3" R 1.5 0.9 0 0 0
Dr 0 0 0
At SMD N 00888000
Ne 0 ""
Po 2.45 1.65
$EndPAD
$PAD
Sh "4" R 1.5 0.9 0 0 0
Dr 0 0 0
At SMD N 00888000
Ne 0 ""
Po 2.45 -1.65
$EndPAD
$EndMODULE WS2812B-small-pads
$MODULE WSON8
Po 0 0 0 15 5A42835B 00000000 ~~
Li WSON8
Sc 0
AR 
Op 0 0 0
T0 0 4 1 1 0 0.15 N V 21 N "WSON8"
T1 0 -4 1 1 0 0.15 N V 21 N "VAL**"
DS -4.5 -3.5 -3 -3.5 0.15 21
DS -4.5 -3.5 -4.5 -2 0.15 21
DS -4 -3 4 -3 0.15 21
DS 4 -3 4 3 0.15 21
DS 4 3 -4 3 0.15 21
DS -4 3 -4 -3 0.15 21
$PAD
Sh "1" R 1.5 0.5 0 0 0
Dr 0 0 0
At SMD N 00888000
Ne 0 ""
Po -3.81 -1.905
$EndPAD
$PAD
Sh "2" R 1.5 0.5 0 0 0
Dr 0 0 0
At SMD N 00888000
Ne 0 ""
Po -3.81 -0.635
$EndPAD
$PAD
Sh "3" R 1.5 0.5 0 0 0
Dr 0 0 0
At SMD N 00888000
Ne 0 ""
Po -3.81 0.635
$EndPAD
$PAD
Sh "4" R 1.5 0.5 0 0 0
Dr 0 0 0
At SMD N 00888000
Ne 0 ""
Po -3.81 1.905
$EndPAD
$PAD
Sh "5" R 1.5 0.5 0 0 0
Dr 0 0 0
At SMD N 00888000
Ne 0 ""
Po 3.81 1.905
$EndPAD
$PAD
Sh "6" R 1.5 0.5 0 0 0
Dr 0 0 0
At SMD N 00888000
Ne 0 ""
Po 3.81 0.635
$EndPAD
$PAD
Sh "7" R 1.5 0.5 0 0 0
Dr 0 0 0
At SMD N 00888000
Ne 0 ""
Po 3.81 -0.635
$EndPAD
$PAD
Sh "8" R 1.5 0.5 0 0 0
Dr 0 0 0
At SMD N 00888000
Ne 0 ""
Po 3.81 -1.905
$EndPAD
$EndMODULE WSON8
$MODULE dfn-10
Po 0 0 0 15 57EA81A6 00000000 ~~
Li dfn-10
Sc 0
AR 
Op 0 0 0
T0 -0.127 -2.794 1 1 0 0.15 N V 21 N "dfn-10"
T1 0.381 2.54 1 1 0 0.15 N V 21 N "VAL**"
DS 1 -1 1 1 0.07874 21
DS 1 1 -1 1 0.07874 21
DS -1 1 -1 -1 0.07874 21
DS -1 -1 1 -1 0.07874 21
$PAD
Sh "1" R 0.7 0.2 0 0 0
Dr 0 0 0
At SMD N 00888000
Ne 0 ""
Po -0.85 -0.8
$EndPAD
$PAD
Sh "2" R 0.7 0.2 0 0 0
Dr 0 0 0
At SMD N 00888000
Ne 0 ""
Po -0.84 -0.4
$EndPAD
$PAD
Sh "3" R 0.7 0.2 0 0 0
Dr 0 0 0
At SMD N 00888000
Ne 0 ""
Po -0.85 0
$EndPAD
$PAD
Sh "4" R 0.7 0.2 0 0 0
Dr 0 0 0
At SMD N 00888000
Ne 0 ""
Po -0.85 0.4
$EndPAD
$PAD
Sh "5" R 0.7 0.2 0 0 0
Dr 0 0 0
At SMD N 00888000
Ne 0 ""
Po -0.85 0.8
$EndPAD
$PAD
Sh "6" R 0.7 0.2 0 0 0
Dr 0 0 0
At SMD N 00888000
Ne 0 ""
Po 0.85 0.8
$EndPAD
$PAD
Sh "7" R 0.7 0.2 0 0 0
Dr 0 0 0
At SMD N 00888000
Ne 0 ""
Po 0.85 0.4
$EndPAD
$PAD
Sh "8" R 0.7 0.2 0 0 0
Dr 0 0 0
At SMD N 00888000
Ne 0 ""
Po 0.85 0
$EndPAD
$PAD
Sh "9" R 0.7 0.2 0 0 0
Dr 0 0 0
At SMD N 00888000
Ne 0 ""
Po 0.85 -0.4
$EndPAD
$PAD
Sh "10" R 0.7 0.2 0 0 0
Dr 0 0 0
At SMD N 00888000
Ne 0 ""
Po 0.85 -0.8
$EndPAD
$EndMODULE dfn-10
$MODULE lqfp-48-rubi
Po 0 0 0 15 56F56ABE 00000000 ~~
Li lqfp-48-rubi
Sc 0
AR /56DB4E2D
Op 0 0 0
T0 5.538 5.86 0.7 0.7 0 0.14 N V 21 N "U?"
T1 -3.098 6.368 0.7 0.7 0 0.14 N V 21 N "lqfp-48"
DC -4.25 -4.25 -4.75 -4.5 0.3048 21
DS -3.50012 -3.50012 3.50012 -3.50012 0.381 21
DS 3.50012 -3.50012 3.50012 3.50012 0.381 21
DS 3.50012 3.50012 -3.50012 3.50012 0.381 21
DS -3.50012 3.50012 -3.50012 -3.50012 0.381 21
$PAD
Sh "1" R 1.99898 0.24892 0 0 0
Dr 0 0 0
At SMD N 00888000
Ne 0 ""
Po -4.50088 -2.75082
$EndPAD
$PAD
Sh "2" R 1.99898 0.24892 0 0 0
Dr 0 0 0
At SMD N 00888000
Ne 0 ""
Po -4.50088 -2.25044
$EndPAD
$PAD
Sh "3" R 1.99898 0.24892 0 0 0
Dr 0 0 0
At SMD N 00888000
Ne 0 ""
Po -4.50088 -1.75006
$EndPAD
$PAD
Sh "4" R 1.99898 0.24892 0 0 0
Dr 0 0 0
At SMD N 00888000
Ne 0 ""
Po -4.50088 -1.24968
$EndPAD
$PAD
Sh "5" R 1.99898 0.24892 0 0 0
Dr 0 0 0
At SMD N 00888000
Ne 0 ""
Po -4.50088 -0.7493
$EndPAD
$PAD
Sh "6" R 1.99898 0.24892 0 0 0
Dr 0 0 0
At SMD N 00888000
Ne 0 ""
Po -4.50088 -0.24892
$EndPAD
$PAD
Sh "7" R 1.99898 0.24892 0 0 0
Dr 0 0 0
At SMD N 00888000
Ne 0 ""
Po -4.50088 0.24892
$EndPAD
$PAD
Sh "8" R 1.99898 0.24892 0 0 0
Dr 0 0 0
At SMD N 00888000
Ne 0 ""
Po -4.50088 0.7493
$EndPAD
$PAD
Sh "9" R 1.99898 0.24892 0 0 0
Dr 0 0 0
At SMD N 00888000
Ne 0 ""
Po -4.50088 1.24968
$EndPAD
$PAD
Sh "10" R 1.99898 0.24892 0 0 0
Dr 0 0 0
At SMD N 00888000
Ne 0 ""
Po -4.50088 1.75006
$EndPAD
$PAD
Sh "11" R 1.99898 0.24892 0 0 0
Dr 0 0 0
At SMD N 00888000
Ne 0 ""
Po -4.50088 2.25044
$EndPAD
$PAD
Sh "12" R 1.99898 0.24892 0 0 0
Dr 0 0 0
At SMD N 00888000
Ne 0 ""
Po -4.50088 2.75082
$EndPAD
$PAD
Sh "25" R 1.99898 0.24892 0 0 0
Dr 0 0 0
At SMD N 00888000
Ne 0 ""
Po 4.50088 2.75082
$EndPAD
$PAD
Sh "26" R 1.99898 0.24892 0 0 0
Dr 0 0 0
At SMD N 00888000
Ne 0 ""
Po 4.50088 2.25044
$EndPAD
$PAD
Sh "27" R 1.99898 0.24892 0 0 0
Dr 0 0 0
At SMD N 00888000
Ne 0 ""
Po 4.50088 1.75006
$EndPAD
$PAD
Sh "28" R 1.99898 0.24892 0 0 0
Dr 0 0 0
At SMD N 00888000
Ne 0 ""
Po 4.50088 1.24968
$EndPAD
$PAD
Sh "29" R 1.99898 0.24892 0 0 0
Dr 0 0 0
At SMD N 00888000
Ne 0 ""
Po 4.50088 0.7493
$EndPAD
$PAD
Sh "30" R 1.99898 0.24892 0 0 0
Dr 0 0 0
At SMD N 00888000
Ne 0 ""
Po 4.50088 0.24892
$EndPAD
$PAD
Sh "31" R 1.99898 0.24892 0 0 0
Dr 0 0 0
At SMD N 00888000
Ne 0 ""
Po 4.50088 -0.24892
$EndPAD
$PAD
Sh "32" R 1.99898 0.24892 0 0 0
Dr 0 0 0
At SMD N 00888000
Ne 0 ""
Po 4.50088 -0.7493
$EndPAD
$PAD
Sh "33" R 1.99898 0.24892 0 0 0
Dr 0 0 0
At SMD N 00888000
Ne 0 ""
Po 4.50088 -1.24968
$EndPAD
$PAD
Sh "34" R 1.99898 0.24892 0 0 0
Dr 0 0 0
At SMD N 00888000
Ne 0 ""
Po 4.50088 -1.75006
$EndPAD
$PAD
Sh "35" R 1.99898 0.24892 0 0 0
Dr 0 0 0
At SMD N 00888000
Ne 0 ""
Po 4.50088 -2.25044
$EndPAD
$PAD
Sh "36" R 1.99898 0.24892 0 0 0
Dr 0 0 0
At SMD N 00888000
Ne 0 ""
Po 4.50088 -2.75082
$EndPAD
$PAD
Sh "13" R 0.24892 1.99898 0 0 0
Dr 0 0 0
At SMD N 00888000
Ne 0 ""
Po -2.75082 4.50088
$EndPAD
$PAD
Sh "14" R 0.24892 1.99898 0 0 0
Dr 0 0 0
At SMD N 00888000
Ne 0 ""
Po -2.25044 4.50088
$EndPAD
$PAD
Sh "15" R 0.24892 1.99898 0 0 0
Dr 0 0 0
At SMD N 00888000
Ne 0 ""
Po -1.75006 4.50088
$EndPAD
$PAD
Sh "16" R 0.24892 1.99898 0 0 0
Dr 0 0 0
At SMD N 00888000
Ne 0 ""
Po -1.24968 4.50088
$EndPAD
$PAD
Sh "17" R 0.24892 1.99898 0 0 0
Dr 0 0 0
At SMD N 00888000
Ne 0 ""
Po -0.7493 4.50088
$EndPAD
$PAD
Sh "18" R 0.24892 1.99898 0 0 0
Dr 0 0 0
At SMD N 00888000
Ne 0 ""
Po -0.24892 4.50088
$EndPAD
$PAD
Sh "19" R 0.24892 1.99898 0 0 0
Dr 0 0 0
At SMD N 00888000
Ne 0 ""
Po 0.24892 4.50088
$EndPAD
$PAD
Sh "20" R 0.24892 1.99898 0 0 0
Dr 0 0 0
At SMD N 00888000
Ne 0 ""
Po 0.7493 4.50088
$EndPAD
$PAD
Sh "21" R 0.24892 1.99898 0 0 0
Dr 0 0 0
At SMD N 00888000
Ne 0 ""
Po 1.24968 4.50088
$EndPAD
$PAD
Sh "22" R 0.24892 1.99898 0 0 0
Dr 0 0 0
At SMD N 00888000
Ne 0 ""
Po 1.75006 4.50088
$EndPAD
$PAD
Sh "23" R 0.24892 1.99898 0 0 0
Dr 0 0 0
At SMD N 00888000
Ne 0 ""
Po 2.25044 4.50088
$EndPAD
$PAD
Sh "24" R 0.24892 1.99898 0 0 0
Dr 0 0 0
At SMD N 00888000
Ne 0 ""
Po 2.75082 4.50088
$EndPAD
$PAD
Sh "37" R 0.24892 1.99898 0 0 0
Dr 0 0 0
At SMD N 00888000
Ne 0 ""
Po 2.75082 -4.50088
$EndPAD
$PAD
Sh "38" R 0.24892 1.99898 0 0 0
Dr 0 0 0
At SMD N 00888000
Ne 0 ""
Po 2.25044 -4.50088
$EndPAD
$PAD
Sh "39" R 0.24892 1.99898 0 0 0
Dr 0 0 0
At SMD N 00888000
Ne 0 ""
Po 1.75006 -4.50088
$EndPAD
$PAD
Sh "40" R 0.24892 1.99898 0 0 0
Dr 0 0 0
At SMD N 00888000
Ne 0 ""
Po 1.24968 -4.50088
$EndPAD
$PAD
Sh "41" R 0.24892 1.99898 0 0 0
Dr 0 0 0
At SMD N 00888000
Ne 0 ""
Po 0.7493 -4.50088
$EndPAD
$PAD
Sh "42" R 0.24892 1.99898 0 0 0
Dr 0 0 0
At SMD N 00888000
Ne 0 ""
Po 0.24892 -4.50088
$EndPAD
$PAD
Sh "43" R 0.24892 1.99898 0 0 0
Dr 0 0 0
At SMD N 00888000
Ne 0 ""
Po -0.24892 -4.50088
$EndPAD
$PAD
Sh "44" R 0.24892 1.99898 0 0 0
Dr 0 0 0
At SMD N 00888000
Ne 0 ""
Po -0.7493 -4.50088
$EndPAD
$PAD
Sh "45" R 0.24892 1.99898 0 0 0
Dr 0 0 0
At SMD N 00888000
Ne 0 ""
Po -1.24968 -4.50088
$EndPAD
$PAD
Sh "46" R 0.24892 1.99898 0 0 0
Dr 0 0 0
At SMD N 00888000
Ne 0 ""
Po -1.75006 -4.50088
$EndPAD
$PAD
Sh "47" R 0.24892 1.99898 0 0 0
Dr 0 0 0
At SMD N 00888000
Ne 0 ""
Po -2.25044 -4.50088
$EndPAD
$PAD
Sh "48" R 0.24892 1.99898 0 0 0
Dr 0 0 0
At SMD N 00888000
Ne 0 ""
Po -2.75082 -4.50088
$EndPAD
$EndMODULE lqfp-48-rubi
$MODULE lqfp-80-rubi
Po 0 0 0 15 5AE92B6F 00000000 ~~
Li lqfp-80-rubi
Sc 0
AR /56DB4E2D
Op 0 0 0
T0 7.25 7.25 0.5 0.5 0 0.1 N V 21 N "U?"
T1 -7.5 7.25 0.5 0.5 0 0.1 N V 21 N "lqfp-80"
DC -7.25 -7.25 -7.75 -7.5 0.3048 21
DS -6 -6 6 -6 0.381 21
DS 6 -6 6 6 0.381 21
DS 6 6 -6 6 0.381 21
DS -6 6 -6 -6 0.381 21
$PAD
Sh "60" R 2.5 0.25 0 0 1800
Dr 0 0 0
At SMD N 00888000
Ne 0 ""
Po 7.25 -4.75
$EndPAD
$PAD
Sh "59" R 2.5 0.25 0 0 1800
Dr 0 0 0
At SMD N 00888000
Ne 0 ""
Po 7.25 -4.25
$EndPAD
$PAD
Sh "58" R 2.5 0.25 0 0 1800
Dr 0 0 0
At SMD N 00888000
Ne 0 ""
Po 7.25 -3.75
$EndPAD
$PAD
Sh "57" R 2.5 0.25 0 0 1800
Dr 0 0 0
At SMD N 00888000
Ne 0 ""
Po 7.25 -3.25
$EndPAD
$PAD
Sh "56" R 2.5 0.25 0 0 1800
Dr 0 0 0
At SMD N 00888000
Ne 0 ""
Po 7.25 -2.75
$EndPAD
$PAD
Sh "55" R 2.5 0.25 0 0 1800
Dr 0 0 0
At SMD N 00888000
Ne 0 ""
Po 7.25 -2.25
$EndPAD
$PAD
Sh "54" R 2.5 0.25 0 0 1800
Dr 0 0 0
At SMD N 00888000
Ne 0 ""
Po 7.25 -1.75
$EndPAD
$PAD
Sh "53" R 2.5 0.25 0 0 1800
Dr 0 0 0
At SMD N 00888000
Ne 0 ""
Po 7.25 -1.25
$EndPAD
$PAD
Sh "41" R 2.5 0.25 0 0 1800
Dr 0 0 0
At SMD N 00888000
Ne 0 ""
Po 7.25 4.75
$EndPAD
$PAD
Sh "42" R 2.5 0.25 0 0 1800
Dr 0 0 0
At SMD N 00888000
Ne 0 ""
Po 7.25 4.25
$EndPAD
$PAD
Sh "43" R 2.5 0.25 0 0 1800
Dr 0 0 0
At SMD N 00888000
Ne 0 ""
Po 7.25 3.75
$EndPAD
$PAD
Sh "44" R 2.5 0.25 0 0 1800
Dr 0 0 0
At SMD N 00888000
Ne 0 ""
Po 7.25 3.25
$EndPAD
$PAD
Sh "45" R 2.5 0.25 0 0 1800
Dr 0 0 0
At SMD N 00888000
Ne 0 ""
Po 7.25 2.75
$EndPAD
$PAD
Sh "46" R 2.5 0.25 0 0 1800
Dr 0 0 0
At SMD N 00888000
Ne 0 ""
Po 7.25 2.25
$EndPAD
$PAD
Sh "47" R 2.5 0.25 0 0 1800
Dr 0 0 0
At SMD N 00888000
Ne 0 ""
Po 7.25 1.75
$EndPAD
$PAD
Sh "48" R 2.5 0.25 0 0 1800
Dr 0 0 0
At SMD N 00888000
Ne 0 ""
Po 7.25 1.25
$EndPAD
$PAD
Sh "49" R 2.5 0.25 0 0 1800
Dr 0 0 0
At SMD N 00888000
Ne 0 ""
Po 7.25 0.75
$EndPAD
$PAD
Sh "50" R 2.5 0.25 0 0 1800
Dr 0 0 0
At SMD N 00888000
Ne 0 ""
Po 7.25 0.25
$EndPAD
$PAD
Sh "51" R 2.5 0.25 0 0 1800
Dr 0 0 0
At SMD N 00888000
Ne 0 ""
Po 7.25 -0.25
$EndPAD
$PAD
Sh "52" R 2.5 0.25 0 0 1800
Dr 0 0 0
At SMD N 00888000
Ne 0 ""
Po 7.25 -0.75
$EndPAD
$PAD
Sh "72" R 2.5 0.25 0 0 2700
Dr 0 0 0
At SMD N 00888000
Ne 0 ""
Po -0.75 -7.25
$EndPAD
$PAD
Sh "71" R 2.5 0.25 0 0 2700
Dr 0 0 0
At SMD N 00888000
Ne 0 ""
Po -0.25 -7.25
$EndPAD
$PAD
Sh "70" R 2.5 0.25 0 0 2700
Dr 0 0 0
At SMD N 00888000
Ne 0 ""
Po 0.25 -7.25
$EndPAD
$PAD
Sh "69" R 2.5 0.25 0 0 2700
Dr 0 0 0
At SMD N 00888000
Ne 0 ""
Po 0.75 -7.25
$EndPAD
$PAD
Sh "68" R 2.5 0.25 0 0 2700
Dr 0 0 0
At SMD N 00888000
Ne 0 ""
Po 1.25 -7.25
$EndPAD
$PAD
Sh "67" R 2.5 0.25 0 0 2700
Dr 0 0 0
At SMD N 00888000
Ne 0 ""
Po 1.75 -7.25
$EndPAD
$PAD
Sh "66" R 2.5 0.25 0 0 2700
Dr 0 0 0
At SMD N 00888000
Ne 0 ""
Po 2.25 -7.25
$EndPAD
$PAD
Sh "65" R 2.5 0.25 0 0 2700
Dr 0 0 0
At SMD N 00888000
Ne 0 ""
Po 2.75 -7.25
$EndPAD
$PAD
Sh "64" R 2.5 0.25 0 0 2700
Dr 0 0 0
At SMD N 00888000
Ne 0 ""
Po 3.25 -7.25
$EndPAD
$PAD
Sh "63" R 2.5 0.25 0 0 2700
Dr 0 0 0
At SMD N 00888000
Ne 0 ""
Po 3.75 -7.25
$EndPAD
$PAD
Sh "62" R 2.5 0.25 0 0 2700
Dr 0 0 0
At SMD N 00888000
Ne 0 ""
Po 4.25 -7.25
$EndPAD
$PAD
Sh "61" R 2.5 0.25 0 0 2700
Dr 0 0 0
At SMD N 00888000
Ne 0 ""
Po 4.75 -7.25
$EndPAD
$PAD
Sh "73" R 2.5 0.25 0 0 2700
Dr 0 0 0
At SMD N 00888000
Ne 0 ""
Po -1.25 -7.25
$EndPAD
$PAD
Sh "74" R 2.5 0.25 0 0 2700
Dr 0 0 0
At SMD N 00888000
Ne 0 ""
Po -1.75 -7.25
$EndPAD
$PAD
Sh "75" R 2.5 0.25 0 0 2700
Dr 0 0 0
At SMD N 00888000
Ne 0 ""
Po -2.25 -7.25
$EndPAD
$PAD
Sh "76" R 2.5 0.25 0 0 2700
Dr 0 0 0
At SMD N 00888000
Ne 0 ""
Po -2.75 -7.25
$EndPAD
$PAD
Sh "77" R 2.5 0.25 0 0 2700
Dr 0 0 0
At SMD N 00888000
Ne 0 ""
Po -3.25 -7.25
$EndPAD
$PAD
Sh "78" R 2.5 0.25 0 0 2700
Dr 0 0 0
At SMD N 00888000
Ne 0 ""
Po -3.75 -7.25
$EndPAD
$PAD
Sh "79" R 2.5 0.25 0 0 2700
Dr 0 0 0
At SMD N 00888000
Ne 0 ""
Po -4.25 -7.25
$EndPAD
$PAD
Sh "80" R 2.5 0.25 0 0 2700
Dr 0 0 0
At SMD N 00888000
Ne 0 ""
Po -4.75 -7.25
$EndPAD
$PAD
Sh "32" R 2.5 0.25 0 0 900
Dr 0 0 0
At SMD N 00888000
Ne 0 ""
Po 0.75 7.25
$EndPAD
$PAD
Sh "31" R 2.5 0.25 0 0 900
Dr 0 0 0
At SMD N 00888000
Ne 0 ""
Po 0.25 7.25
$EndPAD
$PAD
Sh "30" R 2.5 0.25 0 0 900
Dr 0 0 0
At SMD N 00888000
Ne 0 ""
Po -0.25 7.25
$EndPAD
$PAD
Sh "29" R 2.5 0.25 0 0 900
Dr 0 0 0
At SMD N 00888000
Ne 0 ""
Po -0.75 7.25
$EndPAD
$PAD
Sh "28" R 2.5 0.25 0 0 900
Dr 0 0 0
At SMD N 00888000
Ne 0 ""
Po -1.25 7.25
$EndPAD
$PAD
Sh "27" R 2.5 0.25 0 0 900
Dr 0 0 0
At SMD N 00888000
Ne 0 ""
Po -1.75 7.25
$EndPAD
$PAD
Sh "26" R 2.5 0.25 0 0 900
Dr 0 0 0
At SMD N 00888000
Ne 0 ""
Po -2.25 7.25
$EndPAD
$PAD
Sh "25" R 2.5 0.25 0 0 900
Dr 0 0 0
At SMD N 00888000
Ne 0 ""
Po -2.75 7.25
$EndPAD
$PAD
Sh "24" R 2.5 0.25 0 0 900
Dr 0 0 0
At SMD N 00888000
Ne 0 ""
Po -3.25 7.25
$EndPAD
$PAD
Sh "23" R 2.5 0.25 0 0 900
Dr 0 0 0
At SMD N 00888000
Ne 0 ""
Po -3.75 7.25
$EndPAD
$PAD
Sh "22" R 2.5 0.25 0 0 900
Dr 0 0 0
At SMD N 00888000
Ne 0 ""
Po -4.25 7.25
$EndPAD
$PAD
Sh "21" R 2.5 0.25 0 0 900
Dr 0 0 0
At SMD N 00888000
Ne 0 ""
Po -4.75 7.25
$EndPAD
$PAD
Sh "33" R 2.5 0.25 0 0 900
Dr 0 0 0
At SMD N 00888000
Ne 0 ""
Po 1.25 7.25
$EndPAD
$PAD
Sh "34" R 2.5 0.25 0 0 900
Dr 0 0 0
At SMD N 00888000
Ne 0 ""
Po 1.75 7.25
$EndPAD
$PAD
Sh "35" R 2.5 0.25 0 0 900
Dr 0 0 0
At SMD N 00888000
Ne 0 ""
Po 2.25 7.25
$EndPAD
$PAD
Sh "36" R 2.5 0.25 0 0 900
Dr 0 0 0
At SMD N 00888000
Ne 0 ""
Po 2.75 7.25
$EndPAD
$PAD
Sh "37" R 2.5 0.25 0 0 900
Dr 0 0 0
At SMD N 00888000
Ne 0 ""
Po 3.25 7.25
$EndPAD
$PAD
Sh "38" R 2.5 0.25 0 0 900
Dr 0 0 0
At SMD N 00888000
Ne 0 ""
Po 3.75 7.25
$EndPAD
$PAD
Sh "39" R 2.5 0.25 0 0 900
Dr 0 0 0
At SMD N 00888000
Ne 0 ""
Po 4.25 7.25
$EndPAD
$PAD
Sh "40" R 2.5 0.25 0 0 900
Dr 0 0 0
At SMD N 00888000
Ne 0 ""
Po 4.75 7.25
$EndPAD
$PAD
Sh "20" R 2.5 0.25 0 0 0
Dr 0 0 0
At SMD N 00888000
Ne 0 ""
Po -7.25 4.75
$EndPAD
$PAD
Sh "19" R 2.5 0.25 0 0 0
Dr 0 0 0
At SMD N 00888000
Ne 0 ""
Po -7.25 4.25
$EndPAD
$PAD
Sh "18" R 2.5 0.25 0 0 0
Dr 0 0 0
At SMD N 00888000
Ne 0 ""
Po -7.25 3.75
$EndPAD
$PAD
Sh "17" R 2.5 0.25 0 0 0
Dr 0 0 0
At SMD N 00888000
Ne 0 ""
Po -7.25 3.25
$EndPAD
$PAD
Sh "16" R 2.5 0.25 0 0 0
Dr 0 0 0
At SMD N 00888000
Ne 0 ""
Po -7.25 2.75
$EndPAD
$PAD
Sh "15" R 2.5 0.25 0 0 0
Dr 0 0 0
At SMD N 00888000
Ne 0 ""
Po -7.25 2.25
$EndPAD
$PAD
Sh "14" R 2.5 0.25 0 0 0
Dr 0 0 0
At SMD N 00888000
Ne 0 ""
Po -7.25 1.75
$EndPAD
$PAD
Sh "13" R 2.5 0.25 0 0 0
Dr 0 0 0
At SMD N 00888000
Ne 0 ""
Po -7.25 1.25
$EndPAD
$PAD
Sh "1" R 2.5 0.25 0 0 0
Dr 0 0 0
At SMD N 00888000
Ne 0 ""
Po -7.25 -4.75
$EndPAD
$PAD
Sh "2" R 2.5 0.25 0 0 0
Dr 0 0 0
At SMD N 00888000
Ne 0 ""
Po -7.25 -4.25
$EndPAD
$PAD
Sh "3" R 2.5 0.25 0 0 0
Dr 0 0 0
At SMD N 00888000
Ne 0 ""
Po -7.25 -3.75
$EndPAD
$PAD
Sh "4" R 2.5 0.25 0 0 0
Dr 0 0 0
At SMD N 00888000
Ne 0 ""
Po -7.25 -3.25
$EndPAD
$PAD
Sh "5" R 2.5 0.25 0 0 0
Dr 0 0 0
At SMD N 00888000
Ne 0 ""
Po -7.25 -2.75
$EndPAD
$PAD
Sh "6" R 2.5 0.25 0 0 0
Dr 0 0 0
At SMD N 00888000
Ne 0 ""
Po -7.25 -2.25
$EndPAD
$PAD
Sh "7" R 2.5 0.25 0 0 0
Dr 0 0 0
At SMD N 00888000
Ne 0 ""
Po -7.25 -1.75
$EndPAD
$PAD
Sh "8" R 2.5 0.25 0 0 0
Dr 0 0 0
At SMD N 00888000
Ne 0 ""
Po -7.25 -1.25
$EndPAD
$PAD
Sh "9" R 2.5 0.25 0 0 0
Dr 0 0 0
At SMD N 00888000
Ne 0 ""
Po -7.25 -0.75
$EndPAD
$PAD
Sh "10" R 2.5 0.25 0 0 0
Dr 0 0 0
At SMD N 00888000
Ne 0 ""
Po -7.25 -0.25
$EndPAD
$PAD
Sh "11" R 2.5 0.25 0 0 0
Dr 0 0 0
At SMD N 00888000
Ne 0 ""
Po -7.25 0.25
$EndPAD
$PAD
Sh "12" R 2.5 0.25 0 0 0
Dr 0 0 0
At SMD N 00888000
Ne 0 ""
Po -7.25 0.75
$EndPAD
$EndMODULE lqfp-80-rubi
$MODULE osc-25x32
Po 0 0 0 15 57E94FEA 00000000 ~~
Li osc-25x32
Sc 0
AR /56F4F08F/57EA2B97
Op 0 0 0
T0 -0.1 2.8 1 1 0 0.2 N V 21 N "U15"
T1 0.3 -3.1 1 1 0 0.2 N V 21 N "OSC-4PIN"
DS -2.2 0.6 -2.2 1.9 0.2 21
DS -2.2 1.9 -1 1.9 0.2 21
DS -1.6 -1.3 1.6 -1.3 0.2 21
DS 1.6 -1.3 1.6 1.3 0.2 21
DS 1.6 1.3 -1.6 1.3 0.2 21
DS -1.6 1.3 -1.6 -1.3 0.2 21
$PAD
Sh "2" R 1.5 1.3 0 0 0
Dr 0 0 0
At SMD N 00888000
Ne 0 ""
Po 1.1 0.85
$EndPAD
$PAD
Sh "3" R 1.5 1.3 0 0 0
Dr 0 0 0
At SMD N 00888000
Ne 0 ""
Po 1.1 -0.85
$EndPAD
$PAD
Sh "4" R 1.5 1.3 0 0 0
Dr 0 0 0
At SMD N 00888000
Ne 0 ""
Po -1.1 -0.85
$EndPAD
$PAD
Sh "1" R 1.5 1.3 0 0 0
Dr 0 0 0
At SMD N 00888000
Ne 0 ""
Po -1.1 0.85
$EndPAD
$EndMODULE osc-25x32
$MODULE qfn36-rubi
Po 0 0 0 15 5962BD56 00000000 ~~
Li qfn36-rubi
Sc 0
AR 
Op 0 0 0
T0 3.5 5 1 1 0 0.15 N V 21 N "qfn36-rubi"
T1 5.5 3.5 1 1 0 0.15 N V 21 N "VAL**"
DS -3.1 -3.1 3.1 -3.1 0.07874 21
DS 3.1 -3.1 3.1 3.1 0.07874 21
DS 3.1 3.1 -3 3.1 0.07874 21
DS -3 3.1 -3.1 3.1 0.07874 21
DS -3.1 3.1 -3.1 -3.1 0.07874 21
$PAD
Sh "0" R 3.7 3.7 0 0 0
Dr 0 0 0
At SMD N 00808000
Ne 0 ""
Po 0 0
$EndPAD
$PAD
Sh "14" R 1.4 0.28 0 0 0
Dr 0 0 0
At SMD N 00888000
Ne 0 ""
Po 3 0
$EndPAD
$PAD
Sh "15" R 1.4 0.28 0 0 0
Dr 0 0 0
At SMD N 00888000
Ne 0 ""
Po 3 -0.5
$EndPAD
$PAD
Sh "16" R 1.4 0.28 0 0 0
Dr 0 0 0
At SMD N 00888000
Ne 0 ""
Po 3 -1
$EndPAD
$PAD
Sh "17" R 1.4 0.28 0 0 0
Dr 0 0 0
At SMD N 00888000
Ne 0 ""
Po 3 -1.5
$EndPAD
$PAD
Sh "18" R 1.35 0.28 0 0 0
Dr 0 0 0
At SMD N 00888000
Ne 0 ""
Po 3 -2
$EndPAD
$PAD
Sh "10" R 1.35 0.28 0 0 0
Dr 0 0 0
At SMD N 00888000
Ne 0 ""
Po 3 2
$EndPAD
$PAD
Sh "11" R 1.4 0.28 0 0 0
Dr 0 0 0
At SMD N 00888000
Ne 0 ""
Po 3 1.5
$EndPAD
$PAD
Sh "12" R 1.4 0.28 0 0 0
Dr 0 0 0
At SMD N 00888000
Ne 0 ""
Po 3 1
$EndPAD
$PAD
Sh "13" R 1.4 0.28 0 0 0
Dr 0 0 0
At SMD N 00888000
Ne 0 ""
Po 3 0.5
$EndPAD
$PAD
Sh "28" R 1.35 0.28 0 0 0
Dr 0 0 0
At SMD N 00888000
Ne 0 ""
Po -3 -2
$EndPAD
$PAD
Sh "29" R 1.4 0.28 0 0 0
Dr 0 0 0
At SMD N 00888000
Ne 0 ""
Po -3 -1.5
$EndPAD
$PAD
Sh "30" R 1.4 0.28 0 0 0
Dr 0 0 0
At SMD N 00888000
Ne 0 ""
Po -3 -1
$EndPAD
$PAD
Sh "31" R 1.4 0.28 0 0 0
Dr 0 0 0
At SMD N 00888000
Ne 0 ""
Po -3 -0.5
$EndPAD
$PAD
Sh "32" R 1.4 0.28 0 0 0
Dr 0 0 0
At SMD N 00888000
Ne 0 ""
Po -3 0
$EndPAD
$PAD
Sh "33" R 1.4 0.28 0 0 0
Dr 0 0 0
At SMD N 00888000
Ne 0 ""
Po -3 0.5
$EndPAD
$PAD
Sh "34" R 1.4 0.28 0 0 0
Dr 0 0 0
At SMD N 00888000
Ne 0 ""
Po -3 1
$EndPAD
$PAD
Sh "35" R 1.4 0.28 0 0 0
Dr 0 0 0
At SMD N 00888000
Ne 0 ""
Po -3 1.5
$EndPAD
$PAD
Sh "36" R 1.35 0.28 0 0 0
Dr 0 0 0
At SMD N 00888000
Ne 0 ""
Po -3 2
$EndPAD
$PAD
Sh "1" R 0.28 1.35 0 0 0
Dr 0 0 0
At SMD N 00888000
Ne 0 ""
Po -2 3
$EndPAD
$PAD
Sh "2" R 0.28 1.4 0 0 0
Dr 0 0 0
At SMD N 00888000
Ne 0 ""
Po -1.5 3
$EndPAD
$PAD
Sh "3" R 0.28 1.4 0 0 0
Dr 0 0 0
At SMD N 00888000
Ne 0 ""
Po -1 3
$EndPAD
$PAD
Sh "4" R 0.28 1.4 0 0 0
Dr 0 0 0
At SMD N 00888000
Ne 0 ""
Po -0.5 3
$EndPAD
$PAD
Sh "5" R 0.28 1.4 0 0 0
Dr 0 0 0
At SMD N 00888000
Ne 0 ""
Po 0 3
$EndPAD
$PAD
Sh "6" R 0.28 1.4 0 0 0
Dr 0 0 0
At SMD N 00888000
Ne 0 ""
Po 0.5 3
$EndPAD
$PAD
Sh "7" R 0.28 1.4 0 0 0
Dr 0 0 0
At SMD N 00888000
Ne 0 ""
Po 1 3
$EndPAD
$PAD
Sh "8" R 0.28 1.4 0 0 0
Dr 0 0 0
At SMD N 00888000
Ne 0 ""
Po 1.5 3
$EndPAD
$PAD
Sh "9" R 0.28 1.35 0 0 0
Dr 0 0 0
At SMD N 00888000
Ne 0 ""
Po 2 3
$EndPAD
$PAD
Sh "19" R 0.28 1.35 0 0 0
Dr 0 0 0
At SMD N 00888000
Ne 0 ""
Po 2 -3
$EndPAD
$PAD
Sh "20" R 0.28 1.4 0 0 0
Dr 0 0 0
At SMD N 00888000
Ne 0 ""
Po 1.5 -3
$EndPAD
$PAD
Sh "21" R 0.28 1.4 0 0 0
Dr 0 0 0
At SMD N 00888000
Ne 0 ""
Po 1 -3
$EndPAD
$PAD
Sh "22" R 0.28 1.4 0 0 0
Dr 0 0 0
At SMD N 00888000
Ne 0 ""
Po 0.5 -3
$EndPAD
$PAD
Sh "23" R 0.28 1.4 0 0 0
Dr 0 0 0
At SMD N 00888000
Ne 0 ""
Po 0 -3
$EndPAD
$PAD
Sh "24" R 0.28 1.4 0 0 0
Dr 0 0 0
At SMD N 00888000
Ne 0 ""
Po -0.5 -3
$EndPAD
$PAD
Sh "25" R 0.28 1.4 0 0 0
Dr 0 0 0
At SMD N 00888000
Ne 0 ""
Po -1 -3
$EndPAD
$PAD
Sh "26" R 0.28 1.4 0 0 0
Dr 0 0 0
At SMD N 00888000
Ne 0 ""
Po -1.5 -3
$EndPAD
$PAD
Sh "27" R 0.28 1.35 0 0 0
Dr 0 0 0
At SMD N 00888000
Ne 0 ""
Po -2 -3
$EndPAD
$PAD
Sh "p1" R 0.5 0.5 0 0 0
Dr 0 0 0
At SMD N 00080000
Ne 0 ""
Po 0 -1
$EndPAD
$PAD
Sh "p2" R 0.5 0.5 0 0 0
Dr 0 0 0
At SMD N 00080000
Ne 0 ""
Po 1 0
$EndPAD
$PAD
Sh "p3" R 0.5 0.5 0 0 0
Dr 0 0 0
At SMD N 00080000
Ne 0 ""
Po 0 1
$EndPAD
$PAD
Sh "p4" R 0.5 0.5 0 0 0
Dr 0 0 0
At SMD N 00080000
Ne 0 ""
Po -1 0
$EndPAD
$EndMODULE qfn36-rubi
$MODULE sot-563
Po 0 0 0 15 5A02ED0A 00000000 ~~
Li sot-563
Sc 0
AR 
Op 0 0 0
T0 -1.5 0 0.5 0.5 900 0.1 N V 21 N "sot-563"
T1 1.6 0 0.5 0.5 900 0.1 N V 21 N "VAL**"
DS -1.1 0.4 -1.1 1 0.1 21
DS -1.1 1 -0.6 1 0.1 21
DS 0.9 -0.9 -0.9 -0.9 0.1 21
DS -0.9 -0.9 -0.9 0.8 0.1 21
DS -0.9 0.8 0.9 0.8 0.1 21
DS 0.9 -0.9 0.9 0.8 0.1 21
$PAD
Sh "1" R 0.3 0.6 0 0 0
Dr 0 0 0
At SMD N 00888000
Ne 0 ""
Po -0.5 0.75
$EndPAD
$PAD
Sh "2" R 0.3 0.6 0 0 0
Dr 0 0 0
At SMD N 00888000
Ne 0 ""
Po 0 0.75
$EndPAD
$PAD
Sh "3" R 0.3 0.6 0 0 0
Dr 0 0 0
At SMD N 00888000
Ne 0 ""
Po 0.5 0.75
$EndPAD
$PAD
Sh "4" R 0.3 0.6 0 0 0
Dr 0 0 0
At SMD N 00888000
Ne 0 ""
Po 0.5 -0.75
$EndPAD
$PAD
Sh "5" R 0.3 0.6 0 0 0
Dr 0 0 0
At SMD N 00888000
Ne 0 ""
Po 0 -0.75
$EndPAD
$PAD
Sh "6" R 0.3 0.6 0 0 0
Dr 0 0 0
At SMD N 00888000
Ne 0 ""
Po -0.5 -0.75
$EndPAD
$EndMODULE sot-563
$MODULE sot23-6
Po 0 0 0 15 5BEC4675 00000000 ~~
Li sot23-6
Sc 0
AR 
Op 0 0 0
T0 -2.6 0 0.5 0.5 900 0.1 N V 21 N "sot23-6"
T1 2.4 0 0.5 0.5 900 0.1 N V 21 N "VAL**"
DS 1.5 -1.9 1.5 1.9 0.1 21
DS -1.5 -1.9 -1.5 1.9 0.1 21
DS -1.5 1.9 1.5 1.9 0.1 21
DS -1.7 2.1 -1.7 1.1 0.15 21
DS -0.7 2.1 -1.7 2.1 0.15 21
DS -1.5 -1.9 1.5 -1.9 0.1 21
$PAD
Sh "1" R 0.4 0.8 0 0 0
Dr 0 0 0
At SMD N 00888000
Ne 0 ""
Po -0.95 1.15
$EndPAD
$PAD
Sh "2" R 0.4 0.8 0 0 0
Dr 0 0 0
At SMD N 00888000
Ne 0 ""
Po 0 1.15
$EndPAD
$PAD
Sh "3" R 0.4 0.8 0 0 0
Dr 0 0 0
At SMD N 00888000
Ne 0 ""
Po 0.95 1.15
$EndPAD
$PAD
Sh "4" R 0.4 0.8 0 0 0
Dr 0 0 0
At SMD N 00888000
Ne 0 ""
Po 0.95 -1.15
$EndPAD
$PAD
Sh "6" R 0.4 0.8 0 0 0
Dr 0 0 0
At SMD N 00888000
Ne 0 ""
Po -0.95 -1.15
$EndPAD
$PAD
Sh "5" R 0.4 0.8 0 0 0
Dr 0 0 0
At SMD N 00888000
Ne 0 ""
Po 0 -1.15
$EndPAD
$EndMODULE sot23-6
$MODULE sot89-5
Po 0 0 0 15 58726302 00000000 ~~
Li sot89-5
Cd SOT89
Sc 0
AR /586D5281/58722273
Op 0 0 0
At SMD
T0 3.0988 -0.39878 1.00076 1.00076 900 0.20066 N V 21 N "U403"
T1 -2.99974 -0.20066 1.00076 1.00076 900 0.20066 N V 21 N "TS19376"
DS -0.9017 -1.8034 0.9017 -1.8034 0.127 21
DS 0.9017 -1.8034 0.9017 -1.3081 0.127 21
DS -0.9017 -1.8034 -0.9017 -1.3081 0.127 21
DS -2.2987 1.3081 -2.2987 -1.3081 0.127 21
DS -2.2987 -1.3081 2.2987 -1.3081 0.127 21
DS 2.2987 -1.3081 2.2987 1.3081 0.127 21
DS 2.2987 1.3081 -2.2987 1.3081 0.127 21
$PAD
Sh "1" R 0.70104 1.6002 0 0 0
Dr 0 0 0
At SMD N 00888000
Ne 0 ""
Po -1.50114 1.89992
$EndPAD
$PAD
Sh "2" R 0.70104 2.10058 0 0 0
Dr 0 0 0
At SMD N 00888000
Ne 2 "GND"
Po 0 1.651
$EndPAD
$PAD
Sh "3" R 0.70104 1.6002 0 0 0
Dr 0 0 0
At SMD N 00888000
Ne 0 ""
Po 1.50114 1.89992
$EndPAD
$PAD
Sh "2" R 1.7 2.75082 0 0 0
Dr 0 0 0
At SMD N 00888000
Ne 2 "GND"
Po 0 -0.7493
$EndPAD
$PAD
Sh "4" R 0.70104 1.6002 0 0 0
Dr 0 0 0
At SMD N 00888000
Ne 0 ""
Po 1.5 -1.4
$EndPAD
$PAD
Sh "5" R 0.70104 1.6002 0 0 0
Dr 0 0 0
At SMD N 00888000
Ne 0 ""
Po -1.5 -1.4
$EndPAD
$SHAPE3D
Na "smd/smd_transistors/sot89.wrl"
Sc 1 1 1
Of 0 0 0
Ro 0 0 0
$EndSHAPE3D
$EndMODULE sot89-5
$MODULE ssop-20-rubi
Po 0 0 0 15 5A8D1C1D 00000000 ~~
Li ssop-20-rubi
Cd TSSOP-28
Sc 0
AR /59DA3784/59DA6C2C
Op 0 0 0
At SMD
T0 -3.9 0 0.5 0.5 900 0.1 N V 21 N "U301"
T1 0 0 0.5 0.5 900 0.1 N V 21 N "value"
DS -3.8 1.3 -3.8 2.6 0.15 21
DS -3.8 2.6 -2.6 2.6 0.15 21
DS 3.25 -2.2 3.25 2.2 0.15 21
DS -3.25 2.2 3.25 2.2 0.15 21
DS -3.25 2.2 -3.25 -2.2 0.15 21
DS -3.25 -2.2 3.25 -2.2 0.15 21
$PAD
Sh "5" R 0.4 1.8 0 0 0
Dr 0 0 0
At SMD N 00888000
Ne 0 ""
Po -0.325 3.2
$EndPAD
$PAD
Sh "6" R 0.4 1.8 0 0 0
Dr 0 0 0
At SMD N 00888000
Ne 0 ""
Po 0.325 3.2
$EndPAD
$PAD
Sh "7" R 0.4 1.8 0 0 0
Dr 0 0 0
At SMD N 00888000
Ne 0 ""
Po 0.975 3.2
$EndPAD
$PAD
Sh "8" R 0.4 1.8 0 0 0
Dr 0 0 0
At SMD N 00888000
Ne 0 ""
Po 1.625 3.2
$EndPAD
$PAD
Sh "19" R 0.4 1.8 0 0 0
Dr 0 0 0
At SMD N 00888000
Ne 0 ""
Po -2.275 -3.2
$EndPAD
$PAD
Sh "2" R 0.4 1.8 0 0 0
Dr 0 0 0
At SMD N 00888000
Ne 0 ""
Po -2.275 3.2
$EndPAD
$PAD
Sh "3" R 0.4 1.8 0 0 0
Dr 0 0 0
At SMD N 00888000
Ne 0 ""
Po -1.625 3.2
$EndPAD
$PAD
Sh "4" R 0.4 1.8 0 0 0
Dr 0 0 0
At SMD N 00888000
Ne 0 ""
Po -0.975 3.2
$EndPAD
$PAD
Sh "12" R 0.4 1.8 0 0 0
Dr 0 0 0
At SMD N 00888000
Ne 0 ""
Po 2.275 -3.2
$EndPAD
$PAD
Sh "13" R 0.4 1.8 0 0 0
Dr 0 0 0
At SMD N 00888000
Ne 0 ""
Po 1.625 -3.2
$EndPAD
$PAD
Sh "14" R 0.4 1.8 0 0 0
Dr 0 0 0
At SMD N 00888000
Ne 0 ""
Po 0.975 -3.2
$EndPAD
$PAD
Sh "15" R 0.4 1.8 0 0 0
Dr 0 0 0
At SMD N 00888000
Ne 0 ""
Po 0.325 -3.2
$EndPAD
$PAD
Sh "16" R 0.4 1.8 0 0 0
Dr 0 0 0
At SMD N 00888000
Ne 0 ""
Po -0.325 -3.2
$EndPAD
$PAD
Sh "17" R 0.4 1.8 0 0 0
Dr 0 0 0
At SMD N 00888000
Ne 0 ""
Po -0.975 -3.2
$EndPAD
$PAD
Sh "9" R 0.4 1.8 0 0 0
Dr 0 0 0
At SMD N 00888000
Ne 0 ""
Po 2.25 3.2
$EndPAD
$PAD
Sh "18" R 0.4 1.8 0 0 0
Dr 0 0 0
At SMD N 00888000
Ne 0 ""
Po -1.625 -3.2
$EndPAD
$PAD
Sh "1" R 0.4 1.8 0 0 0
Dr 0 0 0
At SMD N 00888000
Ne 0 ""
Po -2.925 3.2
$EndPAD
$PAD
Sh "10" R 0.4 1.8 0 0 0
Dr 0 0 0
At SMD N 00888000
Ne 0 ""
Po 2.925 3.2
$EndPAD
$PAD
Sh "11" R 0.4 1.8 0 0 0
Dr 0 0 0
At SMD N 00888000
Ne 0 ""
Po 2.925 -3.2
$EndPAD
$PAD
Sh "20" R 0.4 1.8 0 0 0
Dr 0 0 0
At SMD N 00888000
Ne 0 ""
Po -2.925 -3.2
$EndPAD
$SHAPE3D
Na "smd/smd_dil/tssop-28.wrl"
Sc 1 1 1
Of 0 0 0
Ro 0 0 0
$EndSHAPE3D
$EndMODULE ssop-20-rubi
$MODULE ssop-28-rubi
Po 0 0 0 15 59DB1805 00000000 ~~
Li ssop-28-rubi
Cd TSSOP-28
Sc 0
AR /59DA3784/59DA6C2C
Op 0 0 0
At SMD
T0 5.715 0 0.5 0.5 900 0.1 N V 21 N "U301"
T1 -5.715 0 0.5 0.5 900 0.1 N V 21 N "LTC2428"
DS -5.5 1.8 -5.5 3.1 0.15 21
DS -5.5 3.1 -4.3 3.1 0.15 21
DS 5.1 -2.7 5.1 2.7 0.15 21
DS 5.1 2.7 -5.1 2.7 0.15 21
DS -5.1 2.7 -5.1 -2.7 0.15 21
DS -5.1 -2.7 5.1 -2.7 0.15 21
$PAD
Sh "7" R 0.4 1.8 0 0 0
Dr 0 0 0
At SMD N 00888000
Ne 16 "N-00000107"
Po -0.325 3.6
$EndPAD
$PAD
Sh "8" R 0.4 1.8 0 0 0
Dr 0 0 0
At SMD N 00888000
Ne 1 "+3.3V"
Po 0.325 3.6
$EndPAD
$PAD
Sh "9" R 0.4 1.8 0 0 0
Dr 0 0 0
At SMD N 00888000
Ne 2 "/moan-channels/CH0"
Po 0.975 3.6
$EndPAD
$PAD
Sh "10" R 0.4 1.8 0 0 0
Dr 0 0 0
At SMD N 00888000
Ne 3 "/moan-channels/CH1"
Po 1.625 3.6
$EndPAD
$PAD
Sh "25" R 0.4 1.8 0 0 0
Dr 0 0 0
At SMD N 00888000
Ne 12 "N-00000103"
Po -2.275 -3.6
$EndPAD
$PAD
Sh "4" R 0.4 1.8 0 0 0
Dr 0 0 0
At SMD N 00888000
Ne 16 "N-00000107"
Po -2.275 3.6
$EndPAD
$PAD
Sh "5" R 0.4 1.8 0 0 0
Dr 0 0 0
At SMD N 00888000
Ne 10 "GND"
Po -1.625 3.6
$EndPAD
$PAD
Sh "6" R 0.4 1.8 0 0 0
Dr 0 0 0
At SMD N 00888000
Ne 10 "GND"
Po -0.975 3.6
$EndPAD
$PAD
Sh "18" R 0.4 1.8 0 0 0
Dr 0 0 0
At SMD N 00888000
Ne 10 "GND"
Po 2.275 -3.6
$EndPAD
$PAD
Sh "19" R 0.4 1.8 0 0 0
Dr 0 0 0
At SMD N 00888000
Ne 12 "N-00000103"
Po 1.625 -3.6
$EndPAD
$PAD
Sh "20" R 0.4 1.8 0 0 0
Dr 0 0 0
At SMD N 00888000
Ne 11 "N-00000102"
Po 0.975 -3.6
$EndPAD
$PAD
Sh "21" R 0.4 1.8 0 0 0
Dr 0 0 0
At SMD N 00888000
Ne 15 "N-00000106"
Po 0.325 -3.6
$EndPAD
$PAD
Sh "22" R 0.4 1.8 0 0 0
Dr 0 0 0
At SMD N 00888000
Ne 10 "GND"
Po -0.325 -3.6
$EndPAD
$PAD
Sh "23" R 0.4 1.8 0 0 0
Dr 0 0 0
At SMD N 00888000
Ne 13 "N-00000104"
Po -0.975 -3.6
$EndPAD
$PAD
Sh "11" R 0.4 1.8 0 0 0
Dr 0 0 0
At SMD N 00888000
Ne 4 "/moan-channels/CH2"
Po 2.25 3.6
$EndPAD
$PAD
Sh "24" R 0.4 1.8 0 0 0
Dr 0 0 0
At SMD N 00888000
Ne 14 "N-00000105"
Po -1.625 -3.6
$EndPAD
$PAD
Sh "3" R 0.4 1.8 0 0 0
Dr 0 0 0
At SMD N 00888000
Ne 0 ""
Po -2.925 3.6
$EndPAD
$PAD
Sh "12" R 0.4 1.8 0 0 0
Dr 0 0 0
At SMD N 00888000
Ne 5 "/moan-channels/CH3"
Po 2.925 3.6
$EndPAD
$PAD
Sh "17" R 0.4 1.8 0 0 0
Dr 0 0 0
At SMD N 00888000
Ne 9 "/moan-channels/CH7"
Po 2.925 -3.6
$EndPAD
$PAD
Sh "26" R 0.4 1.8 0 0 0
Dr 0 0 0
At SMD N 00888000
Ne 0 ""
Po -2.925 -3.6
$EndPAD
$PAD
Sh "2" R 0.4 1.8 0 0 0
Dr 0 0 0
At SMD N 00888000
Ne 1 "+3.3V"
Po -3.575 3.6
$EndPAD
$PAD
Sh "13" R 0.4 1.8 0 0 0
Dr 0 0 0
At SMD N 00888000
Ne 6 "/moan-channels/CH4"
Po 3.575 3.6
$EndPAD
$PAD
Sh "16" R 0.4 1.8 0 0 0
Dr 0 0 0
At SMD N 00888000
Ne 10 "GND"
Po 3.575 -3.6
$EndPAD
$PAD
Sh "27" R 0.4 1.8 0 0 0
Dr 0 0 0
At SMD N 00888000
Ne 10 "GND"
Po -3.575 -3.6
$EndPAD
$PAD
Sh "1" R 0.4 1.8 0 0 0
Dr 0 0 0
At SMD N 00888000
Ne 10 "GND"
Po -4.225 3.6
$EndPAD
$PAD
Sh "14" R 0.4 1.8 0 0 0
Dr 0 0 0
At SMD N 00888000
Ne 7 "/moan-channels/CH5"
Po 4.225 3.6
$EndPAD
$PAD
Sh "15" R 0.4 1.8 0 0 0
Dr 0 0 0
At SMD N 00888000
Ne 8 "/moan-channels/CH6"
Po 4.225 -3.6
$EndPAD
$PAD
Sh "28" R 0.4 1.8 0 0 0
Dr 0 0 0
At SMD N 00888000
Ne 10 "GND"
Po -4.225 -3.6
$EndPAD
$SHAPE3D
Na "smd/smd_dil/tssop-28.wrl"
Sc 1 1 1
Of 0 0 0
Ro 0 0 0
$EndSHAPE3D
$EndMODULE ssop-28-rubi
$MODULE tqfp44-rubi
Po 0 0 0 15 56F6CA1B 00000000 ~~
Li tqfp44-rubi
Sc 0
AR /55E96FB9
Op 0 0 0
At SMD
T0 5.9 -5.85 0.7 0.7 0 0.14 N V 21 N "U1"
T1 0 0 0.7 0.7 0 0.15 N I 21 N "ATMEGA32U4RC-A"
DS 5.0038 -5.0038 5.0038 5.0038 0.3048 21
DS 5.0038 5.0038 -5.0038 5.0038 0.3048 21
DS -5.0038 -4.5212 -5.0038 5.0038 0.3048 21
DS -4.5212 -5.0038 5.0038 -5.0038 0.3048 21
DS -5.0038 -4.5212 -4.5212 -5.0038 0.3048 21
DC -5.51 -5.51 -5.51 -4.875 0.2032 21
$PAD
Sh "39" R 0.4064 1.524 0 0 0
Dr 0 0 0
At SMD N 00888000
Ne 0 ""
Po 0 -5.715
$EndPAD
$PAD
Sh "40" R 0.4064 1.524 0 0 0
Dr 0 0 0
At SMD N 00888000
Ne 0 ""
Po -0.8001 -5.715
$EndPAD
$PAD
Sh "41" R 0.4064 1.524 0 0 0
Dr 0 0 0
At SMD N 00888000
Ne 0 ""
Po -1.6002 -5.715
$EndPAD
$PAD
Sh "42" R 0.4064 1.524 0 0 0
Dr 0 0 0
At SMD N 00888000
Ne 0 ""
Po -2.4003 -5.715
$EndPAD
$PAD
Sh "43" R 0.4064 1.524 0 0 0
Dr 0 0 0
At SMD N 00888000
Ne 0 ""
Po -3.2004 -5.715
$EndPAD
$PAD
Sh "44" R 0.4064 1.524 0 0 0
Dr 0 0 0
At SMD N 00888000
Ne 0 ""
Po -4.0005 -5.715
$EndPAD
$PAD
Sh "38" R 0.4064 1.524 0 0 0
Dr 0 0 0
At SMD N 00888000
Ne 0 ""
Po 0.8001 -5.715
$EndPAD
$PAD
Sh "37" R 0.4064 1.524 0 0 0
Dr 0 0 0
At SMD N 00888000
Ne 0 ""
Po 1.6002 -5.715
$EndPAD
$PAD
Sh "36" R 0.4064 1.524 0 0 0
Dr 0 0 0
At SMD N 00888000
Ne 0 ""
Po 2.4003 -5.715
$EndPAD
$PAD
Sh "35" R 0.4064 1.524 0 0 0
Dr 0 0 0
At SMD N 00888000
Ne 0 ""
Po 3.2004 -5.715
$EndPAD
$PAD
Sh "34" R 0.4064 1.524 0 0 0
Dr 0 0 0
At SMD N 00888000
Ne 0 ""
Po 4.0005 -5.715
$EndPAD
$PAD
Sh "17" R 0.4064 1.524 0 0 0
Dr 0 0 0
At SMD N 00888000
Ne 0 ""
Po 0 5.715
$EndPAD
$PAD
Sh "16" R 0.4064 1.524 0 0 0
Dr 0 0 0
At SMD N 00888000
Ne 0 ""
Po -0.8001 5.715
$EndPAD
$PAD
Sh "15" R 0.4064 1.524 0 0 0
Dr 0 0 0
At SMD N 00888000
Ne 0 ""
Po -1.6002 5.715
$EndPAD
$PAD
Sh "14" R 0.4064 1.524 0 0 0
Dr 0 0 0
At SMD N 00888000
Ne 0 ""
Po -2.4003 5.715
$EndPAD
$PAD
Sh "13" R 0.4064 1.524 0 0 0
Dr 0 0 0
At SMD N 00888000
Ne 0 ""
Po -3.2004 5.715
$EndPAD
$PAD
Sh "12" R 0.4064 1.524 0 0 0
Dr 0 0 0
At SMD N 00888000
Ne 0 ""
Po -4.0005 5.715
$EndPAD
$PAD
Sh "18" R 0.4064 1.524 0 0 0
Dr 0 0 0
At SMD N 00888000
Ne 0 ""
Po 0.8001 5.715
$EndPAD
$PAD
Sh "19" R 0.4064 1.524 0 0 0
Dr 0 0 0
At SMD N 00888000
Ne 0 ""
Po 1.6002 5.715
$EndPAD
$PAD
Sh "20" R 0.4064 1.524 0 0 0
Dr 0 0 0
At SMD N 00888000
Ne 0 ""
Po 2.4003 5.715
$EndPAD
$PAD
Sh "21" R 0.4064 1.524 0 0 0
Dr 0 0 0
At SMD N 00888000
Ne 0 ""
Po 3.2004 5.715
$EndPAD
$PAD
Sh "22" R 0.4064 1.524 0 0 0
Dr 0 0 0
At SMD N 00888000
Ne 0 ""
Po 4.0005 5.715
$EndPAD
$PAD
Sh "6" R 1.524 0.4064 0 0 0
Dr 0 0 0
At SMD N 00888000
Ne 0 ""
Po -5.715 0
$EndPAD
$PAD
Sh "28" R 1.524 0.4064 0 0 0
Dr 0 0 0
At SMD N 00888000
Ne 0 ""
Po 5.715 0
$EndPAD
$PAD
Sh "7" R 1.524 0.4064 0 0 0
Dr 0 0 0
At SMD N 00888000
Ne 0 ""
Po -5.715 0.8001
$EndPAD
$PAD
Sh "27" R 1.524 0.4064 0 0 0
Dr 0 0 0
At SMD N 00888000
Ne 0 ""
Po 5.715 0.8001
$EndPAD
$PAD
Sh "26" R 1.524 0.4064 0 0 0
Dr 0 0 0
At SMD N 00888000
Ne 0 ""
Po 5.715 1.6002
$EndPAD
$PAD
Sh "8" R 1.524 0.4064 0 0 0
Dr 0 0 0
At SMD N 00888000
Ne 0 ""
Po -5.715 1.6002
$EndPAD
$PAD
Sh "9" R 1.524 0.4064 0 0 0
Dr 0 0 0
At SMD N 00888000
Ne 0 ""
Po -5.715 2.4003
$EndPAD
$PAD
Sh "25" R 1.524 0.4064 0 0 0
Dr 0 0 0
At SMD N 00888000
Ne 0 ""
Po 5.715 2.4003
$EndPAD
$PAD
Sh "24" R 1.524 0.4064 0 0 0
Dr 0 0 0
At SMD N 00888000
Ne 0 ""
Po 5.715 3.2004
$EndPAD
$PAD
Sh "10" R 1.524 0.4064 0 0 0
Dr 0 0 0
At SMD N 00888000
Ne 0 ""
Po -5.715 3.2004
$EndPAD
$PAD
Sh "11" R 1.524 0.4064 0 0 0
Dr 0 0 0
At SMD N 00888000
Ne 0 ""
Po -5.715 4.0005
$EndPAD
$PAD
Sh "23" R 1.524 0.4064 0 0 0
Dr 0 0 0
At SMD N 00888000
Ne 0 ""
Po 5.715 4.0005
$EndPAD
$PAD
Sh "29" R 1.524 0.4064 0 0 0
Dr 0 0 0
At SMD N 00888000
Ne 0 ""
Po 5.715 -0.8001
$EndPAD
$PAD
Sh "5" R 1.524 0.4064 0 0 0
Dr 0 0 0
At SMD N 00888000
Ne 0 ""
Po -5.715 -0.8001
$EndPAD
$PAD
Sh "4" R 1.524 0.4064 0 0 0
Dr 0 0 0
At SMD N 00888000
Ne 0 ""
Po -5.715 -1.6002
$EndPAD
$PAD
Sh "30" R 1.524 0.4064 0 0 0
Dr 0 0 0
At SMD N 00888000
Ne 0 ""
Po 5.715 -1.6002
$EndPAD
$PAD
Sh "31" R 1.524 0.4064 0 0 0
Dr 0 0 0
At SMD N 00888000
Ne 0 ""
Po 5.715 -2.4003
$EndPAD
$PAD
Sh "3" R 1.524 0.4064 0 0 0
Dr 0 0 0
At SMD N 00888000
Ne 0 ""
Po -5.715 -2.4003
$EndPAD
$PAD
Sh "2" R 1.524 0.4064 0 0 0
Dr 0 0 0
At SMD N 00888000
Ne 0 ""
Po -5.715 -3.2004
$EndPAD
$PAD
Sh "32" R 1.524 0.4064 0 0 0
Dr 0 0 0
At SMD N 00888000
Ne 0 ""
Po 5.715 -3.2004
$EndPAD
$PAD
Sh "33" R 1.524 0.4064 0 0 0
Dr 0 0 0
At SMD N 00888000
Ne 0 ""
Po 5.715 -4.0005
$EndPAD
$PAD
Sh "1" R 1.524 0.4064 0 0 0
Dr 0 0 0
At SMD N 00888000
Ne 0 ""
Po -5.715 -4.0005
$EndPAD
$EndMODULE tqfp44-rubi
$MODULE tsop-5
Po 0 0 0 15 5BEC0689 00000000 ~~
Li tsop-5
Sc 0
AR 
Op 0 0 0
T0 -2.6 0 0.5 0.5 900 0.1 N V 21 N "tsop-5"
T1 2.4 0 0.5 0.5 900 0.1 N V 21 N "VAL**"
DS -2 2.4 -2 1.1 0.15 21
DS -0.6 2.4 -2 2.4 0.15 21
DS 1.6 -2.1 1.7 -2.1 0.1 21
DS 1.7 -2.1 1.7 2.1 0.1 21
DS 1.7 2.1 -1.7 2.1 0.1 21
DS -1.7 2.1 -1.7 -2.1 0.1 21
DS -1.7 -2.1 1.6 -2.1 0.1 21
$PAD
Sh "1" R 0.7 1 0 0 0
Dr 0 0 0
At SMD N 00888000
Ne 0 ""
Po -0.95 1.2
$EndPAD
$PAD
Sh "2" R 0.7 1 0 0 0
Dr 0 0 0
At SMD N 00888000
Ne 0 ""
Po 0 1.2
$EndPAD
$PAD
Sh "3" R 0.7 1 0 0 0
Dr 0 0 0
At SMD N 00888000
Ne 0 ""
Po 0.95 1.2
$EndPAD
$PAD
Sh "4" R 0.7 1 0 0 0
Dr 0 0 0
At SMD N 00888000
Ne 0 ""
Po 0.95 -1.2
$EndPAD
$PAD
Sh "5" R 0.7 1 0 0 0
Dr 0 0 0
At SMD N 00888000
Ne 0 ""
Po -0.95 -1.2
$EndPAD
$EndMODULE tsop-5
$MODULE tssop38
Po 0 0 0 15 5A8FB7AA 00000000 ~~
Li tssop38
Sc 0
AR 
Op 0 0 0
T0 6.6 0 0.7 0.7 900 0.14 N V 21 N "tssop38"
T1 0.2 0 0.7 0.7 0 0.14 N V 21 N "VAL**"
DS 5.4 -2.6 4.4 -2.6 0.15 21
DS 5.4 -2.6 5.4 -1.4 0.15 21
DS 5 2.2 -5 2.2 0.15 21
DS -5 2.2 -5 -2.2 0.15 21
DS -5 -2.2 5 -2.2 0.15 21
DS 5 -2.2 5 2.2 0.15 21
$PAD
Sh "1" R 0.28 2 0 0 0
Dr 0 0 0
At SMD N 00888000
Ne 0 ""
Po 4.5 -3
$EndPAD
$PAD
Sh "2" R 0.28 2 0 0 0
Dr 0 0 0
At SMD N 00888000
Ne 0 ""
Po 4 -3
$EndPAD
$PAD
Sh "3" R 0.28 2 0 0 0
Dr 0 0 0
At SMD N 00888000
Ne 0 ""
Po 3.5 -3
$EndPAD
$PAD
Sh "4" R 0.28 2 0 0 0
Dr 0 0 0
At SMD N 00888000
Ne 0 ""
Po 3 -3
$EndPAD
$PAD
Sh "5" R 0.28 2 0 0 0
Dr 0 0 0
At SMD N 00888000
Ne 0 ""
Po 2.5 -3
$EndPAD
$PAD
Sh "6" R 0.28 2 0 0 0
Dr 0 0 0
At SMD N 00888000
Ne 0 ""
Po 2 -3
$EndPAD
$PAD
Sh "7" R 0.28 2 0 0 0
Dr 0 0 0
At SMD N 00888000
Ne 0 ""
Po 1.5 -3
$EndPAD
$PAD
Sh "8" R 0.28 2 0 0 0
Dr 0 0 0
At SMD N 00888000
Ne 0 ""
Po 1 -3
$EndPAD
$PAD
Sh "9" R 0.28 2 0 0 0
Dr 0 0 0
At SMD N 00888000
Ne 0 ""
Po 0.5 -3
$EndPAD
$PAD
Sh "10" R 0.28 2 0 0 0
Dr 0 0 0
At SMD N 00888000
Ne 0 ""
Po 0 -3
$EndPAD
$PAD
Sh "11" R 0.28 2 0 0 0
Dr 0 0 0
At SMD N 00888000
Ne 0 ""
Po -0.5 -3
$EndPAD
$PAD
Sh "12" R 0.28 2 0 0 0
Dr 0 0 0
At SMD N 00888000
Ne 0 ""
Po -1 -3
$EndPAD
$PAD
Sh "13" R 0.28 2 0 0 0
Dr 0 0 0
At SMD N 00888000
Ne 0 ""
Po -1.5 -3
$EndPAD
$PAD
Sh "14" R 0.28 2 0 0 0
Dr 0 0 0
At SMD N 00888000
Ne 0 ""
Po -2 -3
$EndPAD
$PAD
Sh "15" R 0.28 2 0 0 0
Dr 0 0 0
At SMD N 00888000
Ne 0 ""
Po -2.5 -3
$EndPAD
$PAD
Sh "16" R 0.28 2 0 0 0
Dr 0 0 0
At SMD N 00888000
Ne 0 ""
Po -3 -3
$EndPAD
$PAD
Sh "17" R 0.28 2 0 0 0
Dr 0 0 0
At SMD N 00888000
Ne 0 ""
Po -3.5 -3
$EndPAD
$PAD
Sh "18" R 0.28 2 0 0 0
Dr 0 0 0
At SMD N 00888000
Ne 0 ""
Po -4 -3
$EndPAD
$PAD
Sh "19" R 0.28 2 0 0 0
Dr 0 0 0
At SMD N 00888000
Ne 0 ""
Po -4.5 -3
$EndPAD
$PAD
Sh "20" R 0.28 2 0 0 0
Dr 0 0 0
At SMD N 00888000
Ne 0 ""
Po -4.5 3
$EndPAD
$PAD
Sh "21" R 0.28 2 0 0 0
Dr 0 0 0
At SMD N 00888000
Ne 0 ""
Po -4 3
$EndPAD
$PAD
Sh "22" R 0.28 2 0 0 0
Dr 0 0 0
At SMD N 00888000
Ne 0 ""
Po -3.5 3
$EndPAD
$PAD
Sh "23" R 0.28 2 0 0 0
Dr 0 0 0
At SMD N 00888000
Ne 0 ""
Po -3 3
$EndPAD
$PAD
Sh "24" R 0.28 2 0 0 0
Dr 0 0 0
At SMD N 00888000
Ne 0 ""
Po -2.5 3
$EndPAD
$PAD
Sh "25" R 0.28 2 0 0 0
Dr 0 0 0
At SMD N 00888000
Ne 0 ""
Po -2 3
$EndPAD
$PAD
Sh "26" R 0.28 2 0 0 0
Dr 0 0 0
At SMD N 00888000
Ne 0 ""
Po -1.5 3
$EndPAD
$PAD
Sh "27" R 0.28 2 0 0 0
Dr 0 0 0
At SMD N 00888000
Ne 0 ""
Po -1 3
$EndPAD
$PAD
Sh "28" R 0.28 2 0 0 0
Dr 0 0 0
At SMD N 00888000
Ne 0 ""
Po -0.5 3
$EndPAD
$PAD
Sh "29" R 0.28 2 0 0 0
Dr 0 0 0
At SMD N 00888000
Ne 0 ""
Po 0 3
$EndPAD
$PAD
Sh "30" R 0.28 2 0 0 0
Dr 0 0 0
At SMD N 00888000
Ne 0 ""
Po 0.5 3
$EndPAD
$PAD
Sh "31" R 0.28 2 0 0 0
Dr 0 0 0
At SMD N 00888000
Ne 0 ""
Po 1 3
$EndPAD
$PAD
Sh "32" R 0.28 2 0 0 0
Dr 0 0 0
At SMD N 00888000
Ne 0 ""
Po 1.5 3
$EndPAD
$PAD
Sh "33" R 0.28 2 0 0 0
Dr 0 0 0
At SMD N 00888000
Ne 0 ""
Po 2 3
$EndPAD
$PAD
Sh "34" R 0.28 2 0 0 0
Dr 0 0 0
At SMD N 00888000
Ne 0 ""
Po 2.5 3
$EndPAD
$PAD
Sh "35" R 0.28 2 0 0 0
Dr 0 0 0
At SMD N 00888000
Ne 0 ""
Po 3 3
$EndPAD
$PAD
Sh "36" R 0.28 2 0 0 0
Dr 0 0 0
At SMD N 00888000
Ne 0 ""
Po 3.5 3
$EndPAD
$PAD
Sh "37" R 0.28 2 0 0 0
Dr 0 0 0
At SMD N 00888000
Ne 0 ""
Po 4 3
$EndPAD
$PAD
Sh "38" R 0.28 2 0 0 0
Dr 0 0 0
At SMD N 00888000
Ne 0 ""
Po 4.5 3
$EndPAD
$EndMODULE tssop38
$MODULE vcxo-6pin
Po 0 0 0 15 5BF4247C 00000000 ~~
Li vcxo-6pin
Sc 0
AR 
Op 0 0 0
T0 -5.1 0 0.7 0.7 900 0.14 N V 21 N "vcxo-6pin"
T1 4.6 0 0.7 0.7 900 0.14 N V 21 N "VAL**"
DS -4.3 0.9 -4.3 3.2 0.3 21
DS -4.3 3.2 -2 3.2 0.3 21
DS 3.8 -2.7 3.8 2.7 0.15 21
DS 3.8 2.7 -3.8 2.7 0.15 21
DS -3.8 2.7 -3.8 -2.7 0.15 21
DS -3.8 -2.7 3.8 -2.7 0.15 21
$PAD
Sh "1" R 1.8 2.2 0 0 0
Dr 0 0 0
At SMD N 00888000
Ne 0 ""
Po -2.54 2.2
$EndPAD
$PAD
Sh "2" R 1.8 2.2 0 0 0
Dr 0 0 0
At SMD N 00888000
Ne 0 ""
Po 0 2.2
$EndPAD
$PAD
Sh "3" R 1.8 2.2 0 0 0
Dr 0 0 0
At SMD N 00888000
Ne 0 ""
Po 2.54 2.2
$EndPAD
$PAD
Sh "4" R 1.8 2.2 0 0 0
Dr 0 0 0
At SMD N 00888000
Ne 0 ""
Po 2.54 -2.2
$EndPAD
$PAD
Sh "5" R 1.8 2.2 0 0 0
Dr 0 0 0
At SMD N 00888000
Ne 0 ""
Po 0 -2.2
$EndPAD
$PAD
Sh "6" R 1.8 2.2 0 0 0
Dr 0 0 0
At SMD N 00888000
Ne 0 ""
Po -2.54 -2.2
$EndPAD
$EndMODULE vcxo-6pin
$MODULE wson-6
Po 0 0 0 15 5A264FF7 00000000 ~~
Li wson-6
Sc 0
AR 
Op 0 0 0
T0 -0.127 -2.794 1 1 0 0.15 N V 21 N "wson-6"
T1 0.381 2.54 1 1 0 0.15 N V 21 N "VAL**"
DS -1 -2 -2 -2 0.15 21
DS -2 -2 -2 -1 0.15 21
DS -1.6 -1.6 1.6 -1.6 0.1 21
DS 1.6 -1.6 1.6 1.6 0.1 21
DS 1.6 1.6 -1.6 1.6 0.1 21
DS -1.6 1.6 -1.6 -1.6 0.1 21
$PAD
Sh "1" R 0.6 0.4 0 0 0
Dr 0 0 0
At SMD N 00888000
Ne 0 ""
Po -1.4 -1
$EndPAD
$PAD
Sh "2" R 0.6 0.4 0 0 0
Dr 0 0 0
At SMD N 00888000
Ne 0 ""
Po -1.4 0
$EndPAD
$PAD
Sh "3" R 0.6 0.4 0 0 0
Dr 0 0 0
At SMD N 00888000
Ne 0 ""
Po -1.4 1
$EndPAD
$PAD
Sh "4" R 0.6 0.4 0 0 0
Dr 0 0 0
At SMD N 00888000
Ne 0 ""
Po 1.4 1
$EndPAD
$PAD
Sh "5" R 0.6 0.4 0 0 0
Dr 0 0 0
At SMD N 00888000
Ne 0 ""
Po 1.4 0
$EndPAD
$PAD
Sh "6" R 0.6 0.4 0 0 0
Dr 0 0 0
At SMD N 00888000
Ne 0 ""
Po 1.4 -1
$EndPAD
$PAD
Sh "7" R 1.4 2.2 0 0 0
Dr 0 0 0
At SMD N 00888000
Ne 0 ""
Po 0 0
$EndPAD
$EndMODULE wson-6
$EndLIBRARY
