EESchema Schematic File Version 2
LIBS:rubi-conn
LIBS:rubi-cpu
LIBS:rubi-discrete
LIBS:rubi-ic
LIBS:rubi-sensors
LIBS:rubi-modules
LIBS:power
LIBS:device
LIBS:transistors
LIBS:conn
LIBS:linear
LIBS:regul
LIBS:tdc-cache
EELAYER 27 0
EELAYER END
$Descr A4 11693 8268
encoding utf-8
Sheet 1 2
Title ""
Date "7 mar 2021"
Rev ""
Comp ""
Comment1 ""
Comment2 ""
Comment3 ""
Comment4 ""
$EndDescr
$Comp
L GND #PWR01
U 1 1 5BF3EE68
P 2650 3875
F 0 "#PWR01" H 2650 3875 30  0001 C CNN
F 1 "GND" H 2650 3805 30  0001 C CNN
F 2 "" H 2650 3875 60  0000 C CNN
F 3 "" H 2650 3875 60  0000 C CNN
	1    2650 3875
	1    0    0    -1  
$EndComp
$Comp
L R-SMALL R6
U 1 1 5BF3EE6E
P 4250 2900
F 0 "R6" H 4150 3000 60  0000 C CNN
F 1 "33" H 4250 2900 40  0000 C CNN
F 2 "~" H 4250 2900 60  0000 C CNN
F 3 "~" H 4250 2900 60  0000 C CNN
	1    4250 2900
	1    0    0    -1  
$EndComp
$Comp
L R-SMALL R7
U 1 1 5BF3EE74
P 4250 3100
F 0 "R7" H 4150 3200 60  0000 C CNN
F 1 "33" H 4250 3100 40  0000 C CNN
F 2 "~" H 4250 3100 60  0000 C CNN
F 3 "~" H 4250 3100 60  0000 C CNN
	1    4250 3100
	1    0    0    -1  
$EndComp
Text Label 1200 1150 0    40   ~ 0
RST*
Text Label 1200 1550 0    40   ~ 0
SCL
Text Label 1200 1650 0    40   ~ 0
SDA
Text Label 3950 1750 0    40   ~ 0
MISO
Text Label 3950 1850 0    40   ~ 0
MOSI
NoConn ~ 4825 3550
$Comp
L CSMALL C1
U 1 1 5BF3EE81
P 4625 1025
F 0 "C1" H 4650 1075 30  0000 L CNN
F 1 "100n" H 4650 975 30  0000 L CNN
F 2 "~" H 4625 1025 60  0000 C CNN
F 3 "~" H 4625 1025 60  0000 C CNN
	1    4625 1025
	1    0    0    -1  
$EndComp
$Comp
L CSMALL C2
U 1 1 5BF3EE87
P 4825 1025
F 0 "C2" H 4850 1075 30  0000 L CNN
F 1 "100n" H 4850 975 30  0000 L CNN
F 2 "~" H 4825 1025 60  0000 C CNN
F 3 "~" H 4825 1025 60  0000 C CNN
	1    4825 1025
	1    0    0    -1  
$EndComp
$Comp
L GND #PWR02
U 1 1 5BF3EE8D
P 4625 1125
F 0 "#PWR02" H 4625 1125 30  0001 C CNN
F 1 "GND" H 4625 1055 30  0001 C CNN
F 2 "" H 4625 1125 60  0000 C CNN
F 3 "" H 4625 1125 60  0000 C CNN
	1    4625 1125
	1    0    0    -1  
$EndComp
$Comp
L GND #PWR03
U 1 1 5BF3EE93
P 4825 1125
F 0 "#PWR03" H 4825 1125 30  0001 C CNN
F 1 "GND" H 4825 1055 30  0001 C CNN
F 2 "" H 4825 1125 60  0000 C CNN
F 3 "" H 4825 1125 60  0000 C CNN
	1    4825 1125
	1    0    0    -1  
$EndComp
NoConn ~ 3850 1950
NoConn ~ 3850 3450
$Comp
L 3906 Q1
U 1 1 5BF3EE9B
P 5100 2300
F 0 "Q1" H 5150 2300 60  0000 C CNN
F 1 "DTA114" H 4925 2475 60  0000 C CNN
F 2 "~" H 5100 2500 60  0000 C CNN
F 3 "~" H 5100 2500 60  0000 C CNN
	1    5100 2300
	1    0    0    -1  
$EndComp
Text Label 4800 2300 0    40   ~ 0
USBC*
$Comp
L R-SMALL R5
U 1 1 5BF3EEA2
P 5150 2600
F 0 "R5" V 5225 2750 60  0000 C CNN
F 1 "1k5" H 5150 2600 40  0000 C CNN
F 2 "~" H 5150 2600 60  0000 C CNN
F 3 "~" H 5150 2600 60  0000 C CNN
	1    5150 2600
	0    -1   -1   0   
$EndComp
Text Label 1200 1750 0    40   ~ 0
USBC*
Text Label 1200 1250 0    40   ~ 0
PRG*
Text Label 4500 2900 0    40   ~ 0
DP
Text Label 4500 3100 0    40   ~ 0
DM
$Comp
L +3.3V #PWR04
U 1 1 5BF3EEAC
P 5150 2000
F 0 "#PWR04" H 5150 1960 30  0001 C CNN
F 1 "+3.3V" H 5150 2110 30  0000 C CNN
F 2 "" H 5150 2000 60  0001 C CNN
F 3 "" H 5150 2000 60  0001 C CNN
	1    5150 2000
	1    0    0    -1  
$EndComp
$Comp
L +3.3V #PWR05
U 1 1 5BF3EEB2
P 2650 800
F 0 "#PWR05" H 2650 760 30  0001 C CNN
F 1 "+3.3V" H 2650 910 30  0000 C CNN
F 2 "" H 2650 800 60  0001 C CNN
F 3 "" H 2650 800 60  0001 C CNN
	1    2650 800 
	1    0    0    -1  
$EndComp
$Comp
L R-SMALL R4
U 1 1 5BF3EEB8
P 950 1650
F 0 "R4" H 900 1550 60  0000 C CNN
F 1 "1k5" H 950 1650 40  0000 C CNN
F 2 "~" H 950 1650 60  0000 C CNN
F 3 "~" H 950 1650 60  0000 C CNN
	1    950  1650
	1    0    0    -1  
$EndComp
$Comp
L R-SMALL R3
U 1 1 5BF3EEBE
P 950 1550
F 0 "R3" H 875 1700 60  0000 C CNN
F 1 "1k5" H 950 1550 40  0000 C CNN
F 2 "~" H 950 1550 60  0000 C CNN
F 3 "~" H 950 1550 60  0000 C CNN
	1    950  1550
	1    0    0    -1  
$EndComp
$Comp
L +3.3V #PWR06
U 1 1 5BF3EEC4
P 700 1525
F 0 "#PWR06" H 700 1485 30  0001 C CNN
F 1 "+3.3V" H 700 1635 30  0000 C CNN
F 2 "" H 700 1525 60  0001 C CNN
F 3 "" H 700 1525 60  0001 C CNN
	1    700  1525
	1    0    0    -1  
$EndComp
$Comp
L +3.3V #PWR07
U 1 1 5BF3EECA
P 4225 3425
F 0 "#PWR07" H 4225 3385 30  0001 C CNN
F 1 "+3.3V" H 4225 3535 30  0000 C CNN
F 2 "" H 4225 3425 60  0001 C CNN
F 3 "" H 4225 3425 60  0001 C CNN
	1    4225 3425
	-1   0    0    -1  
$EndComp
Text Label 1200 1850 0    40   ~ 0
DIAG1
Text Label 3925 2450 0    40   ~ 0
DIAG2
Text Label 1200 3050 0    40   ~ 0
TXD
Text Label 1200 2950 0    40   ~ 0
RXD
NoConn ~ 3850 2550
Wire Wire Line
	2550 950  2550 875 
Wire Wire Line
	2750 875  2750 950 
Wire Wire Line
	2550 875  4825 875 
Connection ~ 2650 875 
Wire Wire Line
	2550 3750 2550 3800
Wire Wire Line
	2550 3800 2750 3800
Wire Wire Line
	2750 3800 2750 3750
Connection ~ 2650 3800
Wire Wire Line
	3950 2950 3850 2950
Wire Wire Line
	3950 2750 3950 2950
Wire Wire Line
	3950 2900 4100 2900
Wire Wire Line
	3850 3050 3950 3050
Wire Wire Line
	3950 3050 3950 3100
Wire Wire Line
	3950 3100 4100 3100
Wire Wire Line
	4400 2900 4600 2900
Wire Wire Line
	4400 3100 4600 3100
Wire Wire Line
	3850 1750 4200 1750
Wire Wire Line
	3850 1850 4200 1850
Wire Wire Line
	1100 2150 1450 2150
Wire Wire Line
	1100 1550 1450 1550
Wire Wire Line
	1100 1650 1450 1650
Wire Wire Line
	3850 3350 3950 3350
Wire Wire Line
	4625 925  4625 875 
Wire Wire Line
	4825 875  4825 925 
Wire Wire Line
	5150 2150 5150 2000
Wire Wire Line
	1450 1750 1100 1750
Wire Wire Line
	5150 2750 3950 2750
Connection ~ 3950 2900
Wire Wire Line
	1100 1150 1450 1150
Wire Wire Line
	1100 1250 1450 1250
Wire Wire Line
	2650 3800 2650 3875
Wire Wire Line
	2650 800  2650 875 
Wire Wire Line
	800  1550 800  1650
Wire Wire Line
	700  1600 800  1600
Wire Wire Line
	700  1525 700  1600
Connection ~ 800  1600
Wire Wire Line
	1450 1850 1100 1850
Wire Wire Line
	4175 2450 3850 2450
Wire Wire Line
	1100 3050 1450 3050
Wire Wire Line
	1100 2950 1450 2950
Wire Wire Line
	1100 1450 1450 1450
Text Label 1200 1450 0    40   ~ 0
Vbus
$Comp
L OSC-4PIN U2
U 1 1 5BF3EF12
P 4525 3800
F 0 "U2" H 4375 4200 60  0000 C CNN
F 1 "12MHz" H 4525 3400 60  0000 C CNN
F 2 "~" H 4525 3800 60  0000 C CNN
F 3 "~" H 4525 3800 60  0000 C CNN
	1    4525 3800
	-1   0    0    -1  
$EndComp
Wire Wire Line
	4225 3425 4225 3550
Wire Wire Line
	4225 4000 3950 4000
Wire Wire Line
	3950 4000 3950 3350
Wire Wire Line
	4825 4000 4925 4000
Wire Wire Line
	4925 4000 4925 4150
$Comp
L GND #PWR08
U 1 1 5BF3EF1D
P 4925 4150
F 0 "#PWR08" H 4925 4150 30  0001 C CNN
F 1 "GND" H 4925 4080 30  0001 C CNN
F 2 "" H 4925 4150 60  0000 C CNN
F 3 "" H 4925 4150 60  0000 C CNN
	1    4925 4150
	1    0    0    -1  
$EndComp
NoConn ~ 3850 1350
Wire Wire Line
	4750 2300 5000 2300
$Comp
L USB-MINI-B J9
U 1 1 5BF3EF2B
P 10275 1575
F 0 "J9" H 10025 2025 60  0000 C CNN
F 1 "USB-MINI-B" H 10225 2150 60  0000 C CNN
F 2 "" H 10275 1575 60  0000 C CNN
F 3 "" H 10275 1575 60  0000 C CNN
	1    10275 1575
	1    0    0    -1  
$EndComp
$Comp
L UEXT J7
U 1 1 5BF3EFEA
P 10275 4175
F 0 "J7" H 10275 3875 60  0000 C CNN
F 1 "UEXT" H 10275 4525 60  0000 C CNN
F 2 "~" H 10275 4175 60  0000 C CNN
F 3 "~" H 10275 4175 60  0000 C CNN
	1    10275 4175
	1    0    0    -1  
$EndComp
Wire Wire Line
	9300 1275 9725 1275
Wire Wire Line
	9500 1425 9725 1425
Wire Wire Line
	9500 1575 9725 1575
Text Label 9575 1575 0    40   ~ 0
DP
Text Label 9575 1425 0    40   ~ 0
DM
NoConn ~ 9725 1725
Wire Wire Line
	9725 1875 9400 1875
Wire Wire Line
	9400 1425 9400 1975
$Comp
L GND #PWR09
U 1 1 5BF3F00C
P 9400 1975
F 0 "#PWR09" H 9400 1975 30  0001 C CNN
F 1 "GND" H 9400 1905 30  0001 C CNN
F 2 "" H 9400 1975 60  0000 C CNN
F 3 "" H 9400 1975 60  0000 C CNN
	1    9400 1975
	1    0    0    -1  
$EndComp
$Comp
L 78L05 U4
U 1 1 5BF3F012
P 9150 2800
F 0 "U4" H 9150 2450 60  0000 C CNN
F 1 "78L05" H 9150 3100 60  0000 C CNN
F 2 "~" H 9150 2800 60  0000 C CNN
F 3 "~" H 9150 2800 60  0000 C CNN
	1    9150 2800
	1    0    0    -1  
$EndComp
$Comp
L R-SMALL R8
U 1 1 5BF3F018
P 9150 1275
F 0 "R8" H 9050 1375 60  0000 C CNN
F 1 "4k7" H 9150 1275 40  0000 C CNN
F 2 "~" H 9150 1275 60  0000 C CNN
F 3 "~" H 9150 1275 60  0000 C CNN
	1    9150 1275
	1    0    0    -1  
$EndComp
$Comp
L R-SMALL R9
U 1 1 5BF3F01E
P 9150 1425
F 0 "R9" H 9050 1300 60  0000 C CNN
F 1 "10k" H 9150 1425 40  0000 C CNN
F 2 "~" H 9150 1425 60  0000 C CNN
F 3 "~" H 9150 1425 60  0000 C CNN
	1    9150 1425
	1    0    0    -1  
$EndComp
Wire Wire Line
	9000 1275 8925 1275
Wire Wire Line
	8925 1275 8925 1425
Wire Wire Line
	8925 1425 9000 1425
Wire Wire Line
	8575 1350 8925 1350
Connection ~ 8925 1350
Text Label 8675 1350 0    40   ~ 0
Vbus
Wire Wire Line
	9300 1425 9400 1425
Connection ~ 9400 1875
Connection ~ 9550 1275
$Comp
L CONN-3.5MM J4
U 1 1 5BF3F03C
P 10800 2800
F 0 "J4" H 11000 2800 60  0000 C CNN
F 1 "CONN-3.5MM" H 10800 2650 24  0000 C CNN
F 2 "conn-3.5mm" H 10800 2600 20  0001 C CNN
F 3 "~" H 10800 2800 60  0000 C CNN
	1    10800 2800
	1    0    0    1   
$EndComp
Wire Wire Line
	8800 2750 8700 2750
Wire Wire Line
	8700 2750 8700 3275
Wire Wire Line
	8800 2850 8700 2850
Connection ~ 8700 2850
Wire Wire Line
	9500 2750 9625 2750
Wire Wire Line
	9625 3200 8700 3200
$Comp
L GND #PWR010
U 1 1 5BF3F048
P 8700 3275
F 0 "#PWR010" H 8700 3275 30  0001 C CNN
F 1 "GND" H 8700 3205 30  0001 C CNN
F 2 "" H 8700 3275 60  0000 C CNN
F 3 "" H 8700 3275 60  0000 C CNN
	1    8700 3275
	1    0    0    -1  
$EndComp
Connection ~ 8700 3200
Wire Wire Line
	9500 2850 9625 2850
Wire Wire Line
	9625 2750 9625 3200
Connection ~ 9625 2850
Wire Wire Line
	10100 2850 10600 2850
Wire Wire Line
	10100 2850 10100 3200
$Comp
L GND #PWR011
U 1 1 5BF3F054
P 10100 3200
F 0 "#PWR011" H 10100 3200 30  0001 C CNN
F 1 "GND" H 10100 3130 30  0001 C CNN
F 2 "" H 10100 3200 60  0000 C CNN
F 3 "" H 10100 3200 60  0000 C CNN
	1    10100 3200
	1    0    0    -1  
$EndComp
Wire Wire Line
	9500 2650 10100 2650
Wire Wire Line
	10100 2650 10100 2750
Wire Wire Line
	10100 2750 10600 2750
Wire Wire Line
	8700 2650 8700 2525
Wire Notes Line
	11150 600  8500 600 
Wire Notes Line
	8500 600  8500 2250
Wire Notes Line
	8500 2250 11150 2250
Wire Notes Line
	11150 2250 11150 600 
Wire Notes Line
	8500 2350 8500 3475
Wire Notes Line
	8500 3475 11150 3475
Wire Notes Line
	11150 3475 11150 2350
Wire Notes Line
	11150 2350 8500 2350
Wire Wire Line
	10825 1275 10875 1275
Wire Wire Line
	10875 1275 10875 1875
Wire Wire Line
	10875 1875 10825 1875
Wire Wire Line
	10825 1725 10875 1725
Connection ~ 10875 1725
Wire Wire Line
	10825 1425 10875 1425
Connection ~ 10875 1425
Text Notes 10350 2175 0    60   ~ 12
USB and supply
Text Notes 10350 3400 0    60   ~ 12
Optional supply
Wire Wire Line
	10500 3925 10375 3925
Wire Wire Line
	10500 3825 10500 3925
$Comp
L +3.3V #PWR012
U 1 1 5BF3F086
P 10500 3825
F 0 "#PWR012" H 10500 3785 30  0001 C CNN
F 1 "+3.3V" H 10500 3935 30  0000 C CNN
F 2 "" H 10500 3825 60  0000 C CNN
F 3 "" H 10500 3825 60  0000 C CNN
	1    10500 3825
	1    0    0    -1  
$EndComp
Wire Wire Line
	10375 3975 10500 3975
Wire Wire Line
	10500 3975 10500 4425
$Comp
L GND #PWR013
U 1 1 5BF3F08E
P 10500 4425
F 0 "#PWR013" H 10500 4425 30  0001 C CNN
F 1 "GND" H 10500 4355 30  0001 C CNN
F 2 "" H 10500 4425 60  0000 C CNN
F 3 "" H 10500 4425 60  0000 C CNN
	1    10500 4425
	1    0    0    -1  
$EndComp
Wire Wire Line
	10375 4025 10600 4025
Wire Wire Line
	10375 4075 10675 4075
Wire Wire Line
	10375 4125 10825 4125
Wire Wire Line
	10375 4175 11025 4175
Text Label 10700 4125 0    40   ~ 0
SCL
Text Label 10875 4175 0    40   ~ 0
SDA
$Comp
L AP2111H U3
U 1 1 5BF3F0A6
P 7975 1125
F 0 "U3" H 7975 1275 60  0000 C CNN
F 1 "AP2111H" H 7975 1525 60  0000 C CNN
F 2 "~" H 7975 1125 60  0000 C CNN
F 3 "~" H 7975 1125 60  0000 C CNN
	1    7975 1125
	-1   0    0    -1  
$EndComp
$Comp
L GND #PWR014
U 1 1 5BF3F0AC
P 8175 1575
F 0 "#PWR014" H 8175 1575 30  0001 C CNN
F 1 "GND" H 8175 1505 30  0001 C CNN
F 2 "" H 8175 1575 60  0000 C CNN
F 3 "" H 8175 1575 60  0000 C CNN
	1    8175 1575
	-1   0    0    -1  
$EndComp
$Comp
L C C4
U 1 1 5BF3F0B8
P 7675 1875
F 0 "C4" H 7675 1975 40  0000 L CNN
F 1 "22uF" H 7681 1790 40  0000 L CNN
F 2 "~" H 7713 1725 30  0000 C CNN
F 3 "~" H 7675 1875 60  0000 C CNN
	1    7675 1875
	-1   0    0    -1  
$EndComp
$Comp
L GND #PWR015
U 1 1 5BF3F0BE
P 7675 2075
F 0 "#PWR015" H 7675 2075 30  0001 C CNN
F 1 "GND" H 7675 2005 30  0001 C CNN
F 2 "" H 7675 2075 60  0000 C CNN
F 3 "" H 7675 2075 60  0000 C CNN
	1    7675 2075
	-1   0    0    -1  
$EndComp
$Comp
L C C3
U 1 1 5BF3F0C4
P 7400 1750
F 0 "C3" H 7400 1850 40  0000 L CNN
F 1 "22uF" H 7406 1665 40  0000 L CNN
F 2 "~" H 7438 1600 30  0000 C CNN
F 3 "~" H 7400 1750 60  0000 C CNN
	1    7400 1750
	-1   0    0    -1  
$EndComp
$Comp
L GND #PWR016
U 1 1 5BF3F0CA
P 7400 1950
F 0 "#PWR016" H 7400 1950 30  0001 C CNN
F 1 "GND" H 7400 1880 30  0001 C CNN
F 2 "" H 7400 1950 60  0000 C CNN
F 3 "" H 7400 1950 60  0000 C CNN
	1    7400 1950
	-1   0    0    -1  
$EndComp
$Comp
L +3.3V #PWR017
U 1 1 5BF3F0D0
P 8175 1950
F 0 "#PWR017" H 8175 1910 30  0001 C CNN
F 1 "+3.3V" H 8175 2060 30  0000 C CNN
F 2 "" H 8175 1950 60  0001 C CNN
F 3 "" H 8175 1950 60  0001 C CNN
	1    8175 1950
	1    0    0    -1  
$EndComp
Text Notes 7175 2375 0    60   ~ 12
3.3V Regulator
$Comp
L +5V #PWR018
U 1 1 5BF3F0D7
P 7400 1450
F 0 "#PWR018" H 7400 1540 20  0001 C CNN
F 1 "+5V" H 7400 1540 30  0000 C CNN
F 2 "" H 7400 1450 60  0000 C CNN
F 3 "" H 7400 1450 60  0000 C CNN
	1    7400 1450
	1    0    0    -1  
$EndComp
Wire Wire Line
	7775 1475 7775 1375
Wire Wire Line
	7400 1475 7775 1475
Wire Wire Line
	7525 1275 7525 1475
Connection ~ 7525 1475
Wire Wire Line
	7975 1675 7675 1675
Connection ~ 7975 1675
Wire Wire Line
	8175 2050 8175 1950
Wire Wire Line
	8175 1375 8175 1575
Wire Notes Line
	7100 600  8425 600 
Wire Notes Line
	8425 2450 7100 2450
Wire Wire Line
	7400 1450 7400 1550
Wire Wire Line
	7975 2050 8175 2050
Wire Wire Line
	7975 1375 7975 2050
Wire Notes Line
	7100 2450 7100 600 
Wire Notes Line
	8425 600  8425 2450
Wire Wire Line
	7525 825  7525 975 
$Comp
L LED D3
U 1 1 5BF3F12F
P 1575 5625
F 0 "D3" H 1975 5625 50  0000 C CNN
F 1 "green" H 1575 5525 50  0000 C CNN
F 2 "~" H 1575 5625 60  0000 C CNN
F 3 "~" H 1575 5625 60  0000 C CNN
	1    1575 5625
	1    0    0    -1  
$EndComp
$Comp
L LED D4
U 1 1 5BF3F135
P 1575 5850
F 0 "D4" H 1975 5850 50  0000 C CNN
F 1 "orange" H 1575 5750 50  0000 C CNN
F 2 "~" H 1575 5850 60  0000 C CNN
F 3 "~" H 1575 5850 60  0000 C CNN
	1    1575 5850
	1    0    0    -1  
$EndComp
$Comp
L R-SMALL R12
U 1 1 5BF3F13B
P 1200 5625
F 0 "R12" H 1100 5725 60  0000 C CNN
F 1 "470" H 1200 5625 40  0000 C CNN
F 2 "~" H 1200 5625 60  0000 C CNN
F 3 "~" H 1200 5625 60  0000 C CNN
	1    1200 5625
	1    0    0    -1  
$EndComp
$Comp
L R-SMALL R13
U 1 1 5BF3F141
P 1200 5850
F 0 "R13" H 1100 5950 60  0000 C CNN
F 1 "470" H 1200 5850 40  0000 C CNN
F 2 "~" H 1200 5850 60  0000 C CNN
F 3 "~" H 1200 5850 60  0000 C CNN
	1    1200 5850
	1    0    0    -1  
$EndComp
Wire Wire Line
	1875 5850 1775 5850
Connection ~ 1875 5850
Wire Wire Line
	1050 5625 775  5625
Text Label 825  5625 0    40   ~ 0
DIAG2
Wire Wire Line
	1050 5850 775  5850
Text Label 825  5850 0    40   ~ 0
DIAG3
Wire Wire Line
	1375 5625 1350 5625
Wire Wire Line
	1350 5850 1375 5850
Text Notes 800  6375 0    60   ~ 12
Misc-out
Wire Wire Line
	1775 5625 1875 5625
Wire Wire Line
	1875 5400 1875 6175
Wire Notes Line
	575  5175 2125 5175
Wire Notes Line
	2125 5175 2125 6475
Wire Notes Line
	2125 6475 575  6475
Wire Notes Line
	575  6475 575  5175
Wire Notes Line
	9800 3550 11125 3550
Wire Notes Line
	9800 4825 11125 4825
$Comp
L HOLE-3MM H1
U 1 1 5BF3F259
P 750 4625
F 0 "H1" H 950 4475 60  0000 C CNN
F 1 "3mm" H 750 4825 60  0000 C CNN
F 2 "~" H 750 4625 60  0000 C CNN
F 3 "~" H 750 4625 60  0000 C CNN
	1    750  4625
	1    0    0    -1  
$EndComp
$Comp
L HOLE-3MM H2
U 1 1 5BF3F25F
P 1200 4625
F 0 "H2" H 1400 4475 60  0000 C CNN
F 1 "3mm" H 1200 4825 60  0000 C CNN
F 2 "~" H 1200 4625 60  0000 C CNN
F 3 "~" H 1200 4625 60  0000 C CNN
	1    1200 4625
	1    0    0    -1  
$EndComp
$Comp
L HOLE-3MM H3
U 1 1 5BF3F265
P 1650 4625
F 0 "H3" H 1850 4475 60  0000 C CNN
F 1 "3mm" H 1650 4825 60  0000 C CNN
F 2 "~" H 1650 4625 60  0000 C CNN
F 3 "~" H 1650 4625 60  0000 C CNN
	1    1650 4625
	1    0    0    -1  
$EndComp
$Comp
L HOLE-3MM H4
U 1 1 5BF3F26B
P 2075 4625
F 0 "H4" H 2275 4475 60  0000 C CNN
F 1 "3mm" H 2075 4825 60  0000 C CNN
F 2 "~" H 2075 4625 60  0000 C CNN
F 3 "~" H 2075 4625 60  0000 C CNN
	1    2075 4625
	1    0    0    -1  
$EndComp
Wire Wire Line
	750  4875 750  4625
Wire Wire Line
	750  4875 2075 4875
Wire Wire Line
	2075 4625 2075 4925
$Comp
L GND #PWR019
U 1 1 5BF3F274
P 2075 4925
F 0 "#PWR019" H 2075 4925 30  0001 C CNN
F 1 "GND" H 2075 4855 30  0001 C CNN
F 2 "" H 2075 4925 60  0000 C CNN
F 3 "" H 2075 4925 60  0000 C CNN
	1    2075 4925
	1    0    0    -1  
$EndComp
Wire Wire Line
	1200 4625 1200 4875
Connection ~ 1200 4875
Wire Wire Line
	1650 4625 1650 4875
Connection ~ 1650 4875
Connection ~ 2075 4875
Text Notes 10775 4750 0    60   ~ 12
UEXT\n
$Comp
L R-SMALL R2
U 1 1 5BF3F292
P 950 1250
F 0 "R2" H 900 1150 60  0000 C CNN
F 1 "1k5" H 950 1250 40  0000 C CNN
F 2 "~" H 950 1250 60  0000 C CNN
F 3 "~" H 950 1250 60  0000 C CNN
	1    950  1250
	1    0    0    -1  
$EndComp
$Comp
L R-SMALL R1
U 1 1 5BF3F298
P 950 1150
F 0 "R1" H 875 1300 60  0000 C CNN
F 1 "1k5" H 950 1150 40  0000 C CNN
F 2 "~" H 950 1150 60  0000 C CNN
F 3 "~" H 950 1150 60  0000 C CNN
	1    950  1150
	1    0    0    -1  
$EndComp
$Comp
L +3.3V #PWR020
U 1 1 5BF3F29E
P 700 1125
F 0 "#PWR020" H 700 1085 30  0001 C CNN
F 1 "+3.3V" H 700 1235 30  0000 C CNN
F 2 "" H 700 1125 60  0001 C CNN
F 3 "" H 700 1125 60  0001 C CNN
	1    700  1125
	1    0    0    -1  
$EndComp
Wire Wire Line
	800  1150 800  1250
Wire Wire Line
	700  1200 800  1200
Wire Wire Line
	700  1125 700  1200
Connection ~ 800  1200
$Comp
L STRIP-3 J1
U 1 1 5BF3F2A8
P 1275 750
F 0 "J1" H 1025 750 60  0000 C CNN
F 1 "STRIP-3" H 1275 850 60  0000 C CNN
F 2 "~" H 1225 750 60  0000 C CNN
F 3 "~" H 1225 750 60  0000 C CNN
	1    1275 750 
	1    0    0    -1  
$EndComp
Wire Wire Line
	1275 800  1275 850 
$Comp
L GND #PWR021
U 1 1 5BF3F2AF
P 1275 850
F 0 "#PWR021" H 1275 850 30  0001 C CNN
F 1 "GND" H 1275 780 30  0001 C CNN
F 2 "" H 1275 850 60  0000 C CNN
F 3 "" H 1275 850 60  0000 C CNN
	1    1275 850 
	1    0    0    -1  
$EndComp
Wire Wire Line
	1175 800  1175 1150
Connection ~ 1175 1150
Wire Wire Line
	1375 800  1375 1250
Connection ~ 1375 1250
Wire Wire Line
	10375 4225 10600 4225
Wire Wire Line
	10375 4275 10775 4275
Wire Wire Line
	10375 4325 10925 4325
Wire Wire Line
	10375 4375 10725 4375
Text Label 10525 4225 0    40   ~ 0
MISO
Text Label 10650 4275 0    40   ~ 0
MOSI
Text Label 10800 4325 0    40   ~ 0
SCK
Text Label 10575 4375 0    40   ~ 0
SSEL
$Comp
L FLAT20 J3
U 1 1 5BF3F2C1
P 6525 1625
F 0 "J3" H 6525 1050 60  0000 C CNN
F 1 "JTAG" H 6525 2300 60  0000 C CNN
F 2 "~" H 6525 1975 60  0000 C CNN
F 3 "~" H 6525 1975 60  0000 C CNN
	1    6525 1625
	1    0    0    -1  
$EndComp
Wire Wire Line
	6325 1175 6325 1025
Wire Wire Line
	6325 1025 6725 1025
Wire Wire Line
	6725 900  6725 1175
Connection ~ 6725 1025
$Comp
L +3.3V #PWR022
U 1 1 5BF3F2CB
P 6725 900
F 0 "#PWR022" H 6725 860 30  0001 C CNN
F 1 "+3.3V" H 6725 1010 30  0000 C CNN
F 2 "" H 6725 900 60  0000 C CNN
F 3 "" H 6725 900 60  0000 C CNN
	1    6725 900 
	1    0    0    -1  
$EndComp
Wire Wire Line
	6725 1275 6825 1275
Wire Wire Line
	6825 1275 6825 2150
$Comp
L GND #PWR023
U 1 1 5BF3F2D3
P 6825 2150
F 0 "#PWR023" H 6825 2150 30  0001 C CNN
F 1 "GND" H 6825 2080 30  0001 C CNN
F 2 "" H 6825 2150 60  0000 C CNN
F 3 "" H 6825 2150 60  0000 C CNN
	1    6825 2150
	1    0    0    -1  
$EndComp
Wire Wire Line
	6825 2075 6725 2075
Connection ~ 6825 2075
Wire Wire Line
	6725 1975 6825 1975
Connection ~ 6825 1975
Wire Wire Line
	6825 1875 6725 1875
Connection ~ 6825 1875
Wire Wire Line
	6725 1775 6825 1775
Connection ~ 6825 1775
Wire Wire Line
	6825 1675 6725 1675
Connection ~ 6825 1675
Wire Wire Line
	6725 1575 6825 1575
Connection ~ 6825 1575
Wire Wire Line
	6825 1475 6725 1475
Connection ~ 6825 1475
Wire Wire Line
	6725 1375 6825 1375
Connection ~ 6825 1375
Wire Wire Line
	6100 1475 6325 1475
Text Label 6125 1275 0    40   ~ 0
TRST
Text Label 6125 1375 0    40   ~ 0
TDI
Text Label 6125 1475 0    40   ~ 0
TMS
Text Label 6125 1575 0    40   ~ 0
TCK
Text Label 6125 1775 0    40   ~ 0
TDO
NoConn ~ 6325 1675
NoConn ~ 6325 1975
NoConn ~ 6325 2075
Wire Wire Line
	725  2450 1450 2450
Wire Wire Line
	1100 2250 1450 2250
Wire Wire Line
	725  2350 1450 2350
Text Label 1200 2550 0    40   ~ 0
TRST
Text Label 1200 2450 0    40   ~ 0
TDO
Text Label 1200 2350 0    40   ~ 0
TMS
Text Label 1200 2250 0    40   ~ 0
TDI
Wire Wire Line
	6100 1275 6325 1275
Wire Wire Line
	6325 1375 6100 1375
Wire Wire Line
	6100 1575 6325 1575
Wire Wire Line
	6100 1775 6325 1775
Text Label 1200 2150 0    40   ~ 0
TCK
Wire Wire Line
	725  2650 1450 2650
Wire Notes Line
	7000 600  5850 600 
Wire Notes Line
	5850 600  5850 2450
Wire Notes Line
	5850 2450 7000 2450
Wire Notes Line
	7000 2450 7000 600 
Text Notes 5925 2375 0    60   ~ 12
JTAG
$Comp
L LPC11U24FBD48 U1
U 1 1 5BF3F328
P 2650 2450
F 0 "U1" H 1600 3900 50  0000 C CNN
F 1 "LPC11U24FBD48" H 1850 1230 50  0000 C CNN
F 2 "LQFP48" H 3600 1250 50  0000 C CNN
F 3 "~" H 2650 975 50  0001 C CNN
	1    2650 2450
	1    0    0    -1  
$EndComp
NoConn ~ 10600 4025
NoConn ~ 10675 4075
Text Label 1200 2850 0    40   ~ 0
SSEL
Wire Wire Line
	1100 2850 1450 2850
$Comp
L CSMALL C6
U 1 1 5BF3F35F
P 9825 2950
F 0 "C6" H 9850 3000 30  0000 L CNN
F 1 "22uF" H 9850 2900 30  0000 L CNN
F 2 "~" H 9825 2950 60  0000 C CNN
F 3 "~" H 9825 2950 60  0000 C CNN
	1    9825 2950
	1    0    0    -1  
$EndComp
Wire Wire Line
	9825 2850 9825 2650
Connection ~ 9825 2650
Wire Wire Line
	9825 3050 9825 3200
$Comp
L GND #PWR024
U 1 1 5BF3F368
P 9825 3200
F 0 "#PWR024" H 9825 3200 30  0001 C CNN
F 1 "GND" H 9825 3130 30  0001 C CNN
F 2 "" H 9825 3200 60  0000 C CNN
F 3 "" H 9825 3200 60  0000 C CNN
	1    9825 3200
	1    0    0    -1  
$EndComp
Wire Wire Line
	6100 1875 6325 1875
Text Label 6125 1875 0    40   ~ 0
RST*
Wire Wire Line
	725  2750 1450 2750
Wire Wire Line
	725  3150 1450 3150
Wire Wire Line
	725  3350 1450 3350
$Comp
L R-SMALL R10
U 1 1 5BF3F3DB
P 1050 6125
F 0 "R10" H 1150 6225 60  0000 C CNN
F 1 "1k5" H 1050 6125 40  0000 C CNN
F 2 "~" H 1050 6125 60  0000 C CNN
F 3 "~" H 1050 6125 60  0000 C CNN
	1    1050 6125
	1    0    0    -1  
$EndComp
$Comp
L LED D1
U 1 1 5BF3F3E1
P 1575 6125
F 0 "D1" H 1975 6125 50  0000 C CNN
F 1 "red" H 1575 6025 50  0000 C CNN
F 2 "~" H 1575 6125 60  0000 C CNN
F 3 "~" H 1575 6125 60  0000 C CNN
	1    1575 6125
	1    0    0    -1  
$EndComp
Wire Wire Line
	850  6125 900  6125
Wire Wire Line
	1200 6125 1375 6125
Wire Wire Line
	1875 6125 1775 6125
$Comp
L GND #PWR025
U 1 1 5BF3F3F2
P 1875 6175
F 0 "#PWR025" H 1875 6175 30  0001 C CNN
F 1 "GND" H 1875 6105 30  0001 C CNN
F 2 "" H 1875 6175 60  0000 C CNN
F 3 "" H 1875 6175 60  0000 C CNN
	1    1875 6175
	1    0    0    -1  
$EndComp
$Comp
L 24AA64F U6
U 1 1 5BF4039B
P 1225 7000
F 0 "U6" H 1225 6700 60  0000 C CNN
F 1 "24AA64F" H 1225 7250 60  0000 C CNN
F 2 "~" H 1225 7000 60  0000 C CNN
F 3 "~" H 1225 7000 60  0000 C CNN
	1    1225 7000
	1    0    0    -1  
$EndComp
Wire Wire Line
	875  6850 775  6850
Wire Wire Line
	775  6850 775  7225
$Comp
L GND #PWR026
U 1 1 5BF403A3
P 775 7225
F 0 "#PWR026" H 775 7225 30  0001 C CNN
F 1 "GND" H 775 7155 30  0001 C CNN
F 2 "" H 775 7225 60  0000 C CNN
F 3 "" H 775 7225 60  0000 C CNN
	1    775  7225
	1    0    0    -1  
$EndComp
Wire Wire Line
	875  6950 775  6950
Connection ~ 775  6950
Wire Wire Line
	875  7050 775  7050
Connection ~ 775  7050
Wire Wire Line
	875  7150 775  7150
Connection ~ 775  7150
Wire Wire Line
	1575 6950 1650 6950
Wire Wire Line
	1650 6950 1650 7225
$Comp
L GND #PWR027
U 1 1 5BF403B1
P 1650 7225
F 0 "#PWR027" H 1650 7225 30  0001 C CNN
F 1 "GND" H 1650 7155 30  0001 C CNN
F 2 "" H 1650 7225 60  0000 C CNN
F 3 "" H 1650 7225 60  0000 C CNN
	1    1650 7225
	1    0    0    -1  
$EndComp
Wire Wire Line
	1575 7050 1850 7050
Text Label 1725 7050 0    40   ~ 0
SCL
Wire Wire Line
	1575 7150 1850 7150
Text Label 1725 7150 0    40   ~ 0
SDA
Wire Wire Line
	1800 6850 1800 6775
$Comp
L +3.3V #PWR028
U 1 1 5BF403C4
P 1800 6775
F 0 "#PWR028" H 1800 6735 30  0001 C CNN
F 1 "+3.3V" H 1800 6885 30  0000 C CNN
F 2 "" H 1800 6775 60  0000 C CNN
F 3 "" H 1800 6775 60  0000 C CNN
	1    1800 6775
	1    0    0    -1  
$EndComp
Wire Notes Line
	575  6575 2125 6575
Wire Notes Line
	2125 6575 2125 7675
Wire Notes Line
	2125 7675 575  7675
Wire Notes Line
	575  7675 575  6575
Text Notes 700  7600 0    60   ~ 12
EEPROM, just in case
Wire Notes Line
	11125 4825 11125 3550
Wire Notes Line
	9800 3550 9800 4825
$Comp
L LED D2
U 1 1 5BF40917
P 1575 5400
F 0 "D2" H 1975 5400 50  0000 C CNN
F 1 "yellow" H 1575 5300 50  0000 C CNN
F 2 "~" H 1575 5400 60  0000 C CNN
F 3 "~" H 1575 5400 60  0000 C CNN
	1    1575 5400
	1    0    0    -1  
$EndComp
$Comp
L R-SMALL R11
U 1 1 5BF4091D
P 1200 5400
F 0 "R11" H 1100 5500 60  0000 C CNN
F 1 "470" H 1200 5400 40  0000 C CNN
F 2 "~" H 1200 5400 60  0000 C CNN
F 3 "~" H 1200 5400 60  0000 C CNN
	1    1200 5400
	1    0    0    -1  
$EndComp
Wire Wire Line
	1050 5400 775  5400
Text Label 825  5400 0    40   ~ 0
DIAG1
Wire Wire Line
	1375 5400 1350 5400
Wire Wire Line
	1775 5400 1875 5400
Connection ~ 1875 5625
Connection ~ 2750 875 
Connection ~ 4625 875 
$Comp
L FLAT10 J5
U 1 1 5BF40FC7
P 9150 4050
F 0 "J5" H 9150 3750 60  0000 C CNN
F 1 "TDC-in" H 9150 4350 60  0000 C CNN
F 2 "~" H 9150 4150 60  0000 C CNN
F 3 "~" H 9150 4150 60  0000 C CNN
	1    9150 4050
	1    0    0    -1  
$EndComp
Wire Wire Line
	8850 3850 8725 3850
Wire Wire Line
	8725 3850 8725 3750
$Comp
L +3.3V #PWR029
U 1 1 5BF410D3
P 8725 3750
F 0 "#PWR029" H 8725 3710 30  0001 C CNN
F 1 "+3.3V" H 8725 3860 30  0000 C CNN
F 2 "" H 8725 3750 60  0000 C CNN
F 3 "" H 8725 3750 60  0000 C CNN
	1    8725 3750
	1    0    0    -1  
$EndComp
$Comp
L GND #PWR030
U 1 1 5BF411E2
P 9600 3775
F 0 "#PWR030" H 9600 3775 30  0001 C CNN
F 1 "GND" H 9600 3705 30  0001 C CNN
F 2 "" H 9600 3775 60  0000 C CNN
F 3 "" H 9600 3775 60  0000 C CNN
	1    9600 3775
	1    0    0    -1  
$EndComp
Wire Wire Line
	8850 3950 8650 3950
Text Label 8675 3950 0    40   ~ 0
TDC0
Wire Wire Line
	8850 4050 8650 4050
Text Label 8675 4050 0    40   ~ 0
TDC2
Wire Wire Line
	8850 4150 8650 4150
Text Label 8675 4150 0    40   ~ 0
TDC4
Wire Wire Line
	8850 4250 8650 4250
Text Label 8675 4250 0    40   ~ 0
TDC6
Wire Wire Line
	9650 3950 9450 3950
Text Label 9475 3950 0    40   ~ 0
TDC1
Wire Wire Line
	9650 4050 9450 4050
Text Label 9475 4050 0    40   ~ 0
TDC3
Wire Wire Line
	9650 4150 9450 4150
Text Label 9475 4150 0    40   ~ 0
TDC5
Wire Wire Line
	9650 4250 9450 4250
Text Label 9475 4250 0    40   ~ 0
TDC7
$Comp
L STRIP-2 J6
U 1 1 5BF41310
P 8850 4475
F 0 "J6" H 8650 4475 60  0000 C CNN
F 1 "PPS-in" H 8850 4575 40  0000 C CNN
F 2 "~" H 8850 4475 60  0000 C CNN
F 3 "~" H 8850 4475 60  0000 C CNN
	1    8850 4475
	1    0    0    -1  
$EndComp
Wire Wire Line
	8800 4525 8800 4600
$Comp
L GND #PWR031
U 1 1 5BF41438
P 8800 4600
F 0 "#PWR031" H 8800 4600 30  0001 C CNN
F 1 "GND" H 8800 4530 30  0001 C CNN
F 2 "" H 8800 4600 60  0000 C CNN
F 3 "" H 8800 4600 60  0000 C CNN
	1    8800 4600
	1    0    0    -1  
$EndComp
Wire Wire Line
	8900 4525 8900 4575
Wire Wire Line
	8900 4575 9175 4575
Text Label 9000 4575 0    40   ~ 0
PPS
Wire Wire Line
	875  3925 1400 3925
Wire Wire Line
	875  3825 1400 3825
$Comp
L STRIP-3 J2
U 1 1 5BF41553
P 825 3925
F 0 "J2" H 575 3925 60  0000 C CNN
F 1 "UART-3v3" H 825 4025 60  0000 C CNN
F 2 "~" H 775 3925 60  0000 C CNN
F 3 "~" H 775 3925 60  0000 C CNN
	1    825  3925
	0    -1   -1   0   
$EndComp
Wire Wire Line
	875  4025 950  4025
Wire Wire Line
	950  4025 950  4100
$Comp
L GND #PWR032
U 1 1 5BF4155B
P 950 4100
F 0 "#PWR032" H 950 4100 30  0001 C CNN
F 1 "GND" H 950 4030 30  0001 C CNN
F 2 "" H 950 4100 60  0000 C CNN
F 3 "" H 950 4100 60  0000 C CNN
	1    950  4100
	1    0    0    -1  
$EndComp
Text Label 1275 3825 0    40   ~ 0
RXD
Text Label 1275 3925 0    40   ~ 0
TXD
Text Label 800  2750 0    40   ~ 0
PPS
Wire Wire Line
	725  2550 1450 2550
Wire Wire Line
	725  3250 1450 3250
Wire Wire Line
	725  3450 1450 3450
Text Label 800  2350 0    40   ~ 0
TDC0
Text Label 800  2450 0    40   ~ 0
TDC1
Text Label 800  2550 0    40   ~ 0
TDC2
Text Label 800  2650 0    40   ~ 0
TDC3
Text Label 800  3150 0    40   ~ 0
TDC4
Text Label 800  3250 0    40   ~ 0
TDC5
Text Label 800  3350 0    40   ~ 0
TDC6
Text Label 800  3450 0    40   ~ 0
TDC7
NoConn ~ 3850 1150
NoConn ~ 3850 1450
NoConn ~ 3850 2250
Text Label 3950 1650 0    40   ~ 0
SCK
Wire Wire Line
	3850 1650 4200 1650
Wire Wire Line
	8700 2650 8800 2650
$Comp
L R-SMALL R14
U 1 1 5BF42910
P 7525 1125
F 0 "R14" H 7525 1225 60  0000 C CNN
F 1 "1R0" H 7525 1125 40  0000 C CNN
F 2 "~" H 7525 1125 60  0000 C CNN
F 3 "~" H 7525 1125 60  0000 C CNN
	1    7525 1125
	0    -1   -1   0   
$EndComp
Wire Wire Line
	9450 3850 9450 3700
Wire Wire Line
	9450 3700 9600 3700
Wire Wire Line
	9600 3700 9600 3775
$Comp
L MCP4728 U7
U 1 1 5BF43A88
P 10375 5600
F 0 "U7" H 10375 5300 60  0000 C CNN
F 1 "MCP4728" H 10375 5900 60  0000 C CNN
F 2 "~" H 10375 5650 60  0000 C CNN
F 3 "~" H 10375 5650 60  0000 C CNN
	1    10375 5600
	1    0    0    -1  
$EndComp
Wire Wire Line
	9975 5400 10025 5400
Wire Wire Line
	9975 5150 9975 5400
$Comp
L CSMALL C5
U 1 1 5BF43A90
P 9850 5300
F 0 "C5" H 9875 5350 30  0000 L CNN
F 1 "100n" H 9875 5250 30  0000 L CNN
F 2 "~" H 9850 5300 60  0000 C CNN
F 3 "~" H 9850 5300 60  0000 C CNN
	1    9850 5300
	1    0    0    -1  
$EndComp
Wire Wire Line
	9850 5200 9975 5200
Connection ~ 9975 5200
$Comp
L +3.3V #PWR033
U 1 1 5BF43A98
P 9975 5150
F 0 "#PWR033" H 9975 5110 30  0001 C CNN
F 1 "+3.3V" H 9975 5260 30  0000 C CNN
F 2 "" H 9975 5150 60  0000 C CNN
F 3 "" H 9975 5150 60  0000 C CNN
	1    9975 5150
	1    0    0    -1  
$EndComp
$Comp
L GND #PWR034
U 1 1 5BF43A9E
P 9850 5400
F 0 "#PWR034" H 9850 5400 30  0001 C CNN
F 1 "GND" H 9850 5330 30  0001 C CNN
F 2 "" H 9850 5400 60  0000 C CNN
F 3 "" H 9850 5400 60  0000 C CNN
	1    9850 5400
	1    0    0    -1  
$EndComp
Wire Wire Line
	10725 5400 11000 5400
Wire Wire Line
	11000 5400 11000 5550
$Comp
L GND #PWR035
U 1 1 5BF43AA6
P 11000 5550
F 0 "#PWR035" H 11000 5550 30  0001 C CNN
F 1 "GND" H 11000 5480 30  0001 C CNN
F 2 "" H 11000 5550 60  0000 C CNN
F 3 "" H 11000 5550 60  0000 C CNN
	1    11000 5550
	1    0    0    -1  
$EndComp
Wire Wire Line
	10875 5800 10725 5800
Wire Wire Line
	10875 5700 10725 5700
Wire Wire Line
	10875 5500 10725 5500
Text Label 10775 5800 0    40   ~ 0
VC
Wire Wire Line
	9825 5500 10025 5500
Wire Wire Line
	9825 5600 10025 5600
Text Label 9900 5500 0    40   ~ 0
SCL
Text Label 9900 5600 0    40   ~ 0
SDA
NoConn ~ 10025 5700
NoConn ~ 10025 5800
NoConn ~ 10875 5500
NoConn ~ 10875 5700
$Comp
L TS3702 U8
U 2 1 5BF43ABE
P 4775 6500
F 0 "U8" H 4950 6600 60  0000 C CNN
F 1 "TS3702" H 4975 6400 50  0000 C CNN
F 2 "~" H 4775 6500 60  0000 C CNN
F 3 "~" H 4775 6500 60  0000 C CNN
	2    4775 6500
	1    0    0    -1  
$EndComp
$Comp
L TS3702 U8
U 1 1 5BF43AC4
P 3225 6450
F 0 "U8" H 3425 6575 60  0000 C CNN
F 1 "TS3702" H 3425 6350 50  0000 C CNN
F 2 "~" H 3225 6450 60  0000 C CNN
F 3 "~" H 3225 6450 60  0000 C CNN
	1    3225 6450
	1    0    0    -1  
$EndComp
$Comp
L +3.3V #PWR036
U 1 1 5BF43BC1
P 3225 6250
F 0 "#PWR036" H 3225 6210 30  0001 C CNN
F 1 "+3.3V" H 3225 6360 30  0000 C CNN
F 2 "" H 3225 6250 60  0000 C CNN
F 3 "" H 3225 6250 60  0000 C CNN
	1    3225 6250
	1    0    0    -1  
$EndComp
$Comp
L GND #PWR037
U 1 1 5BF43BDF
P 3225 6650
F 0 "#PWR037" H 3225 6650 30  0001 C CNN
F 1 "GND" H 3225 6580 30  0001 C CNN
F 2 "" H 3225 6650 60  0000 C CNN
F 3 "" H 3225 6650 60  0000 C CNN
	1    3225 6650
	1    0    0    -1  
$EndComp
$Comp
L R-SMALL R15
U 1 1 5BF43BEE
P 2650 6025
F 0 "R15" H 2550 6125 60  0000 C CNN
F 1 "4k7" H 2650 6025 40  0000 C CNN
F 2 "~" H 2650 6025 60  0000 C CNN
F 3 "~" H 2650 6025 60  0000 C CNN
	1    2650 6025
	1    0    0    -1  
$EndComp
$Comp
L R-SMALL R19
U 1 1 5BF43C00
P 2650 6175
F 0 "R19" H 2575 6050 60  0000 C CNN
F 1 "4k7" H 2650 6175 40  0000 C CNN
F 2 "~" H 2650 6175 60  0000 C CNN
F 3 "~" H 2650 6175 60  0000 C CNN
	1    2650 6175
	1    0    0    -1  
$EndComp
$Comp
L R-SMALL R16
U 1 1 5BF43C1A
P 3500 6025
F 0 "R16" H 3425 5900 60  0000 C CNN
F 1 "4k7" H 3500 6025 40  0000 C CNN
F 2 "~" H 3500 6025 60  0000 C CNN
F 3 "~" H 3500 6025 60  0000 C CNN
	1    3500 6025
	1    0    0    -1  
$EndComp
$Comp
L R-SMALL R21
U 1 1 5BF43C20
P 3500 6850
F 0 "R21" H 3425 6725 60  0000 C CNN
F 1 "4k7" H 3500 6850 40  0000 C CNN
F 2 "~" H 3500 6850 60  0000 C CNN
F 3 "~" H 3500 6850 60  0000 C CNN
	1    3500 6850
	1    0    0    -1  
$EndComp
Wire Wire Line
	2500 6175 2400 6175
Wire Wire Line
	2400 6175 2400 6250
Wire Wire Line
	2500 6025 2400 6025
Wire Wire Line
	2400 6025 2400 5925
$Comp
L +3.3V #PWR038
U 1 1 5BF43E60
P 2400 5925
F 0 "#PWR038" H 2400 5885 30  0001 C CNN
F 1 "+3.3V" H 2400 6035 30  0000 C CNN
F 2 "" H 2400 5925 60  0000 C CNN
F 3 "" H 2400 5925 60  0000 C CNN
	1    2400 5925
	1    0    0    -1  
$EndComp
$Comp
L GND #PWR039
U 1 1 5BF43E6F
P 2400 6250
F 0 "#PWR039" H 2400 6250 30  0001 C CNN
F 1 "GND" H 2400 6180 30  0001 C CNN
F 2 "" H 2400 6250 60  0000 C CNN
F 3 "" H 2400 6250 60  0000 C CNN
	1    2400 6250
	1    0    0    -1  
$EndComp
Wire Wire Line
	2875 6350 2925 6350
Wire Wire Line
	2875 6025 2875 6350
Wire Wire Line
	2800 6025 3350 6025
Connection ~ 2875 6025
Wire Wire Line
	2875 6175 2800 6175
Connection ~ 2875 6175
Wire Wire Line
	3725 6450 3525 6450
Wire Wire Line
	3725 5800 3725 6850
Wire Wire Line
	3725 6025 3650 6025
$Comp
L C C8
U 1 1 5BF443EA
P 2650 6750
F 0 "C8" H 2650 6850 40  0000 L CNN
F 1 "C" H 2656 6665 40  0000 L CNN
F 2 "~" H 2688 6600 30  0000 C CNN
F 3 "~" H 2650 6750 60  0000 C CNN
	1    2650 6750
	1    0    0    -1  
$EndComp
Wire Wire Line
	2650 6950 2650 7025
$Comp
L GND #PWR040
U 1 1 5BF443F8
P 2650 7025
F 0 "#PWR040" H 2650 7025 30  0001 C CNN
F 1 "GND" H 2650 6955 30  0001 C CNN
F 2 "" H 2650 7025 60  0000 C CNN
F 3 "" H 2650 7025 60  0000 C CNN
	1    2650 7025
	1    0    0    -1  
$EndComp
Wire Wire Line
	2650 6550 2925 6550
Wire Wire Line
	2875 6550 2875 6850
Wire Wire Line
	2875 6850 3350 6850
Connection ~ 2875 6550
Wire Wire Line
	3725 6850 3650 6850
Connection ~ 3725 6450
Text Label 3725 5800 0    40   ~ 0
OSC1
$Comp
L +3.3V #PWR041
U 1 1 5BF44996
P 4775 6300
F 0 "#PWR041" H 4775 6260 30  0001 C CNN
F 1 "+3.3V" H 4775 6410 30  0000 C CNN
F 2 "" H 4775 6300 60  0000 C CNN
F 3 "" H 4775 6300 60  0000 C CNN
	1    4775 6300
	1    0    0    -1  
$EndComp
$Comp
L GND #PWR042
U 1 1 5BF4499C
P 4775 6700
F 0 "#PWR042" H 4775 6700 30  0001 C CNN
F 1 "GND" H 4775 6630 30  0001 C CNN
F 2 "" H 4775 6700 60  0000 C CNN
F 3 "" H 4775 6700 60  0000 C CNN
	1    4775 6700
	1    0    0    -1  
$EndComp
$Comp
L R-SMALL R17
U 1 1 5BF449A2
P 4200 6075
F 0 "R17" H 4100 6175 60  0000 C CNN
F 1 "4k7" H 4200 6075 40  0000 C CNN
F 2 "~" H 4200 6075 60  0000 C CNN
F 3 "~" H 4200 6075 60  0000 C CNN
	1    4200 6075
	1    0    0    -1  
$EndComp
$Comp
L R-SMALL R20
U 1 1 5BF449A8
P 4200 6225
F 0 "R20" H 4125 6100 60  0000 C CNN
F 1 "4k7" H 4200 6225 40  0000 C CNN
F 2 "~" H 4200 6225 60  0000 C CNN
F 3 "~" H 4200 6225 60  0000 C CNN
	1    4200 6225
	1    0    0    -1  
$EndComp
$Comp
L R-SMALL R18
U 1 1 5BF449AE
P 5050 6075
F 0 "R18" H 4975 5950 60  0000 C CNN
F 1 "4k7" H 5050 6075 40  0000 C CNN
F 2 "~" H 5050 6075 60  0000 C CNN
F 3 "~" H 5050 6075 60  0000 C CNN
	1    5050 6075
	1    0    0    -1  
$EndComp
$Comp
L R-SMALL R22
U 1 1 5BF449B4
P 5050 6900
F 0 "R22" H 4975 6775 60  0000 C CNN
F 1 "4k7" H 5050 6900 40  0000 C CNN
F 2 "~" H 5050 6900 60  0000 C CNN
F 3 "~" H 5050 6900 60  0000 C CNN
	1    5050 6900
	1    0    0    -1  
$EndComp
Wire Wire Line
	4050 6225 3950 6225
Wire Wire Line
	3950 6225 3950 6300
Wire Wire Line
	4050 6075 3950 6075
Wire Wire Line
	3950 6075 3950 5975
$Comp
L +3.3V #PWR043
U 1 1 5BF449BE
P 3950 5975
F 0 "#PWR043" H 3950 5935 30  0001 C CNN
F 1 "+3.3V" H 3950 6085 30  0000 C CNN
F 2 "" H 3950 5975 60  0000 C CNN
F 3 "" H 3950 5975 60  0000 C CNN
	1    3950 5975
	1    0    0    -1  
$EndComp
$Comp
L GND #PWR044
U 1 1 5BF449C4
P 3950 6300
F 0 "#PWR044" H 3950 6300 30  0001 C CNN
F 1 "GND" H 3950 6230 30  0001 C CNN
F 2 "" H 3950 6300 60  0000 C CNN
F 3 "" H 3950 6300 60  0000 C CNN
	1    3950 6300
	1    0    0    -1  
$EndComp
Wire Wire Line
	4425 6400 4475 6400
Wire Wire Line
	4425 6075 4425 6400
Wire Wire Line
	4350 6075 4900 6075
Connection ~ 4425 6075
Wire Wire Line
	4425 6225 4350 6225
Connection ~ 4425 6225
Wire Wire Line
	5275 6500 5075 6500
Wire Wire Line
	5275 5800 5275 6900
Wire Wire Line
	5275 6075 5200 6075
$Comp
L C C9
U 1 1 5BF449D3
P 4200 6800
F 0 "C9" H 4200 6900 40  0000 L CNN
F 1 "C" H 4206 6715 40  0000 L CNN
F 2 "~" H 4238 6650 30  0000 C CNN
F 3 "~" H 4200 6800 60  0000 C CNN
	1    4200 6800
	1    0    0    -1  
$EndComp
Wire Wire Line
	4200 7000 4200 7075
$Comp
L GND #PWR045
U 1 1 5BF449DA
P 4200 7075
F 0 "#PWR045" H 4200 7075 30  0001 C CNN
F 1 "GND" H 4200 7005 30  0001 C CNN
F 2 "" H 4200 7075 60  0000 C CNN
F 3 "" H 4200 7075 60  0000 C CNN
	1    4200 7075
	1    0    0    -1  
$EndComp
Wire Wire Line
	4200 6600 4475 6600
Wire Wire Line
	4425 6600 4425 6900
Wire Wire Line
	4425 6900 4900 6900
Connection ~ 4425 6600
Wire Wire Line
	5275 6900 5200 6900
Connection ~ 5275 6500
Text Label 4450 5800 0    40   ~ 0
OSC2
NoConn ~ 3850 2350
NoConn ~ 1450 1350
Text Label 3925 2650 0    40   ~ 0
DIAG3
Wire Wire Line
	4175 2650 3850 2650
$Comp
L +3.3V #PWR046
U 1 1 5BF45751
P 850 6125
F 0 "#PWR046" H 850 6085 30  0001 C CNN
F 1 "+3.3V" H 850 6235 30  0000 C CNN
F 2 "" H 850 6125 60  0001 C CNN
F 3 "" H 850 6125 60  0001 C CNN
	1    850  6125
	0    -1   -1   0   
$EndComp
$Comp
L DIODESCH D5
U 1 1 5BF4577C
P 9275 975
F 0 "D5" H 9275 1075 40  0000 C CNN
F 1 "DIODESCH" H 9275 875 40  0000 C CNN
F 2 "~" H 9275 975 60  0000 C CNN
F 3 "~" H 9275 975 60  0000 C CNN
	1    9275 975 
	-1   0    0    1   
$EndComp
Wire Wire Line
	9475 975  9550 975 
Wire Wire Line
	9550 975  9550 1275
Wire Wire Line
	8750 975  9075 975 
$Comp
L STRIP-2 J10
U 1 1 5BF45C1C
P 10425 2625
F 0 "J10" H 10200 2650 40  0000 C CNN
F 1 "12V-in" H 10425 2725 40  0000 C CNN
F 2 "~" H 10425 2625 60  0000 C CNN
F 3 "~" H 10425 2625 60  0000 C CNN
	1    10425 2625
	1    0    0    -1  
$EndComp
Wire Wire Line
	10475 2675 10475 2750
Connection ~ 10475 2750
Wire Wire Line
	10375 2675 10375 2850
Connection ~ 10375 2850
Wire Wire Line
	3725 5800 4225 5800
Connection ~ 3725 6025
Wire Wire Line
	4325 5800 5275 5800
Connection ~ 5275 6075
$Comp
L STRIP-2 J11
U 1 1 5BF46476
P 4275 5475
F 0 "J11" H 4075 5475 60  0000 C CNN
F 1 "dig-out" H 4275 5575 60  0000 C CNN
F 2 "~" H 4275 5475 60  0000 C CNN
F 3 "~" H 4275 5475 60  0000 C CNN
	1    4275 5475
	1    0    0    -1  
$EndComp
Wire Wire Line
	4225 5800 4225 5525
Wire Wire Line
	4325 5525 4325 5800
$Comp
L SPI-FLASH-8 U9
U 1 1 5BF496CC
P 7375 3875
F 0 "U9" H 7625 3575 60  0000 C CNN
F 1 "flash-wson" H 7375 4175 60  0000 C CNN
F 2 "~" H 7375 3875 60  0000 C CNN
F 3 "~" H 7375 3875 60  0000 C CNN
	1    7375 3875
	1    0    0    -1  
$EndComp
Wire Wire Line
	6750 3825 6975 3825
Wire Wire Line
	6750 3925 6975 3925
Wire Wire Line
	6975 4025 6825 4025
Wire Wire Line
	6825 4025 6825 4125
Wire Wire Line
	7775 3825 7975 3825
Wire Wire Line
	7775 4025 7975 4025
Wire Wire Line
	7775 3725 7925 3725
Wire Wire Line
	7925 3725 7925 3525
Wire Wire Line
	7775 3925 7975 3925
Wire Wire Line
	6975 3725 6750 3725
Text Label 6800 3725 0    40   ~ 0
SSEL0
Text Label 6800 3825 0    40   ~ 0
MISO
Text Label 6800 3925 0    40   ~ 0
WP*
Text Label 7775 3825 0    40   ~ 0
RST*
Text Label 7775 3925 0    40   ~ 0
SCK
Text Label 7775 4025 0    40   ~ 0
MOSI
$Comp
L GND #PWR047
U 1 1 5BF496E2
P 6825 4125
F 0 "#PWR047" H 6825 4125 30  0001 C CNN
F 1 "GND" H 6825 4055 30  0001 C CNN
F 2 "" H 6825 4125 60  0000 C CNN
F 3 "" H 6825 4125 60  0000 C CNN
	1    6825 4125
	1    0    0    -1  
$EndComp
$Comp
L SPI-FLASH-8 U5
U 1 1 5BF496E8
P 6750 3150
F 0 "U5" H 7000 2850 60  0000 C CNN
F 1 "flash-so8" H 6750 3450 60  0000 C CNN
F 2 "~" H 6750 3150 60  0000 C CNN
F 3 "~" H 6750 3150 60  0000 C CNN
	1    6750 3150
	1    0    0    -1  
$EndComp
Wire Wire Line
	6150 3100 6350 3100
Wire Wire Line
	6150 3200 6350 3200
Wire Wire Line
	6350 3300 6200 3300
Wire Wire Line
	6200 3300 6200 3400
Wire Wire Line
	7150 3100 7400 3100
Wire Wire Line
	7150 3300 7400 3300
Wire Wire Line
	7150 3000 7300 3000
Wire Wire Line
	7300 3000 7300 2800
Wire Wire Line
	7150 3200 7400 3200
Wire Wire Line
	6350 3000 6150 3000
Text Label 6175 3000 0    40   ~ 0
SSEL0
Text Label 6175 3100 0    40   ~ 0
MISO
Text Label 6175 3200 0    40   ~ 0
WP*
Text Label 7200 3100 0    40   ~ 0
RST*
Text Label 7200 3200 0    40   ~ 0
SCK
Text Label 7200 3300 0    40   ~ 0
MOSI
$Comp
L GND #PWR048
U 1 1 5BF496FE
P 6200 3400
F 0 "#PWR048" H 6200 3400 30  0001 C CNN
F 1 "GND" H 6200 3330 30  0001 C CNN
F 2 "" H 6200 3400 60  0000 C CNN
F 3 "" H 6200 3400 60  0000 C CNN
	1    6200 3400
	1    0    0    -1  
$EndComp
$Comp
L +3.3V #PWR049
U 1 1 5BF49710
P 7300 2800
F 0 "#PWR049" H 7300 2760 30  0001 C CNN
F 1 "+3.3V" H 7300 2910 30  0000 C CNN
F 2 "" H 7300 2800 60  0000 C CNN
F 3 "" H 7300 2800 60  0000 C CNN
	1    7300 2800
	1    0    0    -1  
$EndComp
$Comp
L +3.3V #PWR050
U 1 1 5BF49716
P 7925 3525
F 0 "#PWR050" H 7925 3485 30  0001 C CNN
F 1 "+3.3V" H 7925 3635 30  0000 C CNN
F 2 "" H 7925 3525 60  0000 C CNN
F 3 "" H 7925 3525 60  0000 C CNN
	1    7925 3525
	1    0    0    -1  
$EndComp
Wire Wire Line
	7750 2875 8150 2875
Text Label 7850 2875 0    40   ~ 0
WP*
Wire Wire Line
	8150 2800 8150 2950
Connection ~ 8150 2875
$Comp
L CSMALL C10
U 1 1 5BF4C60D
P 8150 3050
F 0 "C10" H 8175 3100 30  0000 L CNN
F 1 "100n" H 8175 3000 30  0000 L CNN
F 2 "~" H 8150 3050 60  0000 C CNN
F 3 "~" H 8150 3050 60  0000 C CNN
	1    8150 3050
	1    0    0    -1  
$EndComp
Wire Wire Line
	8150 3150 8150 3250
$Comp
L GND #PWR051
U 1 1 5BF4C619
P 8150 3250
F 0 "#PWR051" H 8150 3250 30  0001 C CNN
F 1 "GND" H 8150 3180 30  0001 C CNN
F 2 "" H 8150 3250 60  0000 C CNN
F 3 "" H 8150 3250 60  0000 C CNN
	1    8150 3250
	1    0    0    -1  
$EndComp
$Comp
L +3.3V #PWR052
U 1 1 5BF4C628
P 8150 2800
F 0 "#PWR052" H 8150 2760 30  0001 C CNN
F 1 "+3.3V" H 8150 2910 30  0000 C CNN
F 2 "" H 8150 2800 60  0000 C CNN
F 3 "" H 8150 2800 60  0000 C CNN
	1    8150 2800
	1    0    0    -1  
$EndComp
$Comp
L OSC-6PIN U10
U 1 1 5BF4CE59
P 9175 5400
F 0 "U10" H 9025 5700 60  0000 C CNN
F 1 "vcxo" H 9175 5150 40  0000 C CNN
F 2 "~" H 9175 5250 60  0000 C CNN
F 3 "~" H 9175 5250 60  0000 C CNN
	1    9175 5400
	1    0    0    -1  
$EndComp
Wire Wire Line
	8875 5300 8750 5300
Text Label 8775 5300 0    40   ~ 0
VC
Wire Wire Line
	8625 5400 8875 5400
Wire Wire Line
	8625 5125 8625 5400
$Comp
L +3.3V #PWR053
U 1 1 5BF4D243
P 8625 5125
F 0 "#PWR053" H 8625 5085 30  0001 C CNN
F 1 "+3.3V" H 8625 5235 30  0000 C CNN
F 2 "" H 8625 5125 60  0000 C CNN
F 3 "" H 8625 5125 60  0000 C CNN
	1    8625 5125
	1    0    0    -1  
$EndComp
Wire Wire Line
	9475 5300 9525 5300
Wire Wire Line
	9525 5300 9525 5150
Wire Wire Line
	9525 5150 8625 5150
Connection ~ 8625 5150
Wire Wire Line
	8875 5500 8625 5500
Wire Wire Line
	8625 5500 8625 5625
$Comp
L GND #PWR054
U 1 1 5BF4D515
P 8625 5625
F 0 "#PWR054" H 8625 5625 30  0001 C CNN
F 1 "GND" H 8625 5555 30  0001 C CNN
F 2 "" H 8625 5625 60  0000 C CNN
F 3 "" H 8625 5625 60  0000 C CNN
	1    8625 5625
	1    0    0    -1  
$EndComp
Text Label 4025 4000 0    40   ~ 0
Xin
Wire Wire Line
	9475 5500 9600 5500
Text Label 9500 5500 0    40   ~ 0
Xin
Wire Wire Line
	1800 6850 1575 6850
Wire Wire Line
	10875 5600 10725 5600
NoConn ~ 10875 5600
Wire Wire Line
	3850 2150 4200 2150
Text Label 3950 2150 0    40   ~ 0
SSEL0
Wire Notes Line
	8500 3550 9725 3550
Wire Notes Line
	9725 3550 9725 4825
Wire Notes Line
	9725 4825 8500 4825
Wire Notes Line
	8500 4825 8500 3550
Text Notes 9125 4750 0    60   ~ 12
TDC inputs
Wire Notes Line
	8425 2550 5850 2550
Wire Notes Line
	5850 2550 5850 4325
Wire Notes Line
	5850 4325 8425 4325
Wire Notes Line
	8425 4325 8425 2550
Text Notes 5925 4275 0    60   ~ 12
Flash Memory
Wire Notes Line
	11100 4925 11100 6025
Wire Notes Line
	11100 6025 8500 6025
Wire Notes Line
	8500 6025 8500 4925
Wire Notes Line
	8500 4925 11100 4925
Text Notes 8575 5950 0    60   ~ 12
VCXO and DAC
Wire Notes Line
	2225 5175 5425 5175
Wire Notes Line
	5425 5175 5425 7675
Wire Notes Line
	5425 7675 2225 7675
Wire Notes Line
	2225 7675 2225 5175
Text Notes 2325 7600 0    60   ~ 12
Oscillaors, for self-test
$Sheet
S 6450 4675 1075 1575
U 60448746
F0 "More I/O" 50
F1 "tdc-extra.sch" 50
F2 "~NP" I L 6450 4875 60 
F3 "A1" I L 6450 5075 60 
F4 "A2" I L 6450 5175 60 
F5 "A3" I L 6450 5275 60 
F6 "A4" I L 6450 5375 60 
F7 "CE51" I L 6450 5675 60 
F8 "DC51" I L 6450 5775 60 
F9 "MOSI51" I L 6450 5875 60 
F10 "SCK51" I L 6450 5975 60 
F11 "BUZZ" I R 7525 4875 60 
F12 "RELAY" I R 7525 5100 60 
F13 "THERMO" I R 7525 5325 60 
$EndSheet
Connection ~ 1875 6125
$Comp
L STRIP-2 J8
U 1 1 60449A32
P 3250 5475
F 0 "J8" H 3050 5475 60  0000 C CNN
F 1 "ana-out" H 3250 5575 60  0000 C CNN
F 2 "~" H 3250 5475 60  0000 C CNN
F 3 "~" H 3250 5475 60  0000 C CNN
	1    3250 5475
	1    0    0    -1  
$EndComp
Text Label 4225 6600 0    40   ~ 0
Ana2
Text Label 2675 6550 0    40   ~ 0
Ana1
Wire Wire Line
	2775 5625 3200 5625
Wire Wire Line
	3200 5625 3200 5525
Wire Wire Line
	2775 5750 3300 5750
Wire Wire Line
	3300 5750 3300 5525
Text Label 2850 5625 0    40   ~ 0
Ana1
Text Label 2850 5750 0    40   ~ 0
Ana2
Wire Wire Line
	1100 2050 1450 2050
Text Label 1200 2050 0    40   ~ 0
~NP
Wire Wire Line
	6100 4875 6450 4875
Text Label 6200 4875 0    40   ~ 0
~NP
$Comp
L CSMALL C7
U 1 1 6044A81D
P 4475 2250
F 0 "C7" H 4500 2300 30  0000 L CNN
F 1 "100n" H 4500 2200 30  0000 L CNN
F 2 "~" H 4475 2250 60  0000 C CNN
F 3 "~" H 4475 2250 60  0000 C CNN
	1    4475 2250
	1    0    0    -1  
$EndComp
Wire Wire Line
	3850 2050 4475 2050
Wire Wire Line
	4475 2050 4475 2150
Wire Wire Line
	4475 2350 4475 2450
$Comp
L GND #PWR055
U 1 1 6044ACE6
P 4475 2450
F 0 "#PWR055" H 4475 2450 30  0001 C CNN
F 1 "GND" H 4475 2380 30  0001 C CNN
F 2 "" H 4475 2450 60  0000 C CNN
F 3 "" H 4475 2450 60  0000 C CNN
	1    4475 2450
	1    0    0    -1  
$EndComp
Wire Wire Line
	6100 5375 6450 5375
Wire Wire Line
	6100 5075 6450 5075
Wire Wire Line
	6100 5175 6450 5175
Wire Wire Line
	6100 5275 6450 5275
Wire Wire Line
	6100 5675 6450 5675
Wire Wire Line
	6100 5775 6450 5775
Wire Wire Line
	6100 5875 6450 5875
Wire Wire Line
	6100 5975 6450 5975
Text Label 6200 5075 0    40   ~ 0
TDC0
Text Label 6200 5175 0    40   ~ 0
TDC1
Text Label 6200 5275 0    40   ~ 0
TDC2
Wire Wire Line
	8700 2525 8925 2525
Text Label 8725 2525 0    40   ~ 0
5V0
Connection ~ 7400 1475
Wire Wire Line
	7525 825  7200 825 
Text Label 7300 825  0    40   ~ 0
5V0
Text Label 8850 975  0    40   ~ 0
5V0
Text Label 6200 5675 0    40   ~ 0
SSEL
Text Label 6200 5775 0    40   ~ 0
DC51
Text Label 6200 5875 0    40   ~ 0
MOSI
Text Label 6200 5975 0    40   ~ 0
SCK
Wire Wire Line
	3850 1550 4200 1550
Text Label 3950 1550 0    40   ~ 0
DC51
Wire Wire Line
	7950 5100 7525 5100
Text Label 7625 5100 0    40   ~ 0
RELAY
Wire Wire Line
	1100 1950 1450 1950
Text Label 1175 1950 0    40   ~ 0
BUZZ
Wire Wire Line
	7950 4875 7525 4875
Text Label 7625 4875 0    40   ~ 0
BUZZ
Wire Wire Line
	4200 1250 3850 1250
Text Label 3950 1250 0    40   ~ 0
RELAY
Text Label 6200 5375 0    40   ~ 0
TDC3
Wire Wire Line
	7525 5325 7950 5325
Text Label 7625 5325 0    40   ~ 0
TDI
$EndSCHEMATC
