EESchema Schematic File Version 2
LIBS:rubi-cpu
LIBS:rubi-conn
LIBS:rubi-discrete
LIBS:rubi-sensors
LIBS:rubi-ic
LIBS:power
LIBS:device
LIBS:transistors
LIBS:conn
LIBS:linear
LIBS:regul
LIBS:74xx
LIBS:cmos4000
LIBS:adc-dac
LIBS:memory
LIBS:xilinx
LIBS:special
LIBS:microcontrollers
LIBS:dsp
LIBS:microchip
LIBS:analog_switches
LIBS:motorola
LIBS:texas
LIBS:intel
LIBS:audio
LIBS:interface
LIBS:digital-audio
LIBS:philips
LIBS:display
LIBS:cypress
LIBS:siliconi
LIBS:opto
LIBS:atmel
LIBS:contrib
LIBS:valves
LIBS:lesson-pcb-cache
EELAYER 27 0
EELAYER END
$Descr A4 11693 8268
encoding utf-8
Sheet 1 1
Title ""
Date "10 may 2021"
Rev ""
Comp ""
Comment1 ""
Comment2 ""
Comment3 ""
Comment4 ""
$EndDescr
$Comp
L LPC11U24FBD48 U101
U 1 1 609901E8
P 3900 3600
F 0 "U101" H 2850 5050 50  0000 C CNN
F 1 "LPC11U24FBD48" H 3100 2380 50  0000 C CNN
F 2 "LQFP48" H 4850 2400 50  0000 C CNN
F 3 "~" H 3900 2125 50  0001 C CNN
	1    3900 3600
	1    0    0    -1  
$EndComp
$Comp
L USB-MINI-B CON1
U 1 1 6099021E
P 7450 1900
F 0 "CON1" H 7200 2350 60  0000 C CNN
F 1 "USB-MINI-B" H 7400 1400 60  0000 C CNN
F 2 "" H 7450 1900 60  0000 C CNN
F 3 "" H 7450 1900 60  0000 C CNN
	1    7450 1900
	1    0    0    -1  
$EndComp
Wire Wire Line
	8000 1600 8200 1600
Wire Wire Line
	8200 1600 8200 2350
Wire Wire Line
	8000 2050 8200 2050
Connection ~ 8200 2050
Wire Wire Line
	8000 2200 8200 2200
Connection ~ 8200 2200
$Comp
L GND #PWR01
U 1 1 60990238
P 8200 2350
F 0 "#PWR01" H 8200 2350 30  0001 C CNN
F 1 "GND" H 8200 2280 30  0001 C CNN
F 2 "" H 8200 2350 60  0000 C CNN
F 3 "" H 8200 2350 60  0000 C CNN
	1    8200 2350
	1    0    0    -1  
$EndComp
Wire Wire Line
	8000 1750 8200 1750
Connection ~ 8200 1750
$Comp
L +3.3V #PWR02
U 1 1 60990271
P 3900 1800
F 0 "#PWR02" H 3900 1760 30  0001 C CNN
F 1 "+3.3V" H 3900 1910 30  0000 C CNN
F 2 "" H 3900 1800 60  0000 C CNN
F 3 "" H 3900 1800 60  0000 C CNN
	1    3900 1800
	1    0    0    -1  
$EndComp
Wire Wire Line
	3900 1800 3900 1850
Wire Wire Line
	3800 1850 4350 1850
Wire Wire Line
	4000 1850 4000 2100
Wire Wire Line
	3800 1850 3800 2100
Connection ~ 3900 1850
$Comp
L XR22414 U10
U 1 1 6099029E
P 7950 4450
F 0 "U10" H 8700 3450 60  0000 C CNN
F 1 "XR22414" H 8000 4300 60  0000 C CNN
F 2 "~" H 7100 5200 60  0000 C CNN
F 3 "~" H 7100 5200 60  0000 C CNN
	1    7950 4450
	-1   0    0    -1  
$EndComp
Wire Wire Line
	8800 3750 9050 3750
Wire Wire Line
	8800 3850 9050 3850
Text Label 8900 3750 0    40   ~ 0
DP0
Text Label 8900 3850 0    40   ~ 0
DM0
Wire Wire Line
	6650 1900 6900 1900
Wire Wire Line
	6650 1750 6900 1750
Text Label 6750 1900 0    40   ~ 0
DP0
Text Label 6750 1750 0    40   ~ 0
DM0
Wire Wire Line
	5100 4100 6800 4100
Wire Wire Line
	6800 4100 6800 4050
Wire Wire Line
	6800 4050 7100 4050
Wire Wire Line
	7100 3950 6550 3950
Wire Wire Line
	6550 3950 6550 4200
Wire Wire Line
	6550 4200 5100 4200
NoConn ~ 5100 2300
NoConn ~ 5100 2400
NoConn ~ 5100 2500
NoConn ~ 5100 2600
NoConn ~ 5100 2700
$Comp
L CSMALL C101
U 1 1 60990541
P 4350 2000
F 0 "C101" H 4375 2050 30  0000 L CNN
F 1 "100nF" H 4375 1950 30  0000 L CNN
F 2 "~" H 4350 2000 60  0000 C CNN
F 3 "~" H 4350 2000 60  0000 C CNN
	1    4350 2000
	1    0    0    -1  
$EndComp
Wire Wire Line
	4350 1850 4350 1900
Connection ~ 4000 1850
$Comp
L GND #PWR03
U 1 1 60990568
P 4350 2100
F 0 "#PWR03" H 4350 2100 30  0001 C CNN
F 1 "GND" H 4350 2030 30  0001 C CNN
F 2 "" H 4350 2100 60  0000 C CNN
F 3 "" H 4350 2100 60  0000 C CNN
	1    4350 2100
	1    0    0    -1  
$EndComp
$Comp
L R-SMALL R101
U 1 1 60990577
P 2150 2300
F 0 "R101" H 2150 2400 40  0000 C CNN
F 1 "1k5" H 2150 2300 40  0000 C CNN
F 2 "~" H 2150 2300 60  0000 C CNN
F 3 "~" H 2150 2300 60  0000 C CNN
	1    2150 2300
	1    0    0    -1  
$EndComp
Wire Wire Line
	2300 2300 2700 2300
$Comp
L +3.3V #PWR04
U 1 1 609905B2
P 1900 2250
F 0 "#PWR04" H 1900 2210 30  0001 C CNN
F 1 "+3.3V" H 1900 2360 30  0000 C CNN
F 2 "" H 1900 2250 60  0000 C CNN
F 3 "" H 1900 2250 60  0000 C CNN
	1    1900 2250
	1    0    0    -1  
$EndComp
Wire Wire Line
	1900 2250 1900 2300
Wire Wire Line
	1900 2300 2000 2300
$Comp
L HOLE-3MM H101
U 1 1 609909F1
P 5700 1150
F 0 "H101" H 5700 850 60  0000 C CNN
F 1 "HOLE-3MM" H 5700 1400 60  0000 C CNN
F 2 "~" H 5700 1150 60  0000 C CNN
F 3 "~" H 5700 1150 60  0000 C CNN
	1    5700 1150
	1    0    0    -1  
$EndComp
Wire Wire Line
	5700 1150 5300 1150
Wire Wire Line
	5300 1150 5300 1250
$Comp
L GND #PWR05
U 1 1 60990A1E
P 5300 1250
F 0 "#PWR05" H 5300 1250 30  0001 C CNN
F 1 "GND" H 5300 1180 30  0001 C CNN
F 2 "" H 5300 1250 60  0000 C CNN
F 3 "" H 5300 1250 60  0000 C CNN
	1    5300 1250
	1    0    0    -1  
$EndComp
$Comp
L STRIP-3 J101
U 1 1 6099104E
P 2000 4200
F 0 "J101" H 1750 4200 60  0000 C CNN
F 1 "STRIP-3" H 2000 4300 60  0000 C CNN
F 2 "~" H 1950 4200 60  0000 C CNN
F 3 "~" H 1950 4200 60  0000 C CNN
	1    2000 4200
	0    -1   -1   0   
$EndComp
Wire Wire Line
	2050 4100 2700 4100
Wire Wire Line
	2050 4200 2700 4200
Wire Wire Line
	2050 4300 2300 4300
Wire Wire Line
	2300 4300 2300 4500
$Comp
L GND #PWR06
U 1 1 609910BE
P 2300 4500
F 0 "#PWR06" H 2300 4500 30  0001 C CNN
F 1 "GND" H 2300 4430 30  0001 C CNN
F 2 "" H 2300 4500 60  0000 C CNN
F 3 "" H 2300 4500 60  0000 C CNN
	1    2300 4500
	1    0    0    -1  
$EndComp
$EndSCHEMATC
