(kicad_pcb (version 3) (host pcbnew "(22-Jun-2014 BZR 4027)-stable")

  (general
    (links 16)
    (no_connects 11)
    (area 67.359999 30.96 120.050001 80.050001)
    (thickness 1.6)
    (drawings 8)
    (tracks 25)
    (zones 0)
    (modules 7)
    (nets 10)
  )

  (page A4)
  (layers
    (15 F.Cu signal)
    (0 B.Cu signal)
    (16 B.Adhes user)
    (17 F.Adhes user)
    (18 B.Paste user)
    (19 F.Paste user)
    (20 B.SilkS user)
    (21 F.SilkS user)
    (22 B.Mask user)
    (23 F.Mask user)
    (24 Dwgs.User user)
    (25 Cmts.User user)
    (26 Eco1.User user)
    (27 Eco2.User user)
    (28 Edge.Cuts user)
  )

  (setup
    (last_trace_width 0.2)
    (user_trace_width 0.4)
    (user_trace_width 0.8)
    (user_trace_width 1.6)
    (trace_clearance 0.2)
    (zone_clearance 0.25)
    (zone_45_only no)
    (trace_min 0.18)
    (segment_width 0.2)
    (edge_width 0.1)
    (via_size 0.8)
    (via_drill 0.6)
    (via_min_size 0)
    (via_min_drill 0.3)
    (user_via 0.5 0.3)
    (user_via 2 1)
    (uvia_size 0.508)
    (uvia_drill 0.127)
    (uvias_allowed no)
    (uvia_min_size 0.508)
    (uvia_min_drill 0.127)
    (pcb_text_width 0.3)
    (pcb_text_size 1.5 1.5)
    (mod_edge_width 0.15)
    (mod_text_size 1 1)
    (mod_text_width 0.15)
    (pad_size 1.524 1.524)
    (pad_drill 1.016)
    (pad_to_mask_clearance 0)
    (aux_axis_origin 0 0)
    (visible_elements FFFFFFFF)
    (pcbplotparams
      (layerselection 279478273)
      (usegerberextensions true)
      (excludeedgelayer true)
      (linewidth 0.150000)
      (plotframeref false)
      (viasonmask false)
      (mode 1)
      (useauxorigin false)
      (hpglpennumber 1)
      (hpglpenspeed 20)
      (hpglpendiameter 15)
      (hpglpenoverlay 2)
      (psnegative false)
      (psa4output false)
      (plotreference true)
      (plotvalue true)
      (plotothertext true)
      (plotinvisibletext false)
      (padsonsilk false)
      (subtractmaskfromsilk true)
      (outputformat 1)
      (mirror false)
      (drillshape 0)
      (scaleselection 1)
      (outputdirectory output))
  )

  (net 0 "")
  (net 1 +3.3V)
  (net 2 /DM0)
  (net 3 /DP0)
  (net 4 GND)
  (net 5 N-0000029)
  (net 6 N-0000037)
  (net 7 N-0000040)
  (net 8 N-0000041)
  (net 9 N-0000043)

  (net_class Default "This is the default net class."
    (clearance 0.2)
    (trace_width 0.2)
    (via_dia 0.8)
    (via_drill 0.6)
    (uvia_dia 0.508)
    (uvia_drill 0.127)
    (add_net "")
    (add_net +3.3V)
    (add_net /DM0)
    (add_net /DP0)
    (add_net GND)
    (add_net N-0000029)
    (add_net N-0000037)
    (add_net N-0000040)
    (add_net N-0000041)
    (add_net N-0000043)
  )

  (module USB_MINI_B-SMD (layer F.Cu) (tedit 56F6CC70) (tstamp 60990879)
    (at 74 59)
    (descr "USB Mini-B 5-pin SMD connector")
    (tags "USB, Mini-B, connector")
    (path /6099021E)
    (fp_text reference CON1 (at 0 6.90118) (layer F.SilkS)
      (effects (font (size 1.016 1.016) (thickness 0.2032)))
    )
    (fp_text value USB-MINI-B (at 0 -7.0993) (layer F.SilkS) hide
      (effects (font (size 1.016 1.016) (thickness 0.2032)))
    )
    (fp_line (start -3.59918 -3.85064) (end -3.59918 3.85064) (layer F.SilkS) (width 0.381))
    (fp_line (start -4.59994 -3.85064) (end -4.59994 3.85064) (layer F.SilkS) (width 0.381))
    (fp_line (start -4.59994 3.85064) (end 4.59994 3.85064) (layer F.SilkS) (width 0.381))
    (fp_line (start 4.59994 3.85064) (end 4.59994 -3.85064) (layer F.SilkS) (width 0.381))
    (fp_line (start 4.59994 -3.85064) (end -4.59994 -3.85064) (layer F.SilkS) (width 0.381))
    (pad 1 smd rect (at 3.54932 -1.6002) (size 2.50124 0.50038)
      (layers F.Cu F.Paste F.Mask)
    )
    (pad 2 smd rect (at 3.54932 -0.8001) (size 2.50124 0.50038)
      (layers F.Cu F.Paste F.Mask)
      (net 2 /DM0)
    )
    (pad 3 smd rect (at 3.54932 0) (size 2.50124 0.50038)
      (layers F.Cu F.Paste F.Mask)
      (net 3 /DP0)
    )
    (pad 4 smd rect (at 3.54932 0.8001) (size 2.50124 0.50038)
      (layers F.Cu F.Paste F.Mask)
    )
    (pad 5 smd rect (at 3.54932 1.6002) (size 2.50124 0.50038)
      (layers F.Cu F.Paste F.Mask)
    )
    (pad 6 smd rect (at 3.35026 -4.45008) (size 2.49936 1.99898)
      (layers F.Cu F.Paste F.Mask)
      (net 4 GND)
    )
    (pad 7 smd rect (at -2.14884 -4.45008) (size 2.49936 1.99898)
      (layers F.Cu F.Paste F.Mask)
      (net 4 GND)
    )
    (pad 8 smd rect (at 3.35026 4.45008) (size 2.49936 1.99898)
      (layers F.Cu F.Paste F.Mask)
      (net 4 GND)
    )
    (pad 9 smd rect (at -2.14884 4.45008) (size 2.49936 1.99898)
      (layers F.Cu F.Paste F.Mask)
      (net 4 GND)
    )
    (pad "" np_thru_hole circle (at 0.8509 -2.19964) (size 0.89916 0.89916) (drill 0.89916)
      (layers *.Cu *.Mask F.SilkS)
    )
    (pad "" np_thru_hole circle (at 0.8509 2.19964) (size 0.89916 0.89916) (drill 0.89916)
      (layers *.Cu *.Mask F.SilkS)
    )
  )

  (module R0603-rubi (layer F.Cu) (tedit 56F54717) (tstamp 60990883)
    (at 81.75 54.5 180)
    (path /60990541)
    (attr smd)
    (fp_text reference C101 (at -1.778 0 270) (layer F.SilkS)
      (effects (font (size 0.5 0.5) (thickness 0.1)))
    )
    (fp_text value 100nF (at 1.778 0 270) (layer F.SilkS)
      (effects (font (size 0.5 0.5) (thickness 0.1)))
    )
    (fp_line (start -1.143 -0.635) (end 1.143 -0.635) (layer F.SilkS) (width 0.127))
    (fp_line (start 1.143 -0.635) (end 1.143 0.635) (layer F.SilkS) (width 0.127))
    (fp_line (start 1.143 0.635) (end -1.143 0.635) (layer F.SilkS) (width 0.127))
    (fp_line (start -1.143 0.635) (end -1.143 -0.635) (layer F.SilkS) (width 0.127))
    (pad 1 smd rect (at -0.762 0 180) (size 0.635 1.143)
      (layers F.Cu F.Paste F.Mask)
      (net 1 +3.3V)
    )
    (pad 2 smd rect (at 0.762 0 180) (size 0.635 1.143)
      (layers F.Cu F.Paste F.Mask)
      (net 4 GND)
    )
    (model smd\resistors\R0603.wrl
      (at (xyz 0 0 0.001))
      (scale (xyz 0.5 0.5 0.5))
      (rotate (xyz 0 0 0))
    )
  )

  (module lqfp-48-rubi (layer F.Cu) (tedit 56F56ABE) (tstamp 609908BC)
    (at 95 50)
    (path /609901E8)
    (fp_text reference U101 (at 5.538 5.86) (layer F.SilkS)
      (effects (font (size 0.7 0.7) (thickness 0.14)))
    )
    (fp_text value LPC11U24FBD48 (at -3.098 6.368) (layer F.SilkS)
      (effects (font (size 0.7 0.7) (thickness 0.14)))
    )
    (fp_circle (center -4.25 -4.25) (end -4.75 -4.5) (layer F.SilkS) (width 0.3048))
    (fp_line (start -3.50012 -3.50012) (end 3.50012 -3.50012) (layer F.SilkS) (width 0.381))
    (fp_line (start 3.50012 -3.50012) (end 3.50012 3.50012) (layer F.SilkS) (width 0.381))
    (fp_line (start 3.50012 3.50012) (end -3.50012 3.50012) (layer F.SilkS) (width 0.381))
    (fp_line (start -3.50012 3.50012) (end -3.50012 -3.50012) (layer F.SilkS) (width 0.381))
    (pad 1 smd rect (at -4.50088 -2.75082) (size 1.99898 0.24892)
      (layers F.Cu F.Paste F.Mask)
    )
    (pad 2 smd rect (at -4.50088 -2.25044) (size 1.99898 0.24892)
      (layers F.Cu F.Paste F.Mask)
    )
    (pad 3 smd rect (at -4.50088 -1.75006) (size 1.99898 0.24892)
      (layers F.Cu F.Paste F.Mask)
      (net 6 N-0000037)
    )
    (pad 4 smd rect (at -4.50088 -1.24968) (size 1.99898 0.24892)
      (layers F.Cu F.Paste F.Mask)
    )
    (pad 5 smd rect (at -4.50088 -0.7493) (size 1.99898 0.24892)
      (layers F.Cu F.Paste F.Mask)
    )
    (pad 6 smd rect (at -4.50088 -0.24892) (size 1.99898 0.24892)
      (layers F.Cu F.Paste F.Mask)
    )
    (pad 7 smd rect (at -4.50088 0.24892) (size 1.99898 0.24892)
      (layers F.Cu F.Paste F.Mask)
    )
    (pad 8 smd rect (at -4.50088 0.7493) (size 1.99898 0.24892)
      (layers F.Cu F.Paste F.Mask)
      (net 1 +3.3V)
    )
    (pad 9 smd rect (at -4.50088 1.24968) (size 1.99898 0.24892)
      (layers F.Cu F.Paste F.Mask)
    )
    (pad 10 smd rect (at -4.50088 1.75006) (size 1.99898 0.24892)
      (layers F.Cu F.Paste F.Mask)
    )
    (pad 11 smd rect (at -4.50088 2.25044) (size 1.99898 0.24892)
      (layers F.Cu F.Paste F.Mask)
    )
    (pad 12 smd rect (at -4.50088 2.75082) (size 1.99898 0.24892)
      (layers F.Cu F.Paste F.Mask)
    )
    (pad 25 smd rect (at 4.50088 2.75082) (size 1.99898 0.24892)
      (layers F.Cu F.Paste F.Mask)
    )
    (pad 26 smd rect (at 4.50088 2.25044) (size 1.99898 0.24892)
      (layers F.Cu F.Paste F.Mask)
    )
    (pad 27 smd rect (at 4.50088 1.75006) (size 1.99898 0.24892)
      (layers F.Cu F.Paste F.Mask)
    )
    (pad 28 smd rect (at 4.50088 1.24968) (size 1.99898 0.24892)
      (layers F.Cu F.Paste F.Mask)
    )
    (pad 29 smd rect (at 4.50088 0.7493) (size 1.99898 0.24892)
      (layers F.Cu F.Paste F.Mask)
    )
    (pad 30 smd rect (at 4.50088 0.24892) (size 1.99898 0.24892)
      (layers F.Cu F.Paste F.Mask)
    )
    (pad 31 smd rect (at 4.50088 -0.24892) (size 1.99898 0.24892)
      (layers F.Cu F.Paste F.Mask)
    )
    (pad 32 smd rect (at 4.50088 -0.7493) (size 1.99898 0.24892)
      (layers F.Cu F.Paste F.Mask)
    )
    (pad 33 smd rect (at 4.50088 -1.24968) (size 1.99898 0.24892)
      (layers F.Cu F.Paste F.Mask)
    )
    (pad 34 smd rect (at 4.50088 -1.75006) (size 1.99898 0.24892)
      (layers F.Cu F.Paste F.Mask)
    )
    (pad 35 smd rect (at 4.50088 -2.25044) (size 1.99898 0.24892)
      (layers F.Cu F.Paste F.Mask)
    )
    (pad 36 smd rect (at 4.50088 -2.75082) (size 1.99898 0.24892)
      (layers F.Cu F.Paste F.Mask)
    )
    (pad 13 smd rect (at -2.75082 4.50088) (size 0.24892 1.99898)
      (layers F.Cu F.Paste F.Mask)
    )
    (pad 14 smd rect (at -2.25044 4.50088) (size 0.24892 1.99898)
      (layers F.Cu F.Paste F.Mask)
    )
    (pad 15 smd rect (at -1.75006 4.50088) (size 0.24892 1.99898)
      (layers F.Cu F.Paste F.Mask)
    )
    (pad 16 smd rect (at -1.24968 4.50088) (size 0.24892 1.99898)
      (layers F.Cu F.Paste F.Mask)
    )
    (pad 17 smd rect (at -0.7493 4.50088) (size 0.24892 1.99898)
      (layers F.Cu F.Paste F.Mask)
    )
    (pad 18 smd rect (at -0.24892 4.50088) (size 0.24892 1.99898)
      (layers F.Cu F.Paste F.Mask)
    )
    (pad 19 smd rect (at 0.24892 4.50088) (size 0.24892 1.99898)
      (layers F.Cu F.Paste F.Mask)
      (net 5 N-0000029)
    )
    (pad 20 smd rect (at 0.7493 4.50088) (size 0.24892 1.99898)
      (layers F.Cu F.Paste F.Mask)
      (net 9 N-0000043)
    )
    (pad 21 smd rect (at 1.24968 4.50088) (size 0.24892 1.99898)
      (layers F.Cu F.Paste F.Mask)
    )
    (pad 22 smd rect (at 1.75006 4.50088) (size 0.24892 1.99898)
      (layers F.Cu F.Paste F.Mask)
    )
    (pad 23 smd rect (at 2.25044 4.50088) (size 0.24892 1.99898)
      (layers F.Cu F.Paste F.Mask)
    )
    (pad 24 smd rect (at 2.75082 4.50088) (size 0.24892 1.99898)
      (layers F.Cu F.Paste F.Mask)
    )
    (pad 37 smd rect (at 2.75082 -4.50088) (size 0.24892 1.99898)
      (layers F.Cu F.Paste F.Mask)
    )
    (pad 38 smd rect (at 2.25044 -4.50088) (size 0.24892 1.99898)
      (layers F.Cu F.Paste F.Mask)
    )
    (pad 39 smd rect (at 1.75006 -4.50088) (size 0.24892 1.99898)
      (layers F.Cu F.Paste F.Mask)
    )
    (pad 40 smd rect (at 1.24968 -4.50088) (size 0.24892 1.99898)
      (layers F.Cu F.Paste F.Mask)
    )
    (pad 41 smd rect (at 0.7493 -4.50088) (size 0.24892 1.99898)
      (layers F.Cu F.Paste F.Mask)
    )
    (pad 42 smd rect (at 0.24892 -4.50088) (size 0.24892 1.99898)
      (layers F.Cu F.Paste F.Mask)
    )
    (pad 43 smd rect (at -0.24892 -4.50088) (size 0.24892 1.99898)
      (layers F.Cu F.Paste F.Mask)
    )
    (pad 44 smd rect (at -0.7493 -4.50088) (size 0.24892 1.99898)
      (layers F.Cu F.Paste F.Mask)
      (net 1 +3.3V)
    )
    (pad 45 smd rect (at -1.24968 -4.50088) (size 0.24892 1.99898)
      (layers F.Cu F.Paste F.Mask)
    )
    (pad 46 smd rect (at -1.75006 -4.50088) (size 0.24892 1.99898)
      (layers F.Cu F.Paste F.Mask)
      (net 8 N-0000041)
    )
    (pad 47 smd rect (at -2.25044 -4.50088) (size 0.24892 1.99898)
      (layers F.Cu F.Paste F.Mask)
      (net 7 N-0000040)
    )
    (pad 48 smd rect (at -2.75082 -4.50088) (size 0.24892 1.99898)
      (layers F.Cu F.Paste F.Mask)
    )
  )

  (module lqfp-48-rubi (layer F.Cu) (tedit 56F56ABE) (tstamp 609908F5)
    (at 95 67 180)
    (path /6099029E)
    (fp_text reference U10 (at 5.538 5.86 180) (layer F.SilkS)
      (effects (font (size 0.7 0.7) (thickness 0.14)))
    )
    (fp_text value XR22414 (at -3.098 6.368 180) (layer F.SilkS)
      (effects (font (size 0.7 0.7) (thickness 0.14)))
    )
    (fp_circle (center -4.25 -4.25) (end -4.75 -4.5) (layer F.SilkS) (width 0.3048))
    (fp_line (start -3.50012 -3.50012) (end 3.50012 -3.50012) (layer F.SilkS) (width 0.381))
    (fp_line (start 3.50012 -3.50012) (end 3.50012 3.50012) (layer F.SilkS) (width 0.381))
    (fp_line (start 3.50012 3.50012) (end -3.50012 3.50012) (layer F.SilkS) (width 0.381))
    (fp_line (start -3.50012 3.50012) (end -3.50012 -3.50012) (layer F.SilkS) (width 0.381))
    (pad 1 smd rect (at -4.50088 -2.75082 180) (size 1.99898 0.24892)
      (layers F.Cu F.Paste F.Mask)
    )
    (pad 2 smd rect (at -4.50088 -2.25044 180) (size 1.99898 0.24892)
      (layers F.Cu F.Paste F.Mask)
    )
    (pad 3 smd rect (at -4.50088 -1.75006 180) (size 1.99898 0.24892)
      (layers F.Cu F.Paste F.Mask)
    )
    (pad 4 smd rect (at -4.50088 -1.24968 180) (size 1.99898 0.24892)
      (layers F.Cu F.Paste F.Mask)
    )
    (pad 5 smd rect (at -4.50088 -0.7493 180) (size 1.99898 0.24892)
      (layers F.Cu F.Paste F.Mask)
    )
    (pad 6 smd rect (at -4.50088 -0.24892 180) (size 1.99898 0.24892)
      (layers F.Cu F.Paste F.Mask)
    )
    (pad 7 smd rect (at -4.50088 0.24892 180) (size 1.99898 0.24892)
      (layers F.Cu F.Paste F.Mask)
    )
    (pad 8 smd rect (at -4.50088 0.7493 180) (size 1.99898 0.24892)
      (layers F.Cu F.Paste F.Mask)
    )
    (pad 9 smd rect (at -4.50088 1.24968 180) (size 1.99898 0.24892)
      (layers F.Cu F.Paste F.Mask)
    )
    (pad 10 smd rect (at -4.50088 1.75006 180) (size 1.99898 0.24892)
      (layers F.Cu F.Paste F.Mask)
    )
    (pad 11 smd rect (at -4.50088 2.25044 180) (size 1.99898 0.24892)
      (layers F.Cu F.Paste F.Mask)
    )
    (pad 12 smd rect (at -4.50088 2.75082 180) (size 1.99898 0.24892)
      (layers F.Cu F.Paste F.Mask)
    )
    (pad 25 smd rect (at 4.50088 2.75082 180) (size 1.99898 0.24892)
      (layers F.Cu F.Paste F.Mask)
    )
    (pad 26 smd rect (at 4.50088 2.25044 180) (size 1.99898 0.24892)
      (layers F.Cu F.Paste F.Mask)
    )
    (pad 27 smd rect (at 4.50088 1.75006 180) (size 1.99898 0.24892)
      (layers F.Cu F.Paste F.Mask)
    )
    (pad 28 smd rect (at 4.50088 1.24968 180) (size 1.99898 0.24892)
      (layers F.Cu F.Paste F.Mask)
    )
    (pad 29 smd rect (at 4.50088 0.7493 180) (size 1.99898 0.24892)
      (layers F.Cu F.Paste F.Mask)
    )
    (pad 30 smd rect (at 4.50088 0.24892 180) (size 1.99898 0.24892)
      (layers F.Cu F.Paste F.Mask)
      (net 3 /DP0)
    )
    (pad 31 smd rect (at 4.50088 -0.24892 180) (size 1.99898 0.24892)
      (layers F.Cu F.Paste F.Mask)
      (net 2 /DM0)
    )
    (pad 32 smd rect (at 4.50088 -0.7493 180) (size 1.99898 0.24892)
      (layers F.Cu F.Paste F.Mask)
    )
    (pad 33 smd rect (at 4.50088 -1.24968 180) (size 1.99898 0.24892)
      (layers F.Cu F.Paste F.Mask)
    )
    (pad 34 smd rect (at 4.50088 -1.75006 180) (size 1.99898 0.24892)
      (layers F.Cu F.Paste F.Mask)
    )
    (pad 35 smd rect (at 4.50088 -2.25044 180) (size 1.99898 0.24892)
      (layers F.Cu F.Paste F.Mask)
    )
    (pad 36 smd rect (at 4.50088 -2.75082 180) (size 1.99898 0.24892)
      (layers F.Cu F.Paste F.Mask)
    )
    (pad 13 smd rect (at -2.75082 4.50088 180) (size 0.24892 1.99898)
      (layers F.Cu F.Paste F.Mask)
    )
    (pad 14 smd rect (at -2.25044 4.50088 180) (size 0.24892 1.99898)
      (layers F.Cu F.Paste F.Mask)
    )
    (pad 15 smd rect (at -1.75006 4.50088 180) (size 0.24892 1.99898)
      (layers F.Cu F.Paste F.Mask)
    )
    (pad 16 smd rect (at -1.24968 4.50088 180) (size 0.24892 1.99898)
      (layers F.Cu F.Paste F.Mask)
    )
    (pad 17 smd rect (at -0.7493 4.50088 180) (size 0.24892 1.99898)
      (layers F.Cu F.Paste F.Mask)
    )
    (pad 18 smd rect (at -0.24892 4.50088 180) (size 0.24892 1.99898)
      (layers F.Cu F.Paste F.Mask)
    )
    (pad 19 smd rect (at 0.24892 4.50088 180) (size 0.24892 1.99898)
      (layers F.Cu F.Paste F.Mask)
    )
    (pad 20 smd rect (at 0.7493 4.50088 180) (size 0.24892 1.99898)
      (layers F.Cu F.Paste F.Mask)
    )
    (pad 21 smd rect (at 1.24968 4.50088 180) (size 0.24892 1.99898)
      (layers F.Cu F.Paste F.Mask)
    )
    (pad 22 smd rect (at 1.75006 4.50088 180) (size 0.24892 1.99898)
      (layers F.Cu F.Paste F.Mask)
    )
    (pad 23 smd rect (at 2.25044 4.50088 180) (size 0.24892 1.99898)
      (layers F.Cu F.Paste F.Mask)
      (net 5 N-0000029)
    )
    (pad 24 smd rect (at 2.75082 4.50088 180) (size 0.24892 1.99898)
      (layers F.Cu F.Paste F.Mask)
      (net 9 N-0000043)
    )
    (pad 37 smd rect (at 2.75082 -4.50088 180) (size 0.24892 1.99898)
      (layers F.Cu F.Paste F.Mask)
    )
    (pad 38 smd rect (at 2.25044 -4.50088 180) (size 0.24892 1.99898)
      (layers F.Cu F.Paste F.Mask)
    )
    (pad 39 smd rect (at 1.75006 -4.50088 180) (size 0.24892 1.99898)
      (layers F.Cu F.Paste F.Mask)
    )
    (pad 40 smd rect (at 1.24968 -4.50088 180) (size 0.24892 1.99898)
      (layers F.Cu F.Paste F.Mask)
    )
    (pad 41 smd rect (at 0.7493 -4.50088 180) (size 0.24892 1.99898)
      (layers F.Cu F.Paste F.Mask)
    )
    (pad 42 smd rect (at 0.24892 -4.50088 180) (size 0.24892 1.99898)
      (layers F.Cu F.Paste F.Mask)
    )
    (pad 43 smd rect (at -0.24892 -4.50088 180) (size 0.24892 1.99898)
      (layers F.Cu F.Paste F.Mask)
    )
    (pad 44 smd rect (at -0.7493 -4.50088 180) (size 0.24892 1.99898)
      (layers F.Cu F.Paste F.Mask)
    )
    (pad 45 smd rect (at -1.24968 -4.50088 180) (size 0.24892 1.99898)
      (layers F.Cu F.Paste F.Mask)
    )
    (pad 46 smd rect (at -1.75006 -4.50088 180) (size 0.24892 1.99898)
      (layers F.Cu F.Paste F.Mask)
    )
    (pad 47 smd rect (at -2.25044 -4.50088 180) (size 0.24892 1.99898)
      (layers F.Cu F.Paste F.Mask)
    )
    (pad 48 smd rect (at -2.75082 -4.50088 180) (size 0.24892 1.99898)
      (layers F.Cu F.Paste F.Mask)
    )
  )

  (module R0603-rubi (layer F.Cu) (tedit 56F54717) (tstamp 60997474)
    (at 85.5 46)
    (path /60990577)
    (attr smd)
    (fp_text reference R101 (at -1.778 0 90) (layer F.SilkS)
      (effects (font (size 0.5 0.5) (thickness 0.1)))
    )
    (fp_text value 1k5 (at 1.778 0 90) (layer F.SilkS)
      (effects (font (size 0.5 0.5) (thickness 0.1)))
    )
    (fp_line (start -1.143 -0.635) (end 1.143 -0.635) (layer F.SilkS) (width 0.127))
    (fp_line (start 1.143 -0.635) (end 1.143 0.635) (layer F.SilkS) (width 0.127))
    (fp_line (start 1.143 0.635) (end -1.143 0.635) (layer F.SilkS) (width 0.127))
    (fp_line (start -1.143 0.635) (end -1.143 -0.635) (layer F.SilkS) (width 0.127))
    (pad 1 smd rect (at -0.762 0) (size 0.635 1.143)
      (layers F.Cu F.Paste F.Mask)
      (net 1 +3.3V)
    )
    (pad 2 smd rect (at 0.762 0) (size 0.635 1.143)
      (layers F.Cu F.Paste F.Mask)
      (net 6 N-0000037)
    )
    (model smd\resistors\R0603.wrl
      (at (xyz 0 0 0.001))
      (scale (xyz 0.5 0.5 0.5))
      (rotate (xyz 0 0 0))
    )
  )

  (module strip-3 (layer F.Cu) (tedit 609910FC) (tstamp 60997658)
    (at 91 40)
    (path /6099104E)
    (fp_text reference J101 (at 0 2.54) (layer F.SilkS)
      (effects (font (size 0.7 0.7) (thickness 0.14)))
    )
    (fp_text value STRIP-3 (at 0 -2.54) (layer F.SilkS)
      (effects (font (size 0.7 0.7) (thickness 0.14)))
    )
    (fp_line (start 1.27 -1.27) (end 3.81 -1.27) (layer F.SilkS) (width 0.15))
    (fp_line (start 3.81 -1.27) (end 3.81 1.27) (layer F.SilkS) (width 0.15))
    (fp_line (start 3.81 1.27) (end 1.27 1.27) (layer F.SilkS) (width 0.15))
    (fp_line (start -1.524 -1.524) (end -4.064 -1.524) (layer F.SilkS) (width 0.15))
    (fp_line (start -4.064 -1.524) (end -4.064 1.524) (layer F.SilkS) (width 0.15))
    (fp_line (start -4.064 1.524) (end -1.524 1.524) (layer F.SilkS) (width 0.15))
    (fp_line (start 1.27 1.27) (end -3.81 1.27) (layer F.SilkS) (width 0.15))
    (fp_line (start -3.81 1.27) (end -3.81 -1.27) (layer F.SilkS) (width 0.15))
    (fp_line (start -3.81 -1.27) (end 1.27 -1.27) (layer F.SilkS) (width 0.15))
    (pad 1 thru_hole circle (at -2.54 0) (size 1.524 1.524) (drill 1.016)
      (layers *.Cu *.Mask F.SilkS)
      (net 4 GND)
    )
    (pad 2 thru_hole circle (at 0 0) (size 1.524 1.524) (drill 1.016)
      (layers *.Cu *.Mask F.SilkS)
      (net 7 N-0000040)
    )
    (pad 3 thru_hole circle (at 2.54 0) (size 1.524 1.524) (drill 1.016)
      (layers *.Cu *.Mask F.SilkS)
      (net 8 N-0000041)
    )
  )

  (module hole-3mm (layer F.Cu) (tedit 5A9163CB) (tstamp 6099721E)
    (at 115 40)
    (path /609909F1)
    (fp_text reference H101 (at 0 -2.5) (layer F.SilkS) hide
      (effects (font (size 1 1) (thickness 0.15)))
    )
    (fp_text value HOLE-3MM (at 0 2) (layer F.SilkS) hide
      (effects (font (size 1 1) (thickness 0.15)))
    )
    (pad 1 thru_hole circle (at 0 0) (size 6 6) (drill 3.1)
      (layers *.Cu *.Mask F.SilkS)
      (net 4 GND)
      (zone_connect 2)
    )
  )

  (gr_text "Origin (use 5mm to set)" (at 85.24 32.46) (layer Cmts.User)
    (effects (font (size 1.5 1.5) (thickness 0.3)))
  )
  (gr_line (start 67.46 35) (end 72.54 35) (angle 90) (layer Cmts.User) (width 0.2))
  (gr_line (start 70 32.46) (end 70 37.54) (angle 90) (layer Cmts.User) (width 0.2))
  (gr_circle (center 75 40) (end 75 42) (layer Edge.Cuts) (width 0.1))
  (gr_line (start 70 80) (end 70 35) (angle 90) (layer Edge.Cuts) (width 0.1))
  (gr_line (start 120 80) (end 70 80) (angle 90) (layer Edge.Cuts) (width 0.1))
  (gr_line (start 120 35) (end 120 80) (angle 90) (layer Edge.Cuts) (width 0.1))
  (gr_line (start 70 35) (end 120 35) (angle 90) (layer Edge.Cuts) (width 0.1))

  (segment (start 90.49912 50.7493) (end 88.2507 50.7493) (width 0.2) (layer F.Cu) (net 1))
  (segment (start 87 52) (end 84.762 52) (width 0.2) (layer F.Cu) (net 1) (tstamp 60997607))
  (segment (start 88.2507 50.7493) (end 87 52) (width 0.2) (layer F.Cu) (net 1) (tstamp 60997606))
  (segment (start 77.35026 54.54992) (end 76.54992 54.54992) (width 0.8) (layer F.Cu) (net 4))
  (segment (start 75.54992 63.45008) (end 77.35026 63.45008) (width 0.8) (layer F.Cu) (net 4) (tstamp 60997645))
  (segment (start 75 64) (end 75.54992 63.45008) (width 0.8) (layer F.Cu) (net 4) (tstamp 60997644))
  (via (at 75 64) (size 0.8) (layers F.Cu B.Cu) (net 4))
  (segment (start 73 62) (end 75 64) (width 0.8) (layer B.Cu) (net 4) (tstamp 60997642))
  (segment (start 73 55) (end 73 62) (width 0.8) (layer B.Cu) (net 4) (tstamp 60997641))
  (segment (start 75 53) (end 73 55) (width 0.8) (layer B.Cu) (net 4) (tstamp 60997640))
  (via (at 75 53) (size 0.8) (layers F.Cu B.Cu) (net 4))
  (segment (start 76.54992 54.54992) (end 75 53) (width 0.8) (layer F.Cu) (net 4) (tstamp 6099763E))
  (segment (start 92.74956 62.49912) (end 92.74956 60.00044) (width 0.2) (layer F.Cu) (net 5))
  (segment (start 95.24892 57.50108) (end 95.24892 54.50088) (width 0.2) (layer F.Cu) (net 5) (tstamp 6099762E))
  (segment (start 92.74956 60.00044) (end 95.24892 57.50108) (width 0.2) (layer F.Cu) (net 5) (tstamp 6099762C))
  (segment (start 91 40) (end 91 39) (width 1.6) (layer F.Cu) (net 7))
  (segment (start 93 37) (end 98 37) (width 1.6) (layer F.Cu) (net 7) (tstamp 6099767D))
  (segment (start 91 39) (end 93 37) (width 1.6) (layer F.Cu) (net 7) (tstamp 6099767C))
  (segment (start 92.24918 62.49912) (end 92.24918 59.50082) (width 0.2) (layer F.Cu) (net 9))
  (segment (start 95.7493 58.0007) (end 95.7493 54.50088) (width 0.2) (layer F.Cu) (net 9) (tstamp 60997638))
  (segment (start 95 58.75) (end 95.7493 58.0007) (width 0.2) (layer F.Cu) (net 9) (tstamp 60997637))
  (via (at 95 58.75) (size 0.5) (drill 0.3) (layers F.Cu B.Cu) (net 9))
  (segment (start 93 58.75) (end 95 58.75) (width 0.2) (layer B.Cu) (net 9) (tstamp 60997634))
  (via (at 93 58.75) (size 0.5) (drill 0.3) (layers F.Cu B.Cu) (net 9))
  (segment (start 92.24918 59.50082) (end 93 58.75) (width 0.2) (layer F.Cu) (net 9) (tstamp 60997632))

  (zone (net 4) (net_name GND) (layer B.Cu) (tstamp 6099763C) (hatch edge 0.508)
    (connect_pads (clearance 0.25))
    (min_thickness 0.25)
    (fill (arc_segments 16) (thermal_gap 0.3) (thermal_bridge_width 0.46))
    (polygon
      (pts
        (xy 70 35) (xy 120 35) (xy 120 80) (xy 70 80)
      )
    )
    (filled_polygon
      (pts
        (xy 119.575 79.575) (xy 95.625108 79.575) (xy 95.625108 58.626225) (xy 95.530158 58.396429) (xy 95.354496 58.22046)
        (xy 95.124866 58.125109) (xy 94.876225 58.124892) (xy 94.677197 58.207128) (xy 94.677197 39.774829) (xy 94.504464 39.356783)
        (xy 94.1849 39.03666) (xy 93.767155 38.863198) (xy 93.314829 38.862803) (xy 92.896783 39.035536) (xy 92.57666 39.3551)
        (xy 92.403198 39.772845) (xy 92.402803 40.225171) (xy 92.575536 40.643217) (xy 92.8951 40.96334) (xy 93.312845 41.136802)
        (xy 93.765171 41.137197) (xy 94.183217 40.964464) (xy 94.50334 40.6449) (xy 94.676802 40.227155) (xy 94.677197 39.774829)
        (xy 94.677197 58.207128) (xy 94.646429 58.219842) (xy 94.591174 58.275) (xy 93.40894 58.275) (xy 93.354496 58.22046)
        (xy 93.124866 58.125109) (xy 92.876225 58.124892) (xy 92.646429 58.219842) (xy 92.47046 58.395504) (xy 92.375109 58.625134)
        (xy 92.374892 58.873775) (xy 92.469842 59.103571) (xy 92.645504 59.27954) (xy 92.875134 59.374891) (xy 93.123775 59.375108)
        (xy 93.353571 59.280158) (xy 93.408825 59.225) (xy 94.591059 59.225) (xy 94.645504 59.27954) (xy 94.875134 59.374891)
        (xy 95.123775 59.375108) (xy 95.353571 59.280158) (xy 95.52954 59.104496) (xy 95.624891 58.874866) (xy 95.625108 58.626225)
        (xy 95.625108 79.575) (xy 92.137197 79.575) (xy 92.137197 39.774829) (xy 91.964464 39.356783) (xy 91.6449 39.03666)
        (xy 91.227155 38.863198) (xy 90.774829 38.862803) (xy 90.356783 39.035536) (xy 90.03666 39.3551) (xy 89.863198 39.772845)
        (xy 89.862803 40.225171) (xy 90.035536 40.643217) (xy 90.3551 40.96334) (xy 90.772845 41.136802) (xy 91.225171 41.137197)
        (xy 91.643217 40.964464) (xy 91.96334 40.6449) (xy 92.136802 40.227155) (xy 92.137197 39.774829) (xy 92.137197 79.575)
        (xy 89.656889 79.575) (xy 89.656889 40.179363) (xy 89.63442 39.707681) (xy 89.497141 39.37626) (xy 89.311356 39.297137)
        (xy 89.162863 39.445629) (xy 89.162863 39.148644) (xy 89.08374 38.962859) (xy 88.639363 38.803111) (xy 88.167681 38.82558)
        (xy 87.83626 38.962859) (xy 87.757137 39.148644) (xy 88.46 39.851508) (xy 89.162863 39.148644) (xy 89.162863 39.445629)
        (xy 88.608492 40) (xy 89.311356 40.702863) (xy 89.497141 40.62374) (xy 89.656889 40.179363) (xy 89.656889 79.575)
        (xy 89.162863 79.575) (xy 89.162863 40.851356) (xy 88.46 40.148492) (xy 88.311508 40.296984) (xy 88.311508 40)
        (xy 87.608644 39.297137) (xy 87.422859 39.37626) (xy 87.263111 39.820637) (xy 87.28558 40.292319) (xy 87.422859 40.62374)
        (xy 87.608644 40.702863) (xy 88.311508 40) (xy 88.311508 40.296984) (xy 87.757137 40.851356) (xy 87.83626 41.037141)
        (xy 88.280637 41.196889) (xy 88.752319 41.17442) (xy 89.08374 41.037141) (xy 89.162863 40.851356) (xy 89.162863 79.575)
        (xy 77.417574 79.575) (xy 77.417574 40.082416) (xy 77.417501 40) (xy 77.417574 39.917584) (xy 77.417429 39.917234)
        (xy 77.417429 39.916589) (xy 77.26452 39.151356) (xy 77.200928 38.998208) (xy 77.19848 38.995765) (xy 76.769003 38.351789)
        (xy 76.76776 38.348794) (xy 76.6504 38.231639) (xy 76.001176 37.79866) (xy 75.847917 37.735335) (xy 75.844462 37.735338)
        (xy 75.085419 37.583667) (xy 75.082416 37.582426) (xy 74.916589 37.582571) (xy 74.151356 37.73548) (xy 73.998208 37.799072)
        (xy 73.995765 37.801519) (xy 73.351789 38.230996) (xy 73.348794 38.23224) (xy 73.231639 38.3496) (xy 72.79866 38.998824)
        (xy 72.735335 39.152083) (xy 72.735338 39.155537) (xy 72.583239 39.916723) (xy 72.583238 39.9171) (xy 72.583094 39.917451)
        (xy 72.583166 40) (xy 72.583094 40.082549) (xy 72.583238 40.082899) (xy 72.583239 40.083277) (xy 72.735338 40.844462)
        (xy 72.735335 40.847917) (xy 72.79866 41.001176) (xy 73.231639 41.6504) (xy 73.348794 41.76776) (xy 73.351789 41.769003)
        (xy 73.995765 42.19848) (xy 73.998208 42.200928) (xy 74.151356 42.26452) (xy 74.916589 42.417429) (xy 75.082416 42.417574)
        (xy 75.085419 42.416332) (xy 75.844462 42.264661) (xy 75.847917 42.264665) (xy 76.001176 42.20134) (xy 76.6504 41.768361)
        (xy 76.76776 41.651206) (xy 76.769003 41.64821) (xy 77.19848 41.004234) (xy 77.200928 41.001792) (xy 77.26452 40.848644)
        (xy 77.417429 40.083411) (xy 77.417429 40.082765) (xy 77.417574 40.082416) (xy 77.417574 79.575) (xy 75.675622 79.575)
        (xy 75.675622 61.036341) (xy 75.675622 56.637061) (xy 75.550352 56.333883) (xy 75.318597 56.101723) (xy 75.015639 55.975924)
        (xy 74.687601 55.975638) (xy 74.384423 56.100908) (xy 74.152263 56.332663) (xy 74.026464 56.635621) (xy 74.026178 56.963659)
        (xy 74.151448 57.266837) (xy 74.383203 57.498997) (xy 74.686161 57.624796) (xy 75.014199 57.625082) (xy 75.317377 57.499812)
        (xy 75.549537 57.268057) (xy 75.675336 56.965099) (xy 75.675622 56.637061) (xy 75.675622 61.036341) (xy 75.550352 60.733163)
        (xy 75.318597 60.501003) (xy 75.015639 60.375204) (xy 74.687601 60.374918) (xy 74.384423 60.500188) (xy 74.152263 60.731943)
        (xy 74.026464 61.034901) (xy 74.026178 61.362939) (xy 74.151448 61.666117) (xy 74.383203 61.898277) (xy 74.686161 62.024076)
        (xy 75.014199 62.024362) (xy 75.317377 61.899092) (xy 75.549537 61.667337) (xy 75.675336 61.364379) (xy 75.675622 61.036341)
        (xy 75.675622 79.575) (xy 70.425 79.575) (xy 70.425 35.425) (xy 119.575 35.425) (xy 119.575 79.575)
      )
    )
  )
)
